14438
30463
19829
11650
21633
30143
19526
25374
13245
5409
32545
16076
20024
7768
13756
3957
15630
29862
31398
22656
19672
28109
23012
3560
6514
3783
31453
22161
5890
182
4467
18652
11317
21022
27251
21881
16844
22610
5935
21628
27480
17708
31849
26803
3393
17665
18547
11575
9229
14548
5269
24898
4319
24778
13743
1600
3902
2782
31
9257
14360
6614
741
10253
13831
30838
32261
4337
3794
19699
6189
24281
9783
171
6040
30758
24040
28690
8754
31010
30419
22256
18685
8666
6054
19658
25267
22060
7315
26013
31149
25632
5201
19155
20739
1148
3683
24687
17653
18834
7836
19083
2698
28765
14819
26372
4726
18380
20532
3956
4929
8798
18407
14176
32422
1519
15925
15027
26170
3538
12536
28779
4942
13087
30130
21907
22037
28494
8657
25713
20490
27909
18481
27648
15756
15151
12259
31649
715
13902
26669
14093
32744
7186
24017
9870
28760
32042
21906
22383
22922
346
28661
24752
19657
12750
6725
8191
99
15790
4313
17124
1035
27890
22170
28732
5244
13688
17855
9704
21087
9811
7643
7878
24687
7527
13082
21728
11483
31539
8903
29668
27115
18669
12562
20437
31207
1236
13329
13311
21045
2242
12292
7728
6593
16128
2269
14885
1698
6495
27904
12611
16122
32388
23879
8840
16669
8580
30281
22208
5878
30641
24284
1276
22695
16563
32728
15168
17008
21722
26910
16252
25042
11698
2009
31933
7668
23768
4612
20645
8005
25869
19245
19737
23139
10633
1656
16953
16956
26513
2534
9365
25971
28236
14039
9117
31493
2259
7118
1114
8748
20103
21365
5212
22915
19879
21729
18676
29035
17442
6422
24227
32174
23209
14798
3281
2659
5641
28022
8642
6162
29368
1146
6855
8984
24237
19394
3249
14924
1397
30845
28811
26850
8836
285
10377
30608
19913
1954
20795
18672
30341
14620
13062
21798
92
18027
26581
2242
13997
23114
2316
2792
2591
12428
31166
11950
19580
12964
8479
5061
24259
15723
10556
14940
1400
29726
5609
3649
22335
17574
18427
11593
31145
285
16568
27891
8270
12941
14732
25416
540
2299
25598
30469
14574
3236
26081
15100
16224
29830
26063
6328
226
17954
15315
3680
12300
8833
6758
989
22322
25717
17309
31551
22327
29729
7840
8285
18598
29627
16734
31676
29438
10641
17023
19635
20046
19274
26522
20172
17154
3695
937
28268
7165
8746
6586
12471
24296
30285
6119
21166
32457
29589
16007
25498
7383
2353
1958
24238
19341
13182
8883
2024
2045
24597
22649
4152
23911
21255
27473
17636
26378
29031
18325
20011
9274
5385
6231
16681
21171
19850
5203
2298
17197
12944
5923
27426
23600
11091
23218
11052
16170
20317
25843
4498
17343
17550
32211
23005
15712
15970
16748
19469
16159
631
8827
1339
20929
5705
28948
13181
20501
31296
14740
18698
23941
5614
4056
27295
10987
14737
6828
7457
32166
22752
29574
30339
11500
25348
11893
21994
2401
23524
7764
26383
25321
6821
10563
29925
8379
20849
16728
20349
8120
17016
21905
18726
19194
17973
20237
3800
8879
1779
28284
24531
9512
5519
7637
26755
20013
15231
2631
17575
8340
11795
6769
27826
28178
1787
5333
4721
20816
9738
2698
12527
3649
24634
23090
21398
19636
8175
24364
22678
24869
23168
8459
12939
6105
32499
5958
27994
13866
16904
21808
31323
9759
27514
12843
1982
63
2177
16921
26407
26535
10139
12820
18332
27739
396
23903
18081
26586
13219
11932
7329
2037
28480
8511
26768
31712
17043
30530
24271
30602
24230
30491
24400
298
32414
17899
14074
15642
21566
12792
4175
11241
7596
349
22348
3756
18552
6400
5264
26004
17882
4037
961
15558
29755
513
26924
15206
16887
14642
27307
10485
28002
31725
28620
23774
1545
6679
19759
19531
4922
2392
16176
10813
966
9677
30662
19932
19205
27389
17323
21260
20251
14607
2750
10560
3194
31290
12197
1171
4776
15484
4790
25877
15939
5007
15384
10338
21570
22297
28965
22906
25213
4387
14611
13004
2416
12492
5332
1684
4923
21822
28218
359
31726
17634
607
31500
20228
25808
19268
18830
32301
17546
11448
19087
5457
4585
26748
5855
28625
2391
7588
5198
21264
13887
22336
22974
4658
6082
28220
6524
7971
32172
17029
1488
11483
12710
3949
25554
18145
16557
24401
16512
526
30914
25209
31758
10900
28387
11583
8061
4927
8507
8564
12399
27130
2454
1791
30522
13716
13335
6087
27451
24772
11821
724
14701
30315
25027
10929
6457
29466
12471
8980
25488
20436
25742
12736
8248
10773
18022
22187
32099
11538
29483
8028
25990
8259
16398
18840
10088
16159
17203
31037
25722
15911
21674
1390
14694
8485
7073
8432
21738
18102
31704
25044
28903
19718
30549
27735
25013
13275
22616
17670
12218
24533
14225
3622
28475
25332
12945
13394
19057
11866
26239
20070
29152
4434
780
13468
26340
10642
2472
4853
21645
10429
3319
31451
27308
4908
1150
14340
28462
23534
2211
27801
31145
525
2772
14488
3381
4883
24070
28791
1149
14029
9057
9994
1046
10319
28473
3750
26383
16440
14913
30087
22985
29752
29435
24943
5896
28623
17267
3728
31563
10839
24365
21932
25177
7748
27996
15739
797
1451
25428
15181
15795
16385
25410
26352
4035
17702
29467
9684
8974
18849
8146
4461
10822
30766
24782
7385
35
25718
20379
15811
15539
6941
2016
7303
13554
29441
17297
3990
6298
961
1893
26141
8764
25981
29579
17889
3472
7645
3225
8301
18442
24149
4293
880
4013
30631
11607
18529
29732
9897
10334
26468
28175
7752
21154
29041
155
29389
21979
30131
6485
19039
13088
22062
8768
30409
1442
20389
31268
23678
23962
14523
18218
19162
18304
15448
22438
10667
21374
4942
1332
8176
12580
317
19974
6113
13149
6324
6268
17455
20642
2712
21749
2700
29549
1226
29158
30574
12017
25604
22057
7952
11272
15620
21911
4026
25197
237
21464
14659
29227
16618
2426
28116
12629
21780
8001
24558
16888
27286
5054
16815
17486
15630
7971
26961
31028
32567
2390
7923
26846
14022
9796
30620
25034
3985
27768
24957
25586
27126
23020
17782
19526
10363
6943
25052
21593
178
10343
17018
14939
21344
19849
31189
9543
20445
20359
32693
6493
26302
9401
22752
4307
20402
29471
27689
3272
9898
18678
10409
12921
25661
17289
24909
18615
13642
6218
401
10649
30175
13345
32650
31854
21337
25860
12074
19445
22989
16840
23232
19665
28839
17463
17598
26679
2705
18786
30399
24298
3223
27705
456
6249
12424
28248
5070
29286
26271
8996
1657
9339
31330
4375
19240
3097
32459
15704
22581
29889
17830
21903
31610
12406
26170
11255
13844
5234
5931
14773
1382
11800
24479
7016
15713
17450
25504
15361
22531
30780
20418
8661
24094
7272
10245
4592
19803
4420
32252
32172
8062
16401
21039
28291
22252
1333
9407
25634
13418
7916
31048
22718
31271
29754
21003
24491
24573
18468
26189
4651
7412
11551
6138
16004
10760
19657
27790
3413
8748
22487
3381
4393
25486
12878
4657
29773
22045
12279
7549
14559
31561
29964
2224
16168
11017
20280
10787
1580
8739
6847
30038
23166
17832
2040
31376
26457
16317
21764
2502
24045
22945
20410
31934
9975
14060
13281
27765
21140
22037
14754
21949
14935
31287
26684
28970
2457
25109
250
16943
8208
28763
5731
8581
676
10535
9136
18124
20093
10439
14467
5493
25185
30661
3285
12511
12861
24608
4400
7104
30977
10205
20255
26311
15537
21694
11748
12928
22713
23890
28520
2167
642
27438
31096
20384
31810
4729
16173
24566
27160
8878
24236
31075
32088
29853
18192
8672
27172
22963
31397
11997
23356
4220
16727
32227
22550
25190
24426
8312
20786
20168
9323
32579
18088
26402
26214
14448
15619
16551
15705
15702
29777
7928
4841
29527
5499
15411
23124
23560
18899
21036
1191
2194
28908
18682
1329
23641
26798
11958
31287
25307
7081
23679
19945
15578
18858
27841
25493
26813
16012
26295
9499
27188
27473
17199
1185
5403
5490
11918
18055
32673
4210
11283
10141
24489
13753
32352
13204
22384
3744
31030
24499
30064
25801
8320
15819
27525
11441
14483
23405
16719
32392
11188
8538
1495
4416
26842
18235
17525
27620
8118
12179
16625
16683
32241
16369
16104
10573
20917
2410
22641
11797
13678
21830
10241
23863
10450
27130
18828
21733
15135
7255
30445
32413
10915
256
17288
27717
7554
21025
15150
2937
22452
23902
26689
8996
4685
3594
1304
20301
22529
26522
23716
28468
2791
1113
7764
14750
30589
27741
10551
27501
6381
22713
4705
17523
29326
14068
27279
18056
8878
186
1806
27354
4751
15314
20952
16773
26543
13904
25857
12132
6732
21260
30033
15910
21800
31314
20531
12964
650
731
28877
23921
10885
9980
28785
22963
1660
23070
22068
11826
28134
4718
2524
1199
79
23254
28160
27511
12447
16683
25962
21816
5535
29864
18368
19218
9145
10395
2404
1265
13312
3934
6808
23579
31856
393
16870
19461
23926
9574
30143
30059
10419
10917
31074
22431
17661
28241
16639
13346
21414
6915
24860
20593
15105
6486
3385
2593
14883
25754
27055
28974
27111
6093
13534
23697
20277
18119
2951
11536
25219
30644
19575
12890
12443
20679
24422
26195
30879
20013
25374
29357
27467
5184
1760
13496
28539
12798
4867
13179
4077
26553
25822
15363
30279
17935
25064
6139
5980
14621
9758
4733
29867
21488
29093
16168
5928
28732
6577
14195
10048
30289
165
16960
17943
24906
22908
6581
3092
21384
14951
17223
20639
20319
17079
11799
7977
26638
22526
2946
32109
32501
15985
5619
26358
24834
4241
14844
8674
22637
23051
21926
20709
1701
23004
517
26257
6794
12216
6927
24020
14044
30893
31150
23490
7411
7940
5139
7828
28593
24936
30798
24049
8886
21834
21787
109
27090
26755
1279
19024
15552
9787
20372
27032
17169
17162
21793
833
15462
13406
22638
9667
14562
22301
23255
17629
13791
27019
16030
8849
29408
23661
25478
18800
4807
16239
29085
31767
23881
19651
18009
15866
13470
22539
14310
22880
4989
9337
8895
1711
10055
26164
30076
6378
23171
29438
12010
21368
25482
26133
609
19751
11139
15190
5714
1136
8594
9640
4384
2301
20045
9368
26673
24168
15216
7489
9540
31814
977
31343
5637
3940
8086
6148
6622
24656
16549
32154
529
795
21340
11369
14340
13406
30595
1131
7643
1915
1406
1215
23884
18981
29639
27468
6319
16675
12444
30630
12885
8784
17397
21813
7707
28647
19897
28820
28991
6397
13361
15415
9330
847
5821
10321
15406
25150
22726
20980
19273
32536
22771
11642
971
22169
10400
12325
18941
12210
22412
15618
32194
3976
10193
22803
28202
11968
15898
27308
11077
21498
8720
2078
10805
14235
8981
6547
28551
21712
30005
21049
13252
19408
6745
17571
13890
14689
27582
5740
12864
10141
22438
5917
10802
31734
10062
15952
32090
1656
24863
21782
31640
5710
6952
20119
27523
14216
20940
5112
14008
32283
5816
18306
12403
553
11289
17152
10844
29059
24587
21864
19363
23149
15444
958
24142
5025
24146
20790
1746
26006
2866
21145
6625
22785
21603
4329
1156
20125
24650
32584
31337
17447
11064
2070
24190
27309
21657
30042
6591
29193
19566
14435
21579
11689
29949
21679
17598
30353
3270
29195
2491
28322
29882
23036
16840
2332
9896
25694
21855
31842
28664
5963
10049
253
17563
32318
7950
484
15938
31864
16915
8698
7118
7843
20067
15065
21768
12214
3113
14542
5779
5400
18748
30756
14879
13832
13044
1958
3806
29244
573
29791
1596
27592
11753
676
6347
10306
5963
30805
30588
19748
25857
23647
23829
31601
17
20357
5087
3740
26424
25185
927
17061
19582
3237
23496
1413
12558
10663
11759
30668
29509
7709
3199
24713
777
2852
430
6250
12380
12936
29360
12324
18480
28735
17194
22037
29565
27958
19689
16168
3218
28497
32724
5882
24233
27309
15903
15163
957
14376
18626
18006
21664
5411
20522
11604
8008
20614
32046
29949
5993
18693
1604
16961
13642
8354
9461
18903
30417
18803
32654
25380
14047
20390
23321
16990
3812
1218
10635
7665
30378
28719
18495
17186
5749
10489
675
24050
32590
31953
11570
30789
15772
2133
27810
29763
31220
9361
32094
1535
7218
19909
3894
28758
9417
26472
2389
2331
12375
366
19060
18545
22909
711
14670
26487
27885
23848
14676
21035
9156
11789
22433
28808
22555
28927
17456
2802
26584
10002
27469
19924
14794
6067
17225
12424
6390
3744
8818
17271
23083
15160
12610
10625
32733
5365
19671
16543
20528
26935
28067
15814
4434
30275
26213
16399
24590
14219
3928
7958
21662
18224
12714
30879
27073
30917
18223
16768
23054
4438
25175
23995
26504
16552
21086
1002
16754
16323
22466
28640
31845
14510
31994
10381
20639
23418
26469
23842
4766
17537
13441
7542
6638
6128
14173
29096
2623
30339
10833
5383
12986
12176
10476
22574
30613
21575
1582
28275
31205
4152
21239
10883
29108
27414
10432
28230
28244
22458
3209
21001
28914
13418
32274
18139
5486
8284
1870
14391
15723
19062
24597
28900
29090
7512
31257
18202
28027
27804
2331
21478
2270
1884
23391
14799
29766
21493
5725
16058
31512
22795
11193
15627
16436
22478
6773
12301
10441
23419
20582
24468
26989
25125
16356
28385
26989
693
32198
21189
28769
13360
31630
29450
20996
6712
12768
31502
3139
31446
20281
7601
2964
16758
16093
20593
2441
13107
7185
16852
14757
14421
25995
3847
14446
24344
1319
31940
28867
31664
32731
14200
27504
2441
25069
24230
15616
12755
15203
24454
1491
6974
16572
25331
14448
26370
25565
21124
6683
32547
31054
14584
12715
6643
15782
471
6294
5848
20292
23638
25166
6223
28736
17787
3536
32561
9377
32131
13689
11062
209
27777
28956
9399
15438
14919
7763
5048
23713
7561
786
10277
3220
9792
32386
22364
29600
1869
15372
4844
8613
9055
7347
23708
25310
24854
19112
23472
4115
2665
11032
22375
12048
15173
8777
15048
30551
9078
24037
1438
3858
8139
6550
20162
5195
28277
4562
15256
18015
689
6393
4316
25520
15271
669
16543
3995
657
22816
6540
21674
5151
4485
31600
5898
31002
12672
13562
2879
29257
7119
28351
1302
23441
30413
18304
13019
19039
24901
1456
6349
27467
27012
561
24783
25333
31410
12383
21088
13875
13410
26447
1741
32111
24679
20568
11685
26442
31465
7891
30062
20101
185
29984
27798
26402
30690
6890
28333
18118
26241
26795
29137
19554
11222
3186
18537
11026
28570
3044
11030
7238
7059
10112
7910
32031
4967
808
3019
23324
7854
14301
5964
13301
14666
13003
6011
27847
15867
1413
12839
17522
7982
2961
31826
17727
8726
2343
11749
31175
20478
10038
15779
26896
4574
28840
31068
7672
10796
13543
28259
15831
244
29600
13890
29280
30251
13767
31659
10952
11841
30683
19378
30763
3317
2411
1850
2347
21101
1497
2221
2266
3718
19038
20977
25818
24169
3406
22167
16066
10335
31389
13909
3268
18918
31139
31670
11661
27652
28
13072
29549
29147
5747
28087
27320
13694
28992
1392
24428
1795
17423
13352
26131
8665
12643
21478
27627
3164
31738
23295
4677
5543
23891
26761
22827
26025
9582
29969
23877
21372
2003
31633
11518
30193
14805
11932
30946
8816
17944
3548
9034
19967
14673
28606
29500
1184
3149
21356
28301
27360
28469
3836
8008
32173
23056
11750
18516
1128
1673
5052
19792
26939
14066
14101
20930
27565
28298
2251
21361
24947
32507
23398
17423
31113
3879
24279
26139
13698
32548
1130
28934
3357
19845
24310
16533
28696
25052
21334
4998
6729
24701
11549
7542
28138
27524
27526
28674
18485
29977
23210
32557
1073
1778
19702
17665
8139
8986
2267
18554
14120
8689
16071
2975
19002
12661
6997
9458
145
22975
18881
2058
24436
10960
31390
16767
9777
30606
17099
10758
17585
16906
26275
21725
8271
15620
25972
15722
6890
1713
22834
30751
4153
188
32365
27296
15711
27018
30849
20264
18112
6850
9741
1833
20498
4365
6566
306
23223
8474
2764
13846
24138
32230
21276
331
20344
29754
19400
22672
2321
32629
8005
9938
19294
7051
25411
20049
17846
30798
3810
5631
24140
29164
8483
1576
11339
29369
2972
30808
22565
8751
13681
24186
22055
1331
10879
1341
12114
29594
19162
21948
19558
1772
3706
23133
30527
26216
12593
2809
1636
5192
23264
9278
26334
8262
6123
3666
30790
25438
13802
5817
28450
10454
22690
377
12658
26748
23347
13692
24965
30255
20882
2101
2833
19104
15930
27783
9859
18778
20511
2274
26260
10240
15588
30895
1053
23254
2893
15598
31788
10883
25079
8221
29783
22294
11847
4444
14672
27718
14240
15056
3002
11006
29401
22341
12091
11289
10734
2839
28627
8298
19445
17490
4460
20991
31060
26136
23986
19110
8242
17219
17444
17329
15659
11340
16491
17143
5192
5228
31467
2331
30254
4608
22425
13585
26005
15922
26380
16605
12540
14294
28118
15262
21659
19858
30228
25804
14490
4930
8004
3262
8064
26266
8279
24175
22766
9997
12295
30337
3213
9454
18283
27522
12613
3030
29385
11119
1200
19525
9387
21110
5838
18572
16181
24320
15866
18666
18357
26351
1820
31477
30844
12836
30241
59
9453
24133
10920
20522
9171
28605
15614
28973
13304
29700
26445
19736
3827
6432
20240
9414
7745
24172
714
26368
1687
17048
32760
28321
32119
4849
21828
27640
7426
16354
13563
32110
10765
23227
3009
15209
118
8370
28548
15216
6584
14120
31406
20111
25022
32045
26527
32509
19957
5701
90
4348
27301
4716
13950
2817
21121
22361
30585
2325
17533
12032
4344
24443
19423
8026
14753
20627
11929
28520
4613
23038
5590
32118
12752
23811
9427
19101
5443
9777
29168
24459
32485
6214
5639
28295
8565
32336
17916
22191
9762
18706
10901
27780
25343
15273
27276
11177
21937
19312
6883
13800
13930
14112
2424
17270
14108
6460
5593
26744
17126
31148
3161
21445
20947
8871
14180
27374
9411
15575
6927
26492
32169
30392
3827
22904
10231
15170
10812
13105
25943
15303
13821
16953
4764
20766
6599
14769
6392
30721
30329
12742
32623
27828
25433
16508
12427
10727
356
4011
18514
20190
22755
5190
32373
12495
13631
19171
202
7052
29462
7544
20988
1377
29838
22115
130
14912
12266
17582
18893
16923
3163
30096
32198
1682
280
10039
13943
31694
10928
22724
14344
20653
19103
7064
3310
27167
25888
2510
12895
11728
28995
1544
26889
24583
20287
10351
32259
6350
30985
31989
8196
5203
8486
30430
5331
25230
13245
15742
25342
14884
28144
13892
17359
29323
32620
28663
29052
26991
27199
21312
9630
22357
5355
15465
23524
22399
17080
25188
11529
9999
26190
12047
22019
24431
642
27830
16254
12271
3441
27865
6536
23216
2507
3120
24462
30914
19058
14317
22663
18825
5188
22593
26479
4453
4660
17441
16375
19345
20384
8778
21371
13132
11487
23427
2612
26679
537
546
7343
12799
25691
21201
8573
10043
16618
12946
9005
15256
17112
19969
21111
31027
14038
15833
10426
26950
24905
21690
3753
28679
31392
31274
23360
8141
17892
14041
16126
18293
30096
22057
28494
16388
21156
16621
9798
15757
23029
30065
19091
10070
17351
16572
21428
15158
10653
7441
15975
65
15952
22972
9569
19624
19551
28683
21058
25306
28294
10650
23240
27119
13970
31699
7747
17735
13939
15542
14153
3950
8083
5334
13738
15427
27750
21156
13478
9818
18499
752
8542
2974
10610
29357
17801
15675
20870
32245
27240
1723
10220
20557
10236
4206
8901
31273
13430
16656
12785
32691
18415
25254
24684
17608
26713
3753
8158
31299
12726
9574
29293
28799
28296
21669
26326
29463
5256
29065
6844
4592
31130
10679
14144
31610
21761
20410
7121
19506
24783
18087
11077
30572
12192
20732
28457
11599
2696
18126
1366
25121
27466
30500
3013
23237
26315
14494
32421
25217
7110
27994
15530
3589
31168
32279
9639
12201
29759
4251
1887
24823
30263
32083
19609
17769
10693
18490
8818
27251
26655
8443
2039
26820
26060
11866
31731
10954
28432
10448
15622
31860
18603
2165
20471
18491
2243
18980
16459
9571
31774
4057
20247
7038
27540
8285
1042
16179
21956
2598
21742
3133
28935
28024
22249
8374
2466
12753
11935
15766
4160
10884
12834
12407
27807
28324
29004
2715
26761
26659
6228
18735
18182
24123
24736
21201
23504
32525
986
28241
14087
11401
25926
5812
14630
4237
25939
20607
9014
15441
4976
25650
30529
22274
12832
8722
15626
8109
16721
4907
32507
18015
746
15254
4959
24715
11683
20984
1489
31915
16921
4171
13556
6442
13858
481
30821
642
27229
29349
25326
23714
7694
25509
29949
23442
21801
10445
21332
28505
25773
5109
22017
26399
6451
20767
913
20367
11207
22521
19585
4223
30966
5802
6901
3539
11816
14794
2732
20382
24881
13746
23860
30091
17954
29943
32346
31100
30565
20529
11493
1392
1033
13057
7044
24746
14426
4690
7684
14352
21685
6110
14022
17873
9882
9972
6257
7242
14339
7801
28644
6187
2292
31790
2671
15829
1876
17712
11330
1543
14587
22469
11045
23994
19468
2645
8554
23881
389
15287
19744
31445
9748
14511
28554
15336
3373
6836
16592
10840
16985
1014
19443
4207
25809
23711
18182
16456
24907
30041
15260
27260
32276
13073
4989
18431
27999
10235
23965
6980
23005
15831
24398
19624
8589
21874
17844
9741
13014
32623
2937
29125
16339
12871
26307
179
15342
8591
21347
23468
22448
6778
3408
9251
28375
2462
3923
26630
7337
3579
27139
27875
27273
15673
1780
13903
19656
32049
11308
19336
25021
5807
21462
89
10008
25974
11323
17726
6515
18821
21485
17097
29226
15769
9797
17476
30573
14067
11280
13720
4755
12891
1158
14446
8369
4709
23164
5267
12652
13043
14810
1953
10251
22011
22862
14300
29393
19851
11330
20058
19593
1802
20748
31847
15458
23488
12133
28711
18429
19097
23325
31869
3013
32549
3853
30764
11647
18916
21580
6204
23841
28097
10662
18848
22504
26332
16201
19989
8613
3724
6850
8269
26712
16549
14120
25421
17919
26102
30103
24852
21680
2070
29152
23677
18662
21089
3967
14950
1561
9277
21198
17938
24977
6306
23160
5324
1915
9945
3375
19661
13885
16515
20386
21344
17415
4318
22185
9796
8874
16708
27075
25682
21934
26356
10691
18783
3742
32277
12230
8548
25511
5624
6248
30429
21602
4766
20280
110
4333
10106
11881
4556
14144
28535
18122
5083
31422
17981
25592
18452
27147
18096
8401
23338
18206
4794
8237
2797
9623
18507
15817
25454
17234
18334
19332
22372
20284
11965
11982
14286
4709
11847
29277
20186
12119
7025
8225
8710
27559
25419
30587
8069
14281
17221
21418
15076
26920
27377
22150
15597
23158
27402
11120
19148
26177
5558
30345
26736
28616
13320
17442
31284
28172
13513
3188
2495
11562
14456
8081
21032
14823
7823
3483
22366
11149
30728
24372
3272
16374
800
12853
20264
32230
5211
3747
13765
20894
4296
2015
32457
22445
23942
32284
6888
18954
26759
5142
7234
17248
11924
11522
3211
19625
25233
1728
28265
26878
6659
17496
28189
5037
8911
31908
1382
25741
26180
8522
5794
20110
32092
20974
17207
11412
23103
28581
305
4230
11017
1196
13357
2209
22989
21594
19829
20243
19930
10067
14188
6085
21053
10239
4141
28792
17799
25402
30575
26387
30416
16717
29612
27195
21499
2845
12930
6181
19772
20387
10329
28584
4568
15772
21318
6039
2604
17794
9519
12365
13041
6074
22832
25481
15806
21263
14398
9853
6862
30559
4362
25121
20484
28820
26408
30157
16684
19926
7537
18439
19844
30976
8102
22938
26235
592
20310
3816
952
21602
14337
9088
6238
25695
20093
31731
28047
12914
16281
18916
1583
11899
4609
13919
28650
21768
8033
1644
9592
6273
10445
28131
26143
27298
2657
1153
9850
31278
21028
4412
32378
30946
15922
8148
14506
32168
26139
5291
26295
22286
4998
13014
7983
25078
3610
18548
18569
14479
24222
30014
5478
19844
19806
16224
5654
18291
8145
27272
862
12448
22906
17724
9848
20203
1036
24688
604
14335
17105
25944
8766
30157
13644
32123
12632
20281
27934
265
16361
2322
31526
24430
22910
13128
22508
30247
20592
22105
11072
18900
25262
5389
14110
21903
7100
5731
27093
25725
6140
19403
23400
10658
3373
26517
14901
2554
15409
6058
27348
19653
12307
22650
24386
9762
28232
29749
26943
20447
31797
574
3060
9360
24050
31453
4313
28894
29262
13108
25558
28450
20499
21876
31401
8499
2187
10576
19335
31867
29506
16562
5894
7249
26382
23725
2362
28291
1101
7860
30238
3633
29806
23049
13622
16610
17075
6519
24691
18897
12852
11588
31319
1928
13608
21858
16217
4016
26976
23525
9867
15656
15892
13242
21882
25684
9954
28565
2902
8632
20
9515
18259
30405
2082
4258
11854
10482
4727
3141
29620
5903
22392
12413
18848
30934
1475
12284
7235
15556
30900
17468
7305
30759
14382
15912
24057
7543
9624
3865
3038
27881
31269
24067
31140
21314
31321
31985
4740
10985
713
21166
27748
4929
21026
3269
504
21045
13420
11692
22574
29717
29584
19261
4809
7584
12568
4453
15435
17506
3383
23840
17689
16704
16137
933
32218
29009
539
6621
4384
22767
32046
20506
16458
32014
1592
13830
26537
26317
26540
31450
3553
1355
2811
32208
658
25020
11355
17114
20536
22972
31687
8084
1360
21474
20295
13431
6333
8857
19057
1616
28009
2347
7984
19441
14639
5919
19396
17447
21241
19909
31242
10220
11301
17423
25598
3293
31022
15522
24958
19438
19848
25133
849
16476
11979
7674
24423
29411
25364
15555
29282
1330
32424
21958
14934
29084
29915
10267
28365
29456
12337
25158
31247
10571
30146
2057
6048
19788
6115
27260
15369
2568
15362
26207
10715
19808
14290
23726
22514
9552
18857
6518
3319
32105
12326
7400
21544
20609
25878
31403
12124
8873
32664
17271
10817
22367
384
11488
13033
14341
5114
27503
23429
16018
30576
29431
26992
30856
10925
4390
21871
5670
3394
5723
8503
31198
296
183
9775
23561
20392
23927
16760
22234
21880
21633
299
28304
14887
4668
14049
27120
14010
933
4985
3827
12184
6304
12309
6076
9635
139
10342
29644
17064
5401
10794
10617
1273
26462
7666
27548
20056
8998
19753
14219
23063
15499
10578
3911
24190
7111
6289
9206
23917
15174
27501
1171
26690
27648
24532
9444
23293
13317
21855
20652
21155
31577
5848
24355
25312
31491
23802
15011
20207
8801
28279
4260
18879
26302
320
15850
334
12582
16640
19197
31065
24185
7913
3290
31032
1471
20148
15848
4356
30907
5347
9005
31226
12995
19018
4546
22052
10703
14541
26756
4918
13775
13675
21005
29878
578
7036
25315
2399
15876
3382
26606
4040
32103
7542
31024
3649
646
18110
9392
8701
24534
21369
17847
18807
10494
7047
23615
11790
9705
15093
30889
12530
15385
9740
4014
16196
574
16014
19096
12665
12807
20028
10162
14848
27704
2715
32509
10020
765
1528
16164
31795
15997
12714
30386
9696
20403
21911
32131
19942
25977
8442
21112
4590
6118
14435
367
8627
7642
25855
9587
2148
215
18713
23343
9546
17171
15841
14249
6058
11211
15980
5933
8685
11737
1021
22662
18430
7305
14211
22645
11508
8873
23650
16731
29681
12255
22646
825
10313
20544
15701
2010
28903
8733
14037
30543
4845
24096
17103
8348
1947
9624
5666
23217
10610
2834
21242
29084
15513
2345
29778
29692
22143
23455
4791
29881
26818
28332
26191
5362
29520
22677
10779
27191
8652
4481
17529
5369
22579
23945
22765
6974
29375
7438
10016
23449
15627
30543
23337
11354
25721
4922
13068
31490
27089
21123
7552
32762
22058
17140
13814
23172
14094
14852
16854
10481
9689
20138
4876
28949
24162
9587
29635
27896
10461
17107
32624
4046
6912
22456
3347
22313
29797
15461
3770
15470
6704
3454
2630
23173
30193
8031
3953
7125
15308
15282
20240
1136
23511
23873
14230
27786
8899
24072
15066
16176
19903
19343
8474
4407
5529
21879
3391
9330
29990
2642
5730
11048
12005
22200
6800
24516
21983
31383
11978
17615
24017
26826
20560
8476
30349
17645
15136
3138
13982
29552
2489
8015
22827
28651
548
7611
4894
23985
13365
10907
17284
1704
19727
24087
823
15448
17382
20254
22459
20289
17417
25945
3431
4210
30751
1885
31941
4439
6832
31012
16187
5587
28648
32446
5866
27790
3224
5956
3542
8593
3710
25614
4167
16144
10694
4133
1648
4230
12240
19451
12623
7176
29492
12634
20180
17874
11524
9115
18757
21031
18257
24
30177
14680
12528
13028
9924
546
7805
953
5130
5692
23713
12081
24631
17713
6033
8249
15319
26988
15319
24003
27745
25489
21589
188
14945
24596
2439
17982
2774
6916
9736
4614
10201
5671
17496
29992
31872
30028
2524
3329
18434
29917
4902
20078
3100
11956
30071
4411
15027
8495
31106
28639
26298
11399
29555
20326
31830
31325
23600
9134
17472
918
4063
17366
13932
10345
21928
25332
24552
3766
5308
262
24582
15002
23190
26668
16573
5440
5761
2580
11853
22010
11866
20917
21026
400
20631
15680
21755
29656
10120
21587
19531
10118
20957
20080
5855
12358
17513
32175
27842
6920
31013
20911
9822
10395
3960
1746
32483
5758
16821
21930
21997
27123
21478
13998
13409
29012
24520
3634
6295
28586
8726
21654
19903
9852
11530
3773
21117
12773
9250
10944
4823
27369
25888
5348
31057
17417
16980
6346
6998
21525
12829
25318
1242
834
6062
13874
26430
3709
2318
10788
12148
21758
13922
1245
18275
9247
22127
1443
1677
30063
15451
13201
5615
21250
31411
1165
19240
22028
14259
28795
16094
29614
5825
17584
8798
3088
23354
19370
6274
28592
10353
7422
5592
20218
757
10641
3072
18456
30483
22539
25686
1803
2204
17801
3538
11259
20457
32403
8748
27595
26651
17485
26179
7921
4775
12785
10687
12933
13331
22140
18933
12183
3578
5800
23564
19654
23126
27419
16990
15886
11263
20190
12577
14050
14446
29200
26183
21115
28359
1244
6306
22127
23
11944
25164
901
15577
1423
10822
26824
27584
6674
20831
27866
32176
27402
9816
395
17165
21985
25925
13738
1593
22274
17974
6428
12120
11918
24343
10026
21847
15697
23765
11039
24620
11764
22467
21267
8287
15988
18235
25858
32713
15827
22664
18977
12188
4621
11523
25713
30627
23117
17277
25236
2763
353
4317
1504
1251
21611
3082
3762
30112
29146
12556
17156
7396
9369
16238
17218
15423
32646
14310
8538
8631
19750
23864
28179
20420
10135
15447
12447
26271
19654
32717
31859
12988
738
4702
6486
1173
8464
21736
29112
13738
4192
27534
15174
32454
22783
26133
3515
899
4015
18318
23545
14096
14197
12598
856
32306
27537
13466
25918
12937
26035
4351
16112
27413
13420
24576
13223
11769
13795
30073
15591
28542
10953
30372
29964
602
30095
27778
28710
23859
22998
21885
5894
22879
20519
31307
14489
20206
16868
2581
17781
12778
16766
16857
27058
5341
4841
8973
30971
13460
6221
32133
24804
28963
30463
20630
5502
22569
2223
18300
11306
9301
27875
21753
6314
22057
20132
12863
16510
18942
12918
17680
22637
28489
24718
12580
16482
1308
16192
6347
20857
32752
12727
20691
21082
31905
20200
2988
1478
25786
1224
16330
1903
10227
31677
19787
27405
12024
20051
9946
20910
27500
26929
467
26957
10542
10059
20903
2727
1243
32345
4739
26954
11156
20359
10028
2543
18433
12398
20014
29449
16533
16451
29237
19358
11028
23886
22971
23638
6483
20126
31203
9938
9024
13820
28837
1854
21025
24093
27180
5162
20769
14620
30076
12437
1800
8999
3160
1099
32074
15736
21091
20082
14403
30086
20357
18015
25793
3197
10640
32430
32451
13036
8484
32401
21888
3262
21968
1384
4267
12652
5497
11410
6902
31857
15104
23427
5589
16893
24607
16919
14980
15341
26260
19750
19531
17147
7298
18777
1
10290
20
10300
31951
17062
26211
7060
23094
1377
2458
31474
16211
12704
16984
10120
1890
31040
28757
25148
3970
9587
22089
18427
4535
5559
27913
26704
12597
11017
29171
10805
7132
29525
13453
29481
25855
10546
26473
17538
32105
23500
30796
17157
27810
21281
13198
23732
12142
1137
14020
231
24471
10991
30365
7838
2284
22717
23562
23830
20362
5143
15522
17050
19290
21711
12868
15772
15579
30201
5630
17412
32546
28647
8749
31944
23327
28248
32742
10173
8225
5868
17301
14253
9628
5083
7396
21161
6699
14055
15839
11424
17361
18575
15701
28721
5508
22406
30849
10686
15852
7267
14313
26818
4968
17818
7047
2916
338
16299
4647
26700
23172
19865
24592
19125
13594
1438
30950
29891
13178
1565
12495
7191
24210
30424
2261
5282
30049
10851
6796
7606
21945
29657
26356
1379
25155
1229
3232
5632
2499
26499
10520
520
21405
26976
27005
16936
5529
2464
3691
6549
14051
16455
26403
13475
9302
12634
2026
5524
23033
8270
16300
17325
9674
14273
4325
28816
1979
31080
12738
1989
21243
27209
22403
23706
29814
20266
20771
27181
671
3401
13627
22983
31341
845
10020
17259
19875
28285
30555
23727
9813
12336
9002
2507
936
1924
30597
1264
5081
4947
23347
4059
28545
12387
1070
25513
6679
2013
7243
21229
27574
25089
6429
20992
18464
4375
19223
22936
18180
2217
26610
22428
12668
29935
5198
8759
30938
26251
12444
8492
2724
26231
27963
8553
9693
1595
27105
1758
5510
16483
25661
20623
29797
15664
14811
8936
24069
20366
16711
19537
12542
15942
15989
30723
18038
11637
30304
794
17128
15421
9714
10219
25637
10938
24612
29591
28824
7223
5990
14817
11213
18850
22081
31548
29749
14398
27451
28968
28195
18584
3067
13503
24603
12732
13229
13195
9292
15528
16552
26267
21339
21505
5454
32726
3170
15365
16436
399
32313
1729
28548
29785
5620
6276
13215
12060
30380
20627
21766
25960
7811
10782
16762
28682
23778
26995
21602
989
32261
10610
32366
19171
20410
23873
4218
5012
25445
6721
11701
2678
12616
15936
10498
12782
257
17904
20894
3158
15188
26519
29443
11343
2347
17929
3085
8025
25563
20436
348
26273
31401
7866
20217
29209
4493
27492
32060
20942
15670
26964
23789
4471
8269
7964
20137
29257
3582
3789
6535
30483
13749
17075
5372
30342
15397
4671
10748
10196
25999
13125
28514
23934
13633
27496
26002
25190
9821
30162
5469
11564
25051
28968
5669
23991
5585
27068
16193
14610
20978
21509
2210
6010
3413
2893
24247
30901
14713
10410
28047
12965
1669
17967
10046
28188
15572
611
2433
26098
20400
22514
26277
7253
3422
7587
13732
31329
4188
17034
11666
3568
21990
6783
12343
22964
7614
20175
18430
27523
30509
18225
15630
11505
8005
7931
1462
8740
5226
31381
5646
2788
785
20782
21211
6642
28614
32431
11188
13979
17012
12781
8291
31884
5857
2851
13710
28136
30328
32415
7319
2968
24395
20411
4800
18403
15448
14351
15251
1854
13067
3813
31361
9061
27141
1261
4041
9386
11548
18483
31899
9613
4771
9293
29309
5262
1515
29401
20975
18495
23305
28711
31818
6557
20442
18482
31982
30880
7749
28629
19868
12049
960
7739
14881
17820
25110
31384
10037
16166
23911
21014
16546
7777
7024
27155
21161
27037
2060
17033
21153
8417
17147
23757
23265
23098
6883
23165
7648
30803
14740
2227
5275
12102
26000
11135
27703
19378
31947
7573
30440
28686
3247
6210
9233
15420
11107
14245
17325
4961
30285
3867
6381
29685
22998
25083
34
5654
1645
21636
11230
17442
14030
10515
15702
8580
11140
23961
15371
21454
32684
15693
12458
16905
15101
15006
26416
24136
17669
9580
7249
11652
7605
4471
6683
419
32544
280
2007
6618
19584
10287
28976
7477
29306
23388
18583
9076
7331
32626
26853
16409
25666
3368
23106
17343
23640
32018
24134
10157
7901
12240
1887
22443
16205
9862
24435
19989
18019
8076
25030
13869
6948
27494
19485
2229
32032
3574
2852
22206
29685
32752
17933
14011
22548
9359
19834
2009
22728
18310
29085
32659
9076
14138
925
13696
4124
20270
1596
8560
30502
1726
20920
16312
5218
22545
12014
20426
6985
4937
11717
24841
24706
29180
15050
8667
15531
32488
14360
9471
3157
9698
7547
4385
29008
16
25557
28331
14634
12376
16320
2015
3314
25624
28532
3875
20033
19480
8172
32667
17788
8637
11588
27645
1363
3199
16998
12193
10125
31644
7141
13784
18184
18446
29225
19327
23291
12987
20173
11988
22399
4845
20805
20872
14158
18689
9924
277
21194
18787
14684
26961
10305
21434
23144
9539
31087
10847
27687
21046
25156
24084
20137
22797
19688
499
5103
25046
26365
23460
16206
9634
31780
25555
5140
4755
22978
10977
14190
30262
8196
30170
10633
8723
9248
10152
23032
16003
18398
19078
23382
16322
27224
19895
31276
12613
22013
19319
15124
19278
20444
27442
1055
1725
11296
13300
30069
9001
3030
25377
13627
21295
10231
7014
12986
778
19874
32751
9405
28004
28585
4058
18234
29292
29007
21996
7221
25897
3664
16515
13282
17166
1058
13772
16394
2510
24699
14390
30383
8050
6419
12071
2035
168
20651
10221
11062
10590
27982
8951
1919
27535
25559
16709
31517
10333
23731
26141
1678
8033
5608
8448
24223
18495
9814
29660
27093
27261
1597
18819
11532
26517
256
12380
27486
27464
29737
11608
32070
30262
32684
15144
8965
30380
2928
18862
22085
25533
17931
20913
24317
3732
206
20692
12180
7688
3329
16841
19529
26737
32367
25794
16850
8122
30502
27688
28483
952
24696
24976
10034
3770
13637
22251
27673
20578
16765
14332
19451
27315
31456
20496
8011
25962
22280
22505
12041
19346
17066
8187
1582
18259
7705
10971
29258
12299
25355
19444
30572
16032
22432
7804
15170
23572
29344
26790
11137
15961
21764
16153
25479
18279
31929
31906
5440
23181
5280
25125
31046
7172
1497
29402
2636
20170
11841
24757
4028
17581
24633
7462
15263
5286
4010
25091
24510
2921
20550
18115
32262
2618
2320
13804
14385
18434
286
22222
25251
10402
10653
16242
16018
7815
18711
718
8042
19071
27633
28474
32624
19915
15928
4392
18341
629
12957
19983
20205
3556
6845
11176
21616
429
5286
5981
31041
32428
29079
16895
32062
3668
31240
25527
17207
9795
13034
31807
24658
2585
2096
25425
15021
32651
142
15712
31558
2227
24193
10375
22296
6314
21135
13759
29575
30297
8912
596
27134
16780
27565
1434
11991
20040
24040
26332
24443
19039
7645
28565
15306
24897
10247
28130
20157
21013
24261
6968
2633
11273
9566
23378
23175
9446
11331
26478
29715
15847
21141
14777
25010
10955
16615
19720
5431
12073
8517
1224
32679
26116
6261
20792
29851
10143
25724
25558
23782
402
17509
2070
31864
29982
3389
29786
20354
28606
4194
10015
17115
12798
14078
9332
19363
6288
30414
10161
8742
31645
1064
7525
9218
6233
25916
31120
8589
14554
19098
15891
6769
3626
20724
17764
11673
28827
4133
9606
16465
31322
7027
16185
8360
12359
22289
19822
10009
11524
18152
2301
7019
588
15000
13466
24790
17543
31417
9478
11623
29851
23398
6530
20646
15364
22524
30857
19829
12071
7199
17598
19259
2531
7678
24100
8770
6762
11736
25485
1886
20047
7872
18517
6864
5600
27805
29263
24169
4533
884
29696
22259
16009
3050
14091
23756
4937
24836
10989
24532
17771
4914
19434
8841
10113
7308
5703
12401
22030
10843
14778
5049
9880
8155
8479
3611
3326
13887
8812
22789
27404
24054
27367
12535
32333
17709
31639
12332
24608
10133
18936
15486
19470
19302
22771
3204
8283
20388
24076
2045
19675
12193
18142
1905
9223
8131
12996
14101
16976
10119
13530
8432
32692
7366
29220
8764
8078
25655
28684
20495
12978
6966
10002
3898
24505
3779
11711
25457
1434
9166
4058
14765
27771
5298
9695
12751
30918
10239
173
11142
5246
17532
15743
6770
17108
1644
22045
25994
4597
14865
16724
21947
24359
24431
30627
22481
8468
6994
12343
5531
11365
14738
27162
10826
9875
9366
5543
30235
6906
30231
29249
21814
26160
1318
29764
15829
27540
5489
18236
2472
18730
3010
16469
28281
32166
19400
21779
27148
13510
8986
27203
9545
11749
25977
3890
4764
28878
7765
31004
19357
17614
31635
21223
29164
7693
21902
13585
5983
29981
30812
23016
29024
15572
4690
25081
23440
27223
27594
15562
28081
17272
19491
2508
10434
26434
12298
1419
32619
17617
13560
22312
15772
29800
24060
21001
4978
9917
5563
32719
18266
7831
4533
1672
21368
26779
31434
16166
29258
17763
32508
4145
24200
31185
12406
24760
19023
31139
21966
14221
20863
8263
3975
23218
27490
27632
30426
782
8078
28393
6581
30820
524
27434
30725
10630
15033
19497
26161
5318
7149
29426
30950
5294
3163
2170
24090
25841
18488
18992
18251
29600
15776
1238
18696
21153
2101
12687
21427
23902
20489
26937
10629
26298
4030
8700
30162
841
1515
27427
27023
17344
21954
6955
273
29610
6896
9242
22295
12381
29893
531
10507
27693
19605
30758
28805
12767
23390
3948
13841
15457
12970
3156
306
14008
19639
20024
2471
14393
26582
19764
3564
20732
12561
10807
29444
14990
528
1370
4470
230
13886
3697
21398
14234
23335
992
2309
3923
16420
5041
4987
24447
10555
21219
20676
30789
10561
16132
26121
20670
26433
32258
20561
25954
21282
20542
24135
23232
3459
26850
30526
14451
1770
8309
21362
20561
6686
13740
2449
9701
9681
4227
5498
27168
27010
15245
15428
24395
10658
1928
29058
14656
24310
3381
8645
19930
30012
359
1635
10666
23825
3929
26231
23787
29970
11588
26921
5304
3650
7985
23856
21629
4012
7180
6549
25516
32073
18683
23481
17329
26147
32494
18073
16935
32187
3702
26449
31564
25768
30170
25311
24754
25730
15720
12586
6200
8958
28169
2371
18233
4186
22040
25322
7683
5372
4212
12628
14219
16982
468
15147
8543
2828
16475
13271
8155
18009
6509
31228
672
687
10688
8003
7490
27549
15286
7518
14401
18166
24554
23622
3643
19760
29704
28103
10591
24842
3043
8767
13605
27249
28865
23203
6204
22693
11001
15298
27332
3992
18881
9934
7358
17559
23873
6936
24769
3627
22252
25883
12014
11074
17423
16060
29734
17802
5802
17616
16762
13086
28800
26079
4066
31588
9322
11815
27698
9013
25072
5348
8011
1087
16154
11983
9870
13224
5252
27109
4247
15348
24497
13929
4647
11817
8097
16684
26465
20017
24486
8972
21818
24191
25715
10683
24363
20214
12150
7618
1320
21254
19560
10693
7638
8984
7458
18184
8441
27948
6066
21298
30251
14528
10926
13137
7124
16884
15304
10271
14934
4077
29859
14212
30600
19063
20965
20315
7782
4846
10382
1401
28423
25694
5512
6379
10959
16105
2942
6272
12517
8809
29426
21128
16103
7255
4234
29146
10717
27884
9643
27676
9068
1925
32585
9534
24397
29260
26366
27720
11517
18709
10841
13654
22965
26502
11384
13536
28316
32379
13785
16447
7996
6312
30317
5997
31794
21121
28142
31757
15914
18774
11891
14763
15627
1475
11586
836
26479
25927
5605
18953
20054
18227
21376
29024
6427
198
17505
1068
30119
23702
19417
20302
22756
10545
13898
1388
9076
6917
9090
20464
32420
1405
27463
29012
1435
12141
12339
23710
3800
18096
5315
26150
10715
14096
18090
29087
9505
26725
21611
16725
12374
10241
294
19124
28359
16716
2738
13322
3606
2476
5613
24462
13617
25512
13648
10144
24452
32076
15815
12370
30830
19919
23999
29224
19186
5747
10880
25116
6576
27309
6077
23269
29459
902
3433
11129
5579
25153
4045
28369
31102
1598
11736
4332
20410
14878
10678
9494
4399
15400
4004
29034
27419
17899
12034
21398
8453
14117
10665
25310
13998
26596
3456
29540
30277
26091
11338
24230
9946
8535
9666
13640
1813
19587
22506
15892
24616
29480
10656
26175
17666
3273
25458
1773
20933
3662
2739
9208
32635
16111
29390
2029
24581
21587
30939
24920
22099
6649
7536
17730
7899
10200
28858
15095
15427
27714
1228
13581
7265
3342
23094
7073
2406
25590
31450
19428
15190
6718
14075
12503
7612
10135
14487
22866
7579
14402
24823
12107
5031
15992
9348
13397
7861
13066
22748
26471
625
18757
10533
14303
24143
6680
9378
10694
20676
2681
7043
3926
23221
28932
15874
31673
5936
16101
12715
21268
7002
12281
4347
7108
4776
17968
2349
29928
27474
5174
2641
22047
9989
6994
15774
31891
9177
16526
13833
10550
29058
7448
3863
5195
1738
11752
28143
14889
27455
9891
6323
25915
10536
27583
6160
6476
7102
30697
5908
17409
28057
12451
30016
22183
23401
28210
16095
11567
3814
15031
32662
26231
9738
3228
9019
4556
14973
49
22762
21932
32081
21655
11350
29648
15087
12254
18782
20074
23377
28266
7649
21163
12914
411
19922
27784
13571
8621
11663
26558
25952
22236
13934
25107
3266
7628
10649
13023
5302
11049
21789
27596
5326
4746
12093
22234
26774
21660
15372
5542
25033
6268
28987
17899
27333
5220
3119
20297
11581
27018
3670
15941
4398
30533
21436
20626
10260
26994
30681
5775
22621
1558
31918
19984
23838
32325
26640
23137
28165
17986
19267
32136
9103
14567
26826
14027
27514
2631
27774
27250
8574
19859
27102
14030
8248
4666
5286
6778
24167
23636
26531
20449
27738
31809
11717
512
26025
2445
8566
15982
11044
1303
5674
18585
30985
26227
24631
12882
11642
6284
28392
23948
21293
10638
19660
19296
17510
12803
31316
23637
31266
14140
22173
26079
23445
3314
2699
16677
8663
31277
10775
14087
9179
9573
32746
28000
7840
3047
14122
14728
19883
2171
22420
31774
26548
11588
18379
27140
21408
29927
18927
26282
10671
3824
9842
21392
21751
19313
31015
30982
26897
27115
21660
27703
18
20338
12202
5733
13500
26637
20810
16758
3318
14172
11946
19888
26746
23677
28545
29889
18382
3375
3231
15874
32629
19512
15560
2044
11110
24325
9154
19244
30397
18065
30637
31235
2993
16264
4243
8753
16326
3499
5696
13091
20547
5750
16468
3530
17127
3840
23702
16799
16088
16676
3979
6884
29148
11230
840
26156
21963
759
30852
3357
27205
20965
28145
28789
13984
17901
20941
9035
10276
25482
29107
27544
8315
11026
7352
11253
18531
28823
11187
6822
31398
27403
25564
27096
23372
16040
26521
17703
28431
1679
10644
18531
18191
8624
5649
21396
5319
18153
26239
24635
14912
9330
21324
15323
10884
3704
6142
19384
11862
264
32128
15839
24864
31023
24249
19302
31277
26976
23395
28661
13848
19733
11547
14982
29829
8121
21172
7016
24078
15046
1489
21386
9857
24363
11955
26870
16200
28144
19023
17564
3624
5148
30372
23889
31791
28119
6475
5143
28903
25804
21584
9631
3536
19921
15680
21772
15885
2506
2691
13306
28254
11722
10988
11199
334
30332
31631
11248
21422
2754
4051
8744
25921
20891
16328
7940
31161
24394
28858
19570
17890
15797
19462
6444
32030
5131
22572
15743
21265
29097
10278
32081
17821
16447
5368
19298
17169
8494
13705
12754
157
14901
2225
9188
5386
13645
1427
7425
11175
30673
1581
12544
25479
21730
16429
29092
12009
16138
16390
19814
18168
15647
6724
19317
1973
9835
18204
18684
18481
27145
23624
7075
767
26002
6418
15704
25321
3834
30894
25935
2018
30132
16076
12871
6204
24349
12910
18960
29211
535
31479
4682
4394
9716
21381
26223
31884
10391
2177
28436
20758
12245
29557
32363
15291
2593
26909
5645
30791
617
19904
31222
10321
11067
17344
29905
5738
25900
10353
12663
14747
9338
21287
19890
3343
14832
19091
2630
4108
8970
25679
15410
552
9562
695
25395
12217
14634
25851
2442
25229
1891
15730
20735
19163
32430
561
20774
29818
17368
11229
10977
7249
379
22205
29990
31247
23259
31251
26370
21020
1550
10669
25310
25551
20832
5559
18178
2017
6133
15571
10071
4897
27056
1132
21617
20842
27220
11078
21452
11474
11241
19034
11606
21797
2146
22498
12846
31634
15996
24752
8364
30371
21993
27587
18849
25203
3758
15388
6880
4379
24522
25806
13053
24429
18712
25429
25172
16869
31862
13352
15693
7644
8743
5522
9183
17151
15478
27837
25171
6400
28316
272
20299
21899
10980
442
2818
20092
3085
2447
17365
15439
24048
5396
9219
215
6499
7893
19633
17971
22364
22015
561
2559
32602
9002
28035
26823
13568
28535
5916
15809
18691
25051
32487
27323
12615
1722
30090
23634
19525
5560
6890
7781
29616
18892
9713
5321
8792
32662
22927
11326
12622
3570
19198
6050
28745
3277
23883
28005
7496
32311
5650
14653
32633
3514
12169
22043
10586
23018
3007
9309
9758
31806
27942
28741
5714
17182
6224
7338
32704
21053
17142
26093
21652
7465
29758
20783
30141
28705
14909
7105
13462
31526
22715
16092
6086
4948
21815
23443
26469
7795
1067
8965
17504
23754
31634
3799
20254
1331
3750
32226
8547
26485
14062
2344
8053
2253
3704
9485
25726
28366
16228
25284
20018
3180
3234
26119
27569
1363
22523
25355
21423
15229
18774
14515
9682
23299
31540
31492
15195
22579
20606
473
19209
5092
22400
20439
1082
6662
24117
26020
25940
11901
7109
21844
20835
7216
4940
10788
10500
31324
5085
30827
27265
23599
31175
10701
7485
7826
5398
22962
3155
18502
22877
22006
5242
12338
15027
6115
2348
24059
23548
18780
29959
22742
29290
10842
14707
22682
579
27293
20869
3354
22756
19355
15395
28593
26630
7869
20841
21278
26176
29642
1868
9618
22733
2979
27005
6408
27280
25394
18576
9685
13397
27293
25694
7040
23130
15551
5544
13267
8974
27352
15101
23602
27416
12419
27869
10540
6811
9193
15646
10320
32696
13877
1423
1090
12885
6216
2524
12046
25885
22445
28849
1723
18376
18383
22562
10276
24221
2921
2379
25603
29493
21055
3891
2639
641
7948
13559
32712
19471
10683
12068
20944
26248
12761
29796
15484
32126
21835
2397
22251
7268
16188
17366
22998
10974
17242
18715
13417
32316
14658
19363
25425
9280
11320
19441
15895
19240
13084
24760
11948
27368
1177
19010
1861
5048
7072
21778
27240
1486
21
20425
31047
30317
1992
6214
15438
9758
9126
1041
31224
11326
3377
10234
28646
7096
26669
17149
8754
25876
11420
20585
13569
6577
27885
1346
1111
29774
19569
15587
28208
19151
14862
6375
716
19774
17207
22602
3914
13841
4891
10700
13944
20395
29213
32150
3050
29477
22917
6688
25929
25677
28533
30802
21998
12015
32542
10986
2223
26964
16691
21789
27641
9
2206
29825
25632
28385
10099
554
30706
2877
8226
12051
11154
17291
30448
16320
32132
30733
14248
19234
14852
20700
909
24763
6300
13612
15252
23043
22517
18385
6864
23305
19438
3331
21806
18013
4587
7518
3682
10286
24431
2604
15649
23728
7918
22247
20113
30144
20188
11258
7678
9163
22282
9928
5326
9708
18482
27375
1719
1364
14801
22734
7727
8175
14900
3397
27940
17989
1238
3771
30190
28830
29417
19302
16514
20329
23091
19654
20456
15070
19995
17523
3055
17891
30468
22041
29471
30764
29657
17089
10479
29607
31209
22866
13368
2327
9974
20567
490
32766
14728
27906
32766
5569
9095
7025
25771
30727
11017
23601
30173
15970
3433
11009
25827
10033
22681
17112
4711
7109
28345
25385
20132
16322
26600
31333
27091
4040
18010
22978
10470
21331
12458
22075
29305
26080
9842
31447
18438
6994
25370
12335
24408
17299
25325
32042
28738
4478
15986
17676
2704
26877
20473
9903
2110
22638
22388
24847
28648
16716
4232
24845
23426
29707
28388
23660
14153
17219
29906
7712
27897
21009
22539
26568
20289
8635
26832
3193
22900
8850
28470
10429
6017
19485
29378
7131
18981
115
8245
9817
7007
16105
16809
20928
30501
27117
31965
1439
23637
9266
19406
28114
14830
2318
25479
5636
11392
17440
32057
24179
12257
19509
13710
11763
6434
17772
30267
1334
27841
20121
7637
22346
25888
15848
23013
19299
15670
4291
26430
19419
4997
4853
11406
1655
31052
271
25396
16876
509
10762
16977
11426
26353
21551
24610
2231
4955
26932
15757
22855
11387
11688
12281
29931
27156
1937
7523
8575
21279
6227
16046
7465
12993
11731
23611
14486
22907
20189
14522
26247
32417
26307
7744
25741
22029
21575
16793
24848
11796
24507
28639
17046
10681
23655
14923
29762
27425
31019
5196
23451
16967
1126
6102
23440
13297
10006
25597
2232
27875
23360
18882
29406
30034
8594
15149
10172
14491
14919
12444
21255
13621
25931
30810
8108
26852
28063
9331
15962
19760
1024
2759
13632
30742
11459
2910
23832
13565
17668
4347
12132
10732
25343
32756
18935
23801
5566
1856
19384
11781
18421
2002
28323
6310
18986
1573
784
21093
18456
23065
12344
6442
11606
4349
7669
17908
15668
13805
27593
30669
25062
29790
6434
27390
30436
18679
17116
20607
4752
13475
23048
14769
4889
9700
14316
27727
29344
3178
13130
12962
9882
19172
6886
31733
3702
31510
14658
24905
13695
14379
17836
25162
27651
25421
26234
28289
31669
5748
10389
3786
31568
14715
4148
17161
1405
28025
9962
26649
22263
16974
10979
14853
6125
27260
17259
18043
21672
24889
24239
25469
26989
14018
7368
32346
26021
30449
27637
22237
10811
24082
14888
31428
18246
20467
24517
5491
23784
17722
10150
26602
885
8955
6242
31989
32472
12426
25295
28066
16691
8078
6597
18936
198
23127
5925
31206
25874
3186
12826
10874
3902
6522
10911
6996
441
30256
28226
24665
11041
6094
6695
27564
6244
28057
24143
29658
4645
6326
9754
2644
10593
22078
10763
30243
30546
20373
20172
9943
5267
17655
30066
21440
2950
18003
8449
7009
18931
28253
5427
14114
22001
21471
21109
5957
18954
9551
4915
31515
23706
8871
11861
22904
30328
26993
778
11620
7384
18209
20932
31507
12912
1448
9860
8472
21466
26182
14423
18901
21306
16032
25120
4406
5920
27666
6297
12959
24752
4422
405
21282
15616
20998
4232
15350
9665
334
19528
6436
5410
30118
8725
4228
4337
30638
27096
17640
28931
32507
32680
6551
25815
12577
5778
18941
31862
22289
10394
10656
14493
15526
10237
8278
26142
11898
21945
14006
18564
2558
24911
18124
22518
5066
13768
9489
5726
2097
6134
21913
16330
6681
31228
8591
23058
21513
10257
8415
26555
3972
12928
3122
16923
30358
14579
27423
24254
17324
31474
29343
1033
13225
20903
10178
12573
24117
30436
6817
15614
26712
15719
19860
28917
17737
7772
7333
8754
31104
16419
14660
3766
5138
23124
3644
368
21054
6912
8165
422
8515
28986
15515
4503
29301
24790
4464
16479
5520
17265
30494
4890
3404
6834
2880
2380
4658
22478
27073
16513
14253
15442
6804
31536
26468
14365
1957
3813
9927
26795
3856
32159
23272
7578
1426
15991
32397
1638
15676
31107
32387
28024
25711
15098
12341
9311
20740
24985
5757
1373
3019
19525
26809
11813
12343
2801
4130
22499
29783
5826
3929
28797
27912
21873
2115
22808
25194
27634
21527
28127
18576
9299
25013
15103
12412
27366
20026
758
17738
9890
27601
31246
10667
28871
10956
23332
18837
28609
6387
14766
29753
22863
27419
13565
21046
24548
17659
28863
3084
3918
13116
30407
13523
23701
3023
26129
19757
27942
10371
4864
29305
22832
12247
31979
3657
27983
24588
15576
6678
12136
4223
20871
19251
10964
23862
27827
15104
18368
12473
9620
24416
12755
8227
13480
26477
4626
19832
7347
20586
8193
17465
25861
18168
19979
1078
18683
10381
5412
11940
200
14627
9133
2415
1909
24877
29592
19666
551
1999
3020
28452
11425
23886
28875
25333
28425
10694
2194
31577
239
29723
30145
27268
15755
5425
11771
3735
3398
2912
20368
186
2173
8738
31321
6763
14209
16911
12260
25877
5090
32012
32465
10213
12013
10943
32124
2009
8563
10566
22493
28186
10444
5672
29868
10379
5404
5003
30152
30882
27861
28072
6105
1143
27005
13437
13620
24090
12722
7617
28672
5418
29803
17181
18327
1699
18816
4249
7471
24312
31597
30549
27578
610
7763
14457
14091
20343
6207
23662
30265
28670
32431
10831
32072
11266
27986
13210
10758
29477
14864
18476
22580
4151
10826
26220
24806
15111
3427
31686
10541
31865
24703
2395
1010
6361
24458
246
27429
29807
10109
28226
21528
9812
19932
16443
8997
11652
4483
18147
663
31795
2211
14646
8392
19813
28680
22367
6534
30905
32669
32044
3771
14469
26673
14528
13389
5672
24187
14728
21316
28828
22364
11120
2091
20811
22885
21078
16568
804
1945
31166
15535
8173
18804
3272
5635
2011
13356
27232
5182
30560
6454
18869
20260
12100
24076
17132
25747
25335
302
20501
17838
24870
28774
23134
24379
10892
5201
10118
8520
27403
13595
15253
10773
2299
7306
715
6190
16066
6462
22486
18392
29348
18231
14920
32686
16605
16791
18759
20620
27629
8617
22150
11436
10036
28451
9589
31247
28606
26024
10933
9247
26464
13201
24527
28818
26116
5613
32549
7057
13633
30150
15401
32538
10799
27303
19404
18851
4473
18010
20794
2048
8627
3574
708
1670
26606
1050
6941
19825
25226
10355
27338
15491
15948
20612
7636
2542
27056
15782
2496
10356
29313
21581
6080
22733
24998
22670
7979
27209
2367
21470
17451
28342
30961
2077
11958
25988
3197
5075
11711
8743
18584
11193
6829
29117
31223
3451
4364
17393
19113
4028
20098
23327
16809
29530
20229
18361
24756
23028
31052
13033
21592
1450
28547
15479
27214
17956
22595
28654
16905
14038
13249
5370
27535
12930
4422
24341
26760
8190
14559
16482
17300
31799
7509
25561
12770
17782
10847
4773
29439
11234
17175
2250
25323
11079
1195
32011
29298
29205
8533
24587
31161
14764
26509
5810
6424
29654
18813
13266
7207
29077
30901
29963
4892
26400
27168
1772
5716
28968
22070
21594
26671
32607
2420
25910
26913
18491
6409
4154
4614
10743
20435
1060
26806
7388
26505
27671
8922
6846
25146
13118
27390
8137
6134
11186
31719
10366
19659
7326
1574
20728
25331
31649
5101
31092
32075
21875
24354
5136
9735
10700
19890
32723
19876
16001
2088
5358
13855
11760
24190
17985
7781
13471
28466
31777
16906
544
17565
3161
317
4408
23681
29550
17660
19264
19937
13096
29572
31434
277
31309
2316
20872
11805
31152
10418
1386
5430
2666
14774
18695
9643
2408
25830
9022
1774
3110
1625
27165
14311
21177
26464
25857
14476
6931
21690
23039
29106
14723
25863
2691
20258
6779
895
25399
16368
4502
4836
25383
4360
6617
15541
32290
22026
27450
16549
32355
21592
2398
22604
10609
9325
12199
795
11331
32112
15982
20117
4776
24328
3469
28348
19942
3443
18465
15050
3745
5074
13710
25122
30207
16583
5059
28038
25098
20802
26303
24714
22870
15768
24915
3913
23011
23766
19242
31830
3908
21076
2056
21238
13313
31117
9295
20876
8763
17453
2759
14420
22414
15980
18334
4180
28732
11675
31918
24208
23943
31996
27391
6014
23390
27863
13709
26297
26940
14282
16715
7929
19022
8801
22119
26179
20692
10471
26320
29277
30921
16251
7670
27013
5574
22630
7633
15202
6180
9387
3364
1595
11617
17120
23299
23655
16324
20541
23443
32261
6468
4083
8721
23277
11687
7358
15381
28902
20455
22718
12824
23065
22233
3971
28980
8133
29968
32359
556
9525
18432
14112
12716
16111
25183
4245
3538
18991
21969
6641
23788
22675
32707
17398
29060
17432
7575
13461
32666
16197
27650
30907
22320
13734
21939
2157
10252
4220
30006
20759
12985
13235
28183
14881
2767
18196
24906
22468
20084
8124
202
16412
30499
24013
1665
13950
10156
4707
4712
8459
7036
458
13295
31877
6943
21998
8863
16994
6659
21778
27134
29983
24959
28869
3251
18135
27923
16658
25322
3604
23538
16376
14330
31973
7101
22810
27461
20017
12434
8630
6240
23882
15941
19675
2677
23493
14061
12247
32485
6538
21155
27375
31537
4903
13446
2644
14874
14954
24835
13138
29703
11566
26963
12745
1704
20085
28740
31201
16345
30135
27709
29178
20425
10362
19068
6370
9819
4643
22435
23627
16332
11788
4467
13180
9367
22486
17879
21062
8341
13825
8996
2106
30057
12985
7583
8217
3099
30451
20032
21388
27139
7097
11957
10005
27881
1474
22186
16966
4714
8006
7752
6193
20125
25616
18939
29727
13815
29653
9081
16005
32364
7876
9216
3635
7127
8286
5086
22991
31644
31880
17207
23938
9100
13023
16387
2289
14345
15435
11606
2415
11626
1751
8164
17520
10401
25536
9156
22081
21274
7115
20340
26871
9703
7644
2078
30630
28699
31685
23321
20947
7283
10588
4275
29483
31292
12752
23598
885
3440
22333
19720
4805
10787
20605
25984
26098
24349
6466
31317
26443
29641
2145
16337
3974
32078
8305
10246
23289
20219
20117
30296
7949
18920
2966
11323
21487
20442
4917
13118
9864
23912
9663
26697
26288
3932
2017
27682
9630
5980
13502
23862
6307
25546
30271
24215
5145
32488
22442
4161
12950
26944
9847
23713
31845
29507
30047
16216
9014
23088
21941
26940
9748
11319
15097
26015
29080
14303
15531
9429
20572
2725
10845
4080
16307
17125
9740
2510
31895
14590
14512
342
23779
17330
5394
30974
18627
7115
31966
10128
26728
8964
31737
5679
23040
4646
28180
24469
997
21106
642
29854
22292
1599
12870
2570
5602
1252
23665
4990
29418
19928
31915
28621
7242
14104
12303
10870
1807
23241
31804
30318
3821
2079
3240
17951
15924
15229
23096
9392
20991
25054
28942
13447
20142
27507
18595
30476
14487
29069
25109
16816
17657
29630
8386
1071
5937
28731
4373
17425
24113
23429
4512
29047
26157
15177
4715
30996
29335
26756
24204
14202
29774
15594
9208
12695
28691
12169
11673
13951
10556
9386
929
20076
25772
29944
26141
6914
22530
28644
21965
3288
6417
23879
7987
4661
8593
16969
7146
8983
15123
28035
7737
20090
26427
3680
15080
11478
6185
23497
25938
23530
19768
3585
4540
26552
26603
12237
20965
17617
19748
2777
8158
16338
9879
13143
19228
1583
22655
30441
15308
11311
32655
12993
102
21560
2860
21766
22917
23373
18393
3450
14326
11989
28147
29019
24847
12190
2206
5767
11586
17953
18687
27107
5362
3080
6572
17660
32644
12013
1632
1775
2234
28773
19444
13447
12348
26429
9354
25510
10104
26115
9228
30182
12716
10952
14549
26239
19009
15397
9389
12140
1371
6012
507
2505
24238
5248
10550
3456
27283
8696
2717
29732
7515
16320
20520
797
7395
23056
23486
24838
20584
27136
30120
23123
8861
32588
16198
22839
10747
5973
15872
5317
11097
25961
4736
15189
10940
28740
12318
7209
32368
10455
10396
5200
6232
24136
24596
17099
31106
13113
15662
18415
1022
30797
10646
5130
7921
4072
30382
2377
24805
16183
31360
29913
13411
4209
30966
9037
10948
10844
11597
5184
28996
16658
1991
4411
7256
1029
29600
11225
15682
11585
14660
26408
30178
5617
20671
4179
32463
29733
14453
2686
21414
9682
9235
4594
31138
11546
6085
14970
5229
16846
17322
11532
15670
7218
13189
26796
20484
23808
9909
2702
9034
13999
9319
24955
23995
15348
8202
20597
24159
30602
16899
17566
27367
12591
10402
16982
6206
1007
13653
19876
8544
10660
14876
12759
8303
8126
6973
27757
24068
2368
14649
16179
10947
29195
14078
11694
30514
22367
28766
27066
7627
6559
13504
29553
4943
15188
6678
28750
29022
4469
31759
32146
3909
18662
31629
487
7447
25918
4697
16964
29951
7373
3862
15888
5844
