198
26920
31009
30734
4137
25825
15510
27921
18752
28288
2377
12675
18048
14395
1000
25970
15766
8088
22580
30887
17904
27102
21415
27330
26751
9417
4953
20877
23739
32642
18724
6538
5864
12238
23558
13518
2968
14214
26568
11282
19570
7751
24541
17928
25137
29546
22925
14571
2032
11319
16723
6746
11172
12885
32643
358
22506
13957
20527
3818
27395
7057
21068
20507
16156
3454
4625
12127
10195
6409
4768
26467
26872
22354
6888
11367
2704
466
18890
32733
11808
658
13690
25139
18728
21663
6697
22253
26861
18617
23521
28406
25467
587
24496
19768
6635
16544
8
22890
12258
18515
8294
5417
23642
263
9266
18251
14245
7001
19686
29040
10926
21267
17267
17369
25475
8610
20705
894
29456
29899
2613
5722
30765
15769
29591
10762
31708
27546
24244
10390
25291
10315
2146
28559
6177
26320
14722
32090
21879
7144
28459
2251
11299
12833
19973
14070
13245
3656
25842
25409
476
14372
756
11710
20257
31588
9291
17336
28023
5333
15069
5772
29592
16344
21979
29882
16852
14356
27810
14652
17422
872
20703
1303
5383
6179
3063
14127
26335
13176
11174
5727
21720
29740
16870
25033
606
3474
7186
15211
11076
9913
30027
8436
2385
14820
10267
26325
13051
2106
9048
27034
22386
30143
9803
27003
31712
24963
2066
17454
7663
19994
3651
256
24461
28235
5842
25380
8172
27148
6453
30283
9676
28591
17093
18805
16124
25942
12904
19462
31006
20140
5997
284
22444
15063
14263
32032
11064
20136
8478
24987
28152
16149
2578
19275
18817
20458
9601
26231
10707
10939
28155
7551
406
8733
11285
5559
9123
13590
15371
28277
21958
26321
22185
30313
194
16022
24939
19245
8598
1018
2531
5917
24575
2899
12379
24937
28222
9839
26044
9321
5659
3462
174
7728
5930
21612
3585
3939
14925
16395
8268
23628
15994
4113
17107
17450
703
4326
5038
8907
4483
2529
18728
28765
28942
23483
9830
29570
23884
25412
9033
22946
20173
29780
19348
10629
29457
261
6482
17441
31235
16671
20082
26544
23747
28116
4533
26886
424
26030
21194
5922
24966
19653
14775
32003
4652
32053
9594
30141
23089
23503
32240
18123
12785
25871
23799
13479
21970
1614
21199
17816
19916
5945
18887
9931
3624
1922
19733
26534
5511
5334
14085
32601
11303
7438
2646
20662
10338
24745
31456
8258
23671
18810
27003
12428
4493
2462
22301
30909
13301
9905
4930
10609
5296
17729
10641
29637
25649
18563
21180
18097
19043
6725
27816
30361
16366
12068
15822
798
3255
6911
2017
28474
4005
18860
11696
24460
13227
12265
28751
29424
13827
2197
1905
2387
8631
29216
6425
27846
9318
64
21618
4304
8261
5605
13306
23561
8036
7024
10982
12260
3123
25887
16835
8909
21316
24012
26201
8308
21074
18904
29396
25704
14467
13922
12326
743
15338
26812
22439
29685
18512
25119
22526
21675
2868
19357
24901
21202
272
24152
31848
30384
26590
7154
12750
16162
15067
27460
828
17387
7051
27987
15606
21068
19453
7807
25127
14293
7760
6142
14466
12154
32118
1417
14122
9449
29496
9045
23759
16923
20346
22597
12570
31529
21697
16478
30028
3170
3570
15227
18466
7834
12637
21570
16635
1476
13561
4950
17980
19908
30705
4814
8948
2430
9568
26087
8124
6195
13401
10485
8930
21773
10539
19872
7110
25848
31715
30540
15747
5812
18450
31705
19666
2344
10704
23693
1324
3066
27648
19278
22831
28252
27606
4117
4675
12329
21911
25247
4989
18736
7840
3174
17348
31440
24746
26319
25394
24517
31308
2469
20412
11841
6337
15814
32022
24638
3820
2076
9169
13843
7577
24783
27591
18246
4358
27321
5560
5538
22434
16155
26677
22153
30228
8590
25533
26251
31871
12348
551
6967
24837
25679
1343
26416
25482
30378
6324
1156
24250
31959
19250
6458
10829
21057
8907
2602
29321
8612
20635
28690
10505
8897
18348
25317
29374
24662
15127
3942
14131
6733
18284
19190
13589
6196
19284
6570
16370
32749
13173
23201
2881
1191
15766
3733
9891
525
30468
27823
3944
22460
31284
14752
31573
6395
12201
5357
16548
25766
5656
12426
32589
31084
21963
9899
28548
23099
9027
25047
31107
5879
13601
19262
31369
3442
20807
13132
23331
13977
13626
10366
23210
21483
24010
12405
13325
4400
29174
5961
32720
28263
21770
18719
30549
1536
9226
27134
32091
843
8787
8158
4036
23857
22912
17154
1691
10530
28811
26760
17493
6734
32308
31551
15191
280
23207
22200
27833
24263
13401
6304
17482
24959
27699
7244
30164
23665
31986
21654
16289
4174
29134
30696
13885
22529
12377
12950
32126
3485
6571
21361
4802
15252
18108
9881
3192
28203
25617
29330
29410
14634
28827
19354
5656
17880
25564
12602
1361
32038
32587
10780
2910
8747
20218
21020
21623
28880
7542
3745
8506
5325
24302
23854
10993
3284
22424
28724
7444
19979
337
3627
18447
15296
29828
26336
28996
18265
22604
21265
25684
19593
7645
12855
10650
32202
2848
23203
1529
29959
22685
20428
10200
15512
26270
13032
9578
25716
19857
8633
12339
30626
19887
30634
8648
26097
25051
9498
17878
13801
31181
4344
1381
4865
8047
14480
22366
3091
2951
420
6731
5644
28055
29375
15199
9960
27393
17862
20150
31966
6511
2256
31965
26071
30834
16695
27029
6949
11882
17648
30676
1394
3237
15895
3853
31990
7883
3278
17841
23022
18809
31560
5366
26953
15404
30753
31191
6564
14945
19185
10076
29816
32762
30496
11803
14226
17636
16636
15615
8900
9207
2312
24392
19931
26909
29079
23507
6864
2743
666
6556
6211
21052
16311
11649
26660
30755
25755
30025
32436
14084
15248
25572
19884
6650
16978
25332
12219
2635
4382
28045
10294
24651
14349
18489
19212
31613
1696
31296
24824
9724
29084
27686
7162
18201
2840
20340
28679
10566
16596
13244
25600
22323
21708
27863
28385
21558
17421
11889
13627
13296
4040
200
15076
21806
7333
29360
23788
17421
7257
11483
10196
1890
13691
19031
24059
23896
23955
6744
16985
11099
6517
12088
31599
9525
6093
24252
8830
28535
23034
6041
21240
16667
24352
12342
20020
18535
1400
4788
1893
22293
5611
27180
11213
6576
11744
13623
31534
24129
31570
25012
1154
11819
32549
21957
6891
16212
18874
2587
5869
133
26049
6516
14299
17684
25934
26977
14735
21440
17711
20557
29278
23772
6782
23739
3404
7088
15986
8655
13435
10012
27770
11536
16362
13694
1677
2412
15452
22486
29627
29565
24213
28712
19721
8970
14028
26402
19579
19921
14430
25855
12914
18307
27072
4523
5432
25361
20663
8232
20186
31014
28363
10544
32054
14324
25081
6428
18516
8244
32168
13572
25338
21352
28638
31528
31098
5988
18100
25230
719
13068
27143
15853
10216
2143
23921
17866
13636
4021
24183
3553
19135
6212
13060
27078
15788
29161
15383
1228
24867
25638
8376
12582
10396
5735
9520
12876
22717
19849
633
1697
14961
8860
20980
29778
1082
5864
24922
23937
28104
10543
757
8099
8650
20530
11792
550
516
32374
940
30807
29090
4936
2932
14980
6604
23807
15603
31325
23674
4225
10501
13984
27018
23049
22411
29174
10768
27431
11619
20760
30189
10760
28312
25653
18339
26103
12501
8088
25191
13604
21024
18310
7800
24484
18372
21349
20400
31674
22927
3108
31320
8021
7486
27094
19009
19161
17974
29856
16
28962
7541
11478
18650
16583
13767
15969
13297
4763
12349
868
15101
8570
9435
6687
4174
28482
913
4627
10096
31519
365
29798
11264
11532
26126
11146
23231
6806
19804
3610
28901
2275
12662
4356
9656
20468
20716
25837
25180
807
17711
721
11245
768
23877
27626
29643
23592
4289
8404
16949
6070
7923
5102
28442
24750
11868
6915
23851
8903
100
9258
27445
1650
3408
12778
4014
28183
7278
25250
21134
22690
11410
1832
6496
19774
16582
3249
31128
13408
25918
15857
1319
16904
138
8067
17741
21828
17679
27530
22446
28917
22200
28825
25001
12757
30953
22480
19941
26041
22709
5704
2092
10260
18256
3506
11133
10173
30919
8250
22108
31218
6894
15282
6509
7836
22682
8172
13377
6612
7441
25703
5232
18087
11199
302
19176
18198
24619
24318
27524
13665
10793
12967
2785
31366
6736
10164
20077
28164
4782
7758
17088
8932
28603
94
27696
1530
15756
29170
17823
12649
19785
24802
8600
6501
16097
14259
8603
30269
21244
14267
14260
3992
6450
16006
26194
19710
20090
31353
12887
12187
32741
21173
31596
6464
17804
1599
11927
1195
10694
18013
1807
4872
4255
20547
20815
4792
13190
18926
25705
25424
1350
26193
17821
23269
4664
5295
10794
4231
12470
16200
19300
12299
5586
23863
16647
15118
8776
23451
21963
23350
31666
8693
2616
10683
17915
13777
14780
4134
4374
16809
5627
9817
20208
774
27750
12752
26019
25576
27151
10790
12780
17256
20923
26331
3551
12700
22585
23124
12249
8891
6899
32291
30135
23937
25795
21641
28741
10453
13576
9017
17145
31914
15608
19295
11234
14883
18232
25313
18395
12026
15786
29413
26372
26658
16774
32659
1395
6059
2476
15644
15398
4583
31544
5627
15932
9675
12375
26235
13925
21655
24922
4473
6296
11450
25609
21099
15364
19439
13626
28833
20808
19629
16546
14283
2278
8894
23274
22972
32245
11053
8709
7533
14615
29542
14274
32581
24491
31641
2717
9879
25412
30815
8411
21613
17753
22432
6614
12164
17214
3252
22933
4503
32338
26568
4767
14816
29819
31876
8721
2269
23759
23531
29167
10576
15508
9602
21944
19081
18539
13236
5437
20455
26056
26485
6578
6557
24741
22310
28934
19122
10616
25784
7024
12364
12130
32533
22347
11821
10921
4795
24355
21630
27496
28074
19984
715
133
6785
7746
15440
19172
30436
30174
4467
20698
2336
13833
17041
26085
22802
65
32765
31386
20549
9716
27462
10462
25946
13899
15801
20569
5805
7751
14375
22312
30773
3856
16361
25298
22700
7818
19744
7550
16880
22056
3649
23395
22698
9221
25810
13439
24365
25137
8046
26252
24481
26696
5391
4912
16736
23370
1421
11892
19872
12198
25441
12663
26451
4504
27311
25956
31307
10165
10628
23201
26018
25541
23900
24649
25945
21968
18919
4061
16191
13692
27916
16694
14100
5526
13359
31422
3567
30190
5807
12768
4317
10088
14771
28605
31435
13904
295
11809
11686
20206
12801
181
1728
20570
2505
24182
21110
402
28504
8037
8976
7370
8416
640
3816
9475
812
20466
6607
14815
30249
27527
19884
23988
21158
27490
18022
25055
30040
1778
13572
27995
31521
29218
7699
20882
4753
30928
22344
8562
1710
28289
2151
16068
26352
18003
13155
20921
28816
26419
1991
24262
7427
4175
1364
28338
31169
25038
12780
31982
11594
23999
26287
8228
19819
30032
30819
8466
27325
30273
16153
29593
30064
27800
16653
17937
24390
19605
1231
6880
7906
30952
20128
8267
30787
31010
19743
14988
11916
29802
31013
29732
774
17521
11501
18546
9575
13480
13944
31877
31061
16816
26927
31279
21798
27921
29387
24922
7658
31024
30578
17311
25771
8571
14626
15893
26867
8935
20051
25959
9359
10396
11224
14378
17555
28910
1543
2925
13214
16016
19737
9617
6495
27140
18644
31579
29528
10070
5991
17223
10978
21514
5013
21279
19570
24915
26133
31693
17434
11910
17977
22382
17235
26573
11727
15783
13305
15648
1093
21052
23703
1393
1296
25054
6629
8743
25933
325
20879
14030
31913
8831
568
2317
30079
5256
5311
7384
18497
8474
21185
24806
1561
15558
9823
32614
14032
32068
1857
9966
19950
18952
14554
24500
31523
31509
15854
16640
23013
23062
9554
6881
17499
14763
5108
26656
19834
5889
12315
7282
9838
31141
20975
8945
29499
1434
7483
8397
21156
29609
26738
20543
7500
25592
5360
1983
8219
16094
15491
16759
21987
6134
22570
14071
25667
18290
17436
25898
24524
11698
17676
3209
7011
21782
29356
398
1766
26128
11120
24940
24851
8573
30100
32509
16549
21813
29024
7164
14527
32480
16555
17012
7310
4364
1950
21112
9771
3709
27322
6165
1214
28612
11804
32133
5609
1812
23040
11685
20068
22096
2181
15018
5604
2920
16560
7439
6722
5862
690
7889
24025
4292
26990
1759
1328
24449
1334
6348
10201
21876
21461
15560
10392
14431
31187
25550
22728
26439
8436
31775
27387
4739
8194
2542
30945
14868
20428
14429
8299
26164
12655
30376
31791
20017
18900
30112
31503
24956
22138
6492
23317
26365
16246
13099
19362
9898
27320
6092
31432
20824
21647
26082
4596
6865
4464
4258
26064
14886
7411
719
23911
17479
6686
28136
21643
5328
26854
6560
32115
14630
13555
18318
1449
4547
24996
32550
548
7630
30547
21992
26288
9455
30170
2007
3223
13153
12373
29741
3194
7241
5674
21069
28544
30278
3399
13049
31667
17993
16811
8645
8102
19623
3624
31435
16731
10348
25191
18593
29797
17651
18988
16008
23370
17843
31195
8934
14379
25692
1084
15863
28839
29987
7547
8383
2300
1369
3955
22595
23151
18499
17195
24824
2287
17958
929
28284
31733
417
24007
23428
24238
1855
16844
22038
27484
6989
18844
7160
1530
31209
18602
23400
27166
23900
2285
3085
28708
16042
22824
21550
11657
1127
20591
20002
29845
5067
27367
16903
30525
30729
25549
10167
4423
5085
28858
1272
32175
4452
16933
31731
31562
1073
27945
7656
9385
29085
8840
22047
32576
13150
22257
290
1479
26716
16510
1065
12769
26560
19841
30934
18684
27213
30848
16674
28792
24051
7550
6040
19723
6049
13436
28609
12644
22364
5440
15071
8206
21134
10325
25821
9368
14496
10579
7559
18419
26058
24161
16887
9243
14378
26871
31311
23289
15124
5097
24494
29833
7338
17057
15964
26680
8620
26027
18504
21904
2961
6264
19381
12310
9430
19547
16944
25203
26518
9432
19397
11475
29275
26910
27250
17035
16180
11986
4572
27390
20743
8718
24385
10689
19241
3754
3502
12797
10028
3770
31346
10517
31992
599
19922
31881
4381
13475
7166
20251
7528
20999
4676
16688
1973
5055
1156
6264
31491
17561
28388
2769
5838
761
16324
12393
10393
25633
32245
24867
9162
23727
7973
317
19386
4711
8862
303
17421
31539
17457
5334
31551
28008
23404
26065
9088
1355
15124
17708
11714
980
9423
8251
31504
2738
9504
15561
14369
22926
27544
115
5933
28820
29515
18254
23551
15408
3970
3536
28236
11797
12463
29165
26179
26500
30118
20352
18277
22731
23817
31725
23959
31244
11012
25860
28789
319
22331
5929
16618
14714
5889
28338
1277
24432
22475
30865
21998
10041
15844
17971
17538
20305
31586
14504
1947
25826
4952
1795
30987
7494
23885
1028
21674
26823
23789
26356
28071
8874
16895
7121
19995
621
9367
24235
29924
12876
20877
9806
9648
12042
15149
8737
32600
21741
25136
20302
19568
15883
19180
26915
16924
21956
21191
14521
8484
17808
31217
2003
27979
7931
30035
15112
11997
26349
7362
22309
29320
26159
2425
30157
31596
25387
30918
28002
23413
10483
18179
12329
26089
32645
5832
9896
12349
31054
30815
2387
5421
14828
9592
32104
28172
6712
9502
31000
30296
19844
27626
13031
3473
27681
19575
8277
19275
1829
19477
18366
6531
10602
12226
27007
18735
27098
21846
17498
21784
29418
11517
31004
18156
9061
26346
20860
29327
11371
10570
28231
31667
20665
25207
8378
22952
10539
2927
29487
19829
4734
28292
9469
32295
10331
18005
7577
12137
29073
18684
6913
18005
8611
29577
8026
4234
4994
10672
25047
383
24987
32190
18142
23063
16148
13521
9062
28277
30291
23369
20388
32273
12481
32122
19686
21003
27597
22691
703
5568
16179
6180
22372
7580
22654
29419
10070
4143
20427
15664
24641
9602
14801
16994
17188
28843
6942
31585
4531
26527
8355
29933
11002
7496
16755
31327
23362
25047
11720
22678
25400
15708
12103
19765
31308
30867
24197
30220
20568
10241
20937
21715
21122
27968
10516
15134
14179
25240
7006
12941
5737
25807
26915
13635
3705
12097
22558
19098
16345
32307
7253
23573
7502
11108
21077
22167
22657
30949
28351
27602
28071
32299
18179
2049
4705
27491
5996
20442
3041
5893
10845
15038
12367
2476
1242
7476
5995
31781
15433
14229
15987
31685
22906
7433
9031
10496
27878
1713
6859
17464
14388
26406
26253
31955
4354
21027
19880
13968
24801
3198
15592
14619
26273
22621
12846
32223
7376
20902
30486
4123
27005
28343
28376
13112
31553
31064
31596
17242
30593
5101
15858
1077
24045
7921
13904
21026
17740
4767
1565
26993
21884
8434
23230
14337
8884
13264
17102
27919
19981
7042
29380
15180
3905
360
15567
306
2994
29419
16389
19351
7854
6322
4797
26243
30449
28185
27705
28735
11627
3295
4489
8878
14660
24862
2475
18144
25886
22913
23799
1765
10650
26545
25531
4575
4381
25872
26658
18011
2260
12202
8026
22242
17141
4969
15861
7370
3656
21384
11152
3410
18151
26697
6579
1263
17474
17643
505
23776
26725
14806
20337
32520
13438
18202
14147
27645
1689
29463
1175
26461
25775
31101
23474
15969
30943
26232
14434
23732
8955
29220
11165
9093
17222
12359
7269
14043
8828
26687
4078
13608
6931
10553
15619
3362
26561
28324
28326
26062
15166
26854
31223
19677
1355
15949
19287
7996
2291
22600
20172
24551
10257
4311
14247
28926
2066
21568
27493
25370
29692
2820
5076
20193
8111
24593
7287
27864
12396
14137
7978
24441
11923
26595
1033
25478
17585
4096
22671
23196
28601
4929
8699
25611
1170
6791
12024
30693
11986
10140
11388
14421
19658
4384
497
27954
19650
31430
14483
24020
28549
7616
29209
32039
5153
30071
12951
7165
28904
9344
419
5545
23994
9675
9911
10953
4999
7710
1238
32355
1295
25026
22898
26932
13548
637
25230
5956
11475
31168
12320
9150
31255
17184
9401
9983
21358
31498
26983
27373
19448
21939
22747
14730
14205
591
9671
31177
9207
20099
16522
3744
3152
7708
16399
11358
10348
2817
20978
6207
32362
16742
30181
1597
6439
27715
2131
2346
2052
17925
24643
18684
3050
8579
1150
29544
5515
32563
15348
6834
30954
670
32092
30403
31261
23569
539
15484
5969
31382
103
32586
13328
6690
20652
20730
2495
528
558
5071
363
1998
8945
13010
23237
10711
16086
13418
17514
22241
23046
23340
18792
13655
27283
18676
14334
32521
5469
22581
26020
17699
12851
8077
29771
12379
23355
21405
31974
4463
2964
31511
17193
21967
4409
10520
22161
13462
22057
12729
17572
10175
17605
3297
16506
1430
19321
23389
25468
20076
17310
16946
27500
655
16287
4145
6566
5242
1115
25037
6053
19272
12747
14122
1224
10607
24293
12406
4438
11178
11456
25724
19137
29751
5368
1398
32039
13891
30548
18467
19998
30115
10918
16666
29873
28356
5363
11358
12966
15077
3796
21298
29443
1155
5660
1071
12752
24597
5051
20883
4381
7418
14563
2524
16199
8880
14185
7830
4728
11846
22893
28017
32109
1044
15421
8086
16764
27049
12919
4923
469
31749
4462
885
7176
13833
28111
25166
27079
15147
2949
6424
20461
14958
1241
8961
16064
32146
27870
13799
1907
30855
28940
28013
10992
27944
15915
11342
1492
30502
11379
10225
32186
5186
30449
21054
5052
31936
556
5553
55
24600
30217
6060
15311
23022
12012
29970
6579
13124
18976
11537
22306
17391
20857
11839
17455
2119
18999
14825
27073
16163
11054
4519
20701
9221
32292
9012
20264
6545
12411
9853
31911
22596
22288
25080
14026
30050
26978
2359
21673
22064
14327
27069
28813
25444
8699
23056
27314
4314
20011
7952
2379
3464
27377
15238
22983
12212
14800
24064
14163
29028
27139
24797
6816
4375
1633
4260
5862
10930
31364
11418
10281
23741
29482
21907
14011
19919
7643
24328
29698
9799
3021
13930
29819
21053
15364
21686
11007
8121
4285
28234
10565
3362
13325
21751
18857
23545
12230
16471
9771
15303
15514
28768
187
8531
3203
24122
180
7705
5218
28494
27046
19448
6374
24224
12120
8491
687
20574
2829
16506
15795
17337
30215
6577
10209
22259
11594
28242
21253
4537
8866
3719
7660
10676
32487
25178
26824
30043
6528
4904
26837
267
2342
26963
24381
31321
12778
12856
14138
26023
29818
16993
20346
20981
25248
26619
29383
32506
7435
24970
17383
10611
15954
11483
8385
29116
30518
16954
16578
4253
16424
4070
4735
20070
17419
18882
7324
28734
26682
24909
26092
4024
5581
14804
10457
4263
10264
27879
22023
10548
9333
13065
10804
12333
8004
17579
23395
9632
29231
18268
8505
10665
10163
6970
7335
21896
16347
7340
25289
10998
12879
11859
12046
3514
20878
7997
154
31607
29560
16732
9960
30152
783
17463
436
21134
24446
10208
30744
26249
11355
23590
27381
15910
30505
24587
9876
22680
22049
30073
6029
6442
25650
15664
18152
25300
15942
20227
24963
4620
26055
8772
20147
18654
11361
23165
6702
16703
3338
19552
13609
6559
5696
20225
21181
20413
18834
11587
25487
23999
5218
19344
29872
11650
17897
21966
30146
22063
9852
2446
10845
22543
5133
28806
19121
19104
18420
8001
5996
12520
10736
19477
25822
26633
21608
21078
24922
25622
11767
30153
6880
12069
15400
31323
2042
24229
4990
25619
6116
29426
2232
29510
3567
21799
1874
12554
11303
26420
12623
8172
28980
23088
11318
25830
28030
16112
16219
31883
29589
1240
10079
20613
10191
23281
17146
16705
13107
10044
31992
30697
7573
2118
6018
5267
4867
5373
15519
3256
6240
20162
30715
19943
29519
31167
32230
30906
18771
20347
25503
18442
14900
16299
11475
30815
31140
13132
21089
17322
11298
1518
9824
17719
2847
10579
14691
23005
5215
10040
9467
20600
18595
30067
24446
32409
15749
20542
32007
3451
1699
3795
446
4921
14847
9785
10586
19519
5030
20061
18404
2302
31888
32100
10173
9189
30920
11584
2274
5004
16588
8065
9583
27954
2615
4974
24418
27497
17309
8789
31650
19728
18359
13855
3648
8322
19392
20007
31740
20237
3358
1613
13579
31910
581
5190
3351
4058
4825
12086
21640
30216
6930
5504
5890
30670
15973
9436
9006
12737
19809
14507
16318
1377
17111
17032
12715
5708
7229
20768
30657
10161
4436
31043
24414
28168
28425
21819
22135
10496
6553
3676
7899
6585
31225
9436
18108
10548
23157
27109
2667
21256
30359
24553
867
10326
16970
30006
18569
32510
11327
19658
25522
8467
24464
2408
16486
4237
18596
20203
30692
13118
24914
28123
7781
31496
2121
27966
30117
24140
26543
26288
10400
13477
12040
26806
29849
19415
9306
21328
25441
18690
20622
25293
31446
10780
19226
23779
1450
31645
26845
5119
22886
5756
21066
13530
15790
31323
17609
4685
22726
6143
858
25446
17749
8194
14972
10171
13673
10700
23373
9726
18108
18111
12786
14546
27702
21938
15161
24029
4274
10913
32125
15135
22277
24226
26827
3714
6972
23579
578
15282
6438
31539
24256
27694
23571
17030
12475
30112
23514
8221
28012
31338
27425
11933
19763
30849
23256
23230
11063
14974
30471
31999
2125
24306
16586
15257
13595
27130
2457
18609
26493
5396
21453
20689
16167
20785
7264
11673
32140
12044
29173
12466
29951
8633
32024
6916
29464
20353
24006
5161
10842
25837
560
13857
24338
7713
23228
327
23426
31339
3917
19587
28479
19996
6596
1474
32216
9879
27079
22179
24760
13479
30145
371
8270
12566
23849
2652
18539
28539
8
217
23531
4947
12213
32109
11159
6995
23779
10133
5194
14077
26334
22523
26707
6770
28690
10988
2075
17543
23501
5900
28168
27418
22854
23625
12704
423
8157
24333
17906
3606
16548
17336
30513
16343
12575
24141
27555
32049
29512
19051
11193
23255
32470
16256
30080
12733
20415
30009
24376
18217
15868
11325
3393
15117
652
12058
32575
12436
3515
24447
14454
25851
4772
9133
18294
10402
27637
18472
28925
28259
15858
10674
537
25890
31165
15225
3469
20389
9684
15760
6262
3750
4059
14236
31278
4391
19356
3024
29553
7942
9036
13851
16574
12753
23823
2975
11264
20443
31167
3686
24942
7568
20713
10576
2992
6405
11801
26704
31555
13268
21336
216
23838
16166
1266
16018
17558
24081
637
10321
3199
29221
4374
28999
21396
13889
31470
2680
6169
31659
10246
26734
14014
15712
13366
20783
20679
32169
9844
18028
23914
8687
11603
24571
27256
16592
1226
10888
20544
5747
26935
24199
23729
4888
15267
876
14782
14323
15176
21279
4871
13882
30800
29098
16053
1149
25568
19765
28069
24118
8533
14901
9930
24993
31950
8160
4556
16333
10986
18660
21749
13043
13779
11352
2638
12040
15227
17139
4101
142
24869
15484
14354
19887
8232
10625
6938
11660
20463
27980
4756
18899
4421
3091
7722
16015
32463
10607
14434
11333
18138
19215
24189
12348
4696
13230
20384
14108
23844
27202
18225
23995
9102
16759
13956
21555
2323
29531
16823
30520
23660
9563
986
5032
7371
26734
24147
2148
25697
2448
22401
14943
23587
18034
19616
3828
7374
14960
31469
24701
8488
6083
9226
8481
11657
248
20899
8173
20635
5792
31826
9254
24926
3402
6592
21214
7791
24494
22030
4806
21129
28971
31859
25155
8780
13428
21286
21444
26429
10886
28286
9298
15375
19933
16215
8297
7713
15847
24761
19206
18503
16057
26804
31489
10957
24833
16526
25245
9401
26171
18465
13662
25169
13608
18558
24602
1245
29308
31190
1875
30638
4567
8347
16324
5727
29431
1506
13626
2139
24364
20236
13221
30111
31500
30885
18031
30914
103
30860
25100
29234
21630
19284
19411
8384
20079
28907
13324
9055
16884
7289
13898
18472
8781
7051
13307
19618
20859
14449
15677
29505
28591
7140
31731
4652
16130
29165
21784
32579
28518
22018
13396
32097
26333
19057
13773
3806
23017
16130
8768
20825
18499
27351
29008
18100
12751
32152
17950
12127
6096
27597
6681
23002
7769
23179
2584
2933
25092
28243
31142
26203
21989
311
156
28878
15809
1086
22262
8628
6268
4106
13023
5715
3793
26808
19726
21849
14918
30984
32597
17183
22622
2238
12663
11054
15888
12872
2107
771
8056
23456
2750
18959
32717
13940
12813
11010
23955
2949
5875
16969
28433
21837
12816
11733
774
28132
25131
18975
22936
21540
11466
16489
2445
19468
27903
19014
17853
24162
25732
20060
5831
31644
25354
14953
23812
17921
30671
16004
11961
18188
24943
19878
26257
5137
12284
1896
30282
9762
19792
28430
20910
26932
24482
5061
1477
18046
14936
3625
20553
11810
20764
30474
19290
25615
24882
15216
371
5158
17673
29148
32157
29084
9744
5329
11234
26015
202
18067
7685
4412
12069
559
2160
9856
27912
23995
2926
23773
2859
16863
7322
1232
17451
14997
9368
32449
26590
17708
9474
6443
20708
16275
31397
6652
22654
23764
4078
30527
15523
17119
5023
760
11345
13705
1990
3663
28194
29396
15600
18417
21791
9329
3482
22964
30680
2691
28136
2426
23989
17318
9114
24919
5767
22064
14907
8950
28770
24247
1947
2616
16303
2003
21632
8991
28029
12068
32153
14059
16408
23447
8371
5250
4573
26854
10799
14357
27212
3166
22196
5633
11615
5861
32033
3315
21786
6203
13510
17232
26980
18304
11219
29652
10773
21751
16912
28025
8016
2313
15311
19098
1043
21645
8480
9048
16140
13894
7491
16189
23983
6573
29283
2591
17797
4849
21889
20551
4039
7229
18094
1491
17195
14393
14717
7513
24574
7635
8632
12749
29299
20799
14418
1957
7995
20028
3229
10554
24149
10138
13757
8818
22568
16377
14429
8092
6351
32723
29856
29595
3508
11453
12378
18759
352
17897
4481
1040
2449
2544
7390
5093
7053
2510
3336
16468
15031
27950
5523
12018
30048
19433
26245
10493
9183
16585
1033
25664
7652
6546
18024
21303
23049
18499
5684
16500
11178
31129
14535
14657
4855
29909
16620
2951
21319
10431
30683
23278
17328
2539
21099
4422
3540
9787
18051
11814
20221
4517
5329
14802
20333
4150
23231
24418
17391
8535
163
29217
19890
20560
22582
25140
11351
28170
32584
25724
22089
6169
23218
20925
27469
12537
15755
255
13658
11672
4255
8500
11178
23573
3612
22044
11281
1992
25999
7270
24206
7810
23567
14616
30496
15126
15544
14384
18906
14616
11612
16011
25914
13796
15220
13063
9911
8930
13661
741
32153
19721
9153
1393
20493
32162
30547
17124
13945
6223
16063
8841
269
23115
30944
17439
15259
7923
22324
2175
9128
19846
1166
3454
17603
21545
17419
8469
12053
21550
31815
28607
31802
25493
721
29219
5711
2003
15324
24051
30028
19923
25143
7700
18068
9019
2943
5631
13003
21744
15507
13415
13800
22236
8776
6428
15755
14575
16990
21039
400
28003
14515
29783
19172
17477
21687
4755
7319
16433
11040
22801
29491
10333
28639
20303
3661
31704
11346
1408
30809
10772
9659
12593
16579
13475
2033
32044
7227
7742
10325
4252
24400
19211
29960
4467
1856
13856
25691
9737
17678
8259
30855
14853
16086
7155
11167
2689
31582
6829
22466
15721
11245
24424
28565
2084
18528
31330
6896
10615
12666
12830
3032
15014
19836
32173
8110
7132
21237
29742
8357
32716
13788
21905
15226
23193
27356
4256
32095
14323
29935
27199
28216
15492
28974
10738
6921
22154
5352
28577
9391
25029
20977
5784
9935
17043
5436
18898
2829
15450
21420
11639
7294
1830
22824
16803
28511
26771
3566
25193
28935
21486
9769
2328
13338
21911
28613
12988
19712
19881
12930
4072
21141
15837
22087
25011
22306
11948
17338
10241
28045
28596
13069
1284
3788
14173
23834
31234
29599
26044
17075
24920
13951
28344
32307
18879
20945
12139
21337
5838
20064
13003
29015
2752
13834
10633
6949
7544
7866
6457
10779
17602
24982
1716
7871
4572
21113
8122
13276
18485
2979
10204
10196
20852
8623
11417
12342
12988
21446
17608
19347
26414
3091
24374
25998
17328
17526
25743
307
18413
9085
12418
23946
157
26000
9760
18539
24327
26219
25477
5011
10692
24274
22715
24568
27333
10879
17883
13146
32408
10848
25717
3099
10470
5887
16434
26448
21057
22338
696
27928
21276
12116
14030
14125
28699
23523
18113
26040
27534
28044
14854
30314
20536
30867
30240
4552
22868
27864
1733
17094
7130
10758
12604
19608
21758
9230
22281
4805
505
11220
27596
18301
9485
12327
615
21548
23491
2807
13663
12367
10872
11970
28293
6791
8471
18512
20949
26603
15656
10400
20382
23971
11530
2850
8675
18611
22652
3111
14593
18452
21091
25493
23443
32009
6087
14303
32147
5552
16414
7476
4802
26071
717
5367
24649
530
13804
8560
4512
4362
10825
16833
5295
18200
2224
27163
307
16403
5226
19505
3940
11110
30468
1005
25045
32357
31058
31842
9883
8417
19890
8451
21425
18425
20373
12050
667
29492
23612
15195
12106
16333
10432
16417
24128
1614
14677
18265
28148
30304
24015
1302
6008
9442
22374
30277
25177
16440
2998
22426
4039
24294
26890
2250
16629
7261
24537
12283
23747
30740
5521
12664
30875
10971
13460
20394
18584
26221
32128
1860
23278
13124
32180
31677
8838
24753
3856
2051
5352
15147
1275
18286
24414
31976
10923
10994
30550
11434
30369
28314
2569
24284
6002
817
3930
3293
15821
16450
1025
30364
18362
29252
3816
16997
12576
6414
5589
20218
28042
27281
1354
27622
3882
28101
20394
27662
24351
16868
26524
18057
19187
26071
14772
14769
19304
5101
26961
9338
10356
1491
21697
2563
16010
13505
9388
29547
10523
27121
27311
9190
30301
13141
4935
21264
18507
4233
12017
24961
1773
27655
22159
15265
2009
13466
12046
24253
20218
11029
20550
13403
19600
14404
4897
14283
15480
24355
2816
6655
2734
8014
11866
22429
24848
23481
29350
30033
16996
6561
24444
22120
22173
11202
23799
24987
19546
7627
16733
26664
29616
29711
25090
808
30249
4989
11113
23324
20492
26066
1197
3529
28383
3597
543
9798
6443
16675
11057
23379
895
5877
22419
2028
14007
26495
26523
4638
11134
2130
23530
13338
16146
32324
4173
23432
25928
30566
7649
4893
15311
8502
10363
10864
25272
12054
6982
4105
15926
9469
6318
4539
1443
14957
8573
30517
17348
27045
14148
10963
11342
32535
32253
25786
27305
15644
8430
3107
19955
26599
32465
17143
30280
19895
24881
20381
26433
8017
17175
22799
9146
11438
27366
10548
14041
23025
23428
26986
20044
24732
24762
3425
18897
12546
15070
24624
25596
2048
11695
26530
22581
3304
30336
4561
10752
3006
28057
24823
29057
8103
22234
2432
20799
24990
9633
13924
31016
28521
14318
26547
23253
24267
19653
8050
29456
28924
14804
20645
19603
6742
9302
17581
8211
12881
16695
27348
13693
24497
24697
17959
27264
5374
18390
28036
587
12597
8359
20979
8856
6333
32004
16185
8681
23196
14381
19115
2833
13803
13864
9281
31223
4999
18092
32235
13719
18442
12094
32040
11081
12794
8346
27348
12102
2112
6996
5441
9832
27867
1983
6282
32049
6101
1294
292
4111
11894
13241
31926
26846
6841
32547
3371
30127
30460
10873
29189
7368
25083
9437
15348
20972
20223
26820
16039
4316
9811
27292
21730
24861
18936
23219
10961
18172
21145
15956
668
17872
6337
9267
10043
22399
24140
30730
396
32067
11292
14725
930
19886
14349
6748
24160
9196
26410
18366
13639
21577
16417
25334
17549
2546
25076
27977
11631
12800
21234
11037
23752
6066
15334
16993
16353
5626
25486
6184
15243
572
32334
12695
6507
13394
9766
7170
24470
20435
3810
8274
18014
12949
19088
17834
16491
11376
12855
26442
18701
25669
18118
25011
27856
3647
7755
6923
16465
22361
12645
27332
14673
10785
7420
9337
7688
12475
11311
18968
32443
14376
16014
10566
28049
22729
24202
26623
26787
2078
7209
17533
10834
30676
32767
3164
21469
26111
10841
3835
9779
17060
29371
3877
15621
20090
7053
30705
32
5873
28177
22758
16122
29556
21144
28003
10890
26603
14582
13118
8541
4229
25907
21676
487
31412
29827
26977
30487
3961
11896
21240
29486
29409
30327
14484
19664
31952
29033
26056
12891
12029
13234
4276
26489
19518
2919
19313
241
29958
15035
9392
4803
27947
14011
15261
1139
28397
15932
19210
32677
12085
23825
28617
11498
30490
12161
11865
13018
30377
31224
31686
11107
13542
26876
19914
864
16654
3427
30264
30829
2335
26819
19866
10490
31130
7723
28953
27295
19080
6928
6046
23215
7611
19594
16951
23824
21078
13505
19388
32074
12688
29857
7090
26077
22708
7638
111
25048
1132
24820
29823
7335
8512
27637
21319
5165
17754
3305
16616
28947
30604
27881
18791
14687
26516
30541
31498
4424
31646
16671
5
32328
22282
1231
31573
24692
15984
1575
11501
5641
31969
29314
8464
32071
11888
4409
28414
18562
5105
22623
19154
22646
21505
14766
28331
4315
19783
15296
7946
23353
24057
13187
20091
19454
17569
12775
9336
7630
32289
31193
27530
30490
17652
4725
10929
11764
5560
18807
28166
32289
23785
14835
671
25968
12784
11079
10675
6731
17244
23629
1790
20620
22639
3797
20071
16530
3036
26450
29921
9363
9167
29907
26767
8243
11054
30005
5163
18006
12318
10647
12712
12595
19402
20239
12310
24747
22368
3995
12487
21208
29275
32603
24496
2792
15880
31229
11025
31276
29251
29816
7769
32620
12162
5885
25668
28798
12822
13098
13382
25110
19117
27266
12076
8672
16410
6426
28417
5836
32345
22676
20014
31658
14029
12113
10726
10230
21965
16355
9153
23285
29023
3265
9895
15617
5443
9279
13040
2848
4148
18621
13769
8412
9834
26910
28634
21583
19811
32124
12070
22654
21731
7193
24626
6632
8506
23193
14953
18782
23237
20335
3007
2324
14007
18326
26517
28665
15641
1153
15580
22340
12304
5716
6014
9807
30815
9812
4345
4265
15148
17820
13389
31335
32007
5139
22809
30394
30248
21402
14849
5319
31736
15242
19026
28338
9172
8285
3817
12028
781
17323
32337
16
12339
24665
11307
6680
27027
18189
17363
25365
1278
7908
5696
21807
3276
7784
16172
8009
11809
20668
9589
13273
23663
15130
23236
14839
20028
30336
7788
5300
14118
4517
1941
29868
25380
20274
6809
10207
5902
5167
19886
7100
23136
6843
16582
17791
3643
15617
11443
25789
30124
27751
19855
21565
4913
10504
19547
23818
32633
3429
27622
16326
7532
16983
31984
26689
20331
28489
23952
32587
4569
31395
2003
20166
7898
11913
29606
11263
32602
5574
20470
23614
11602
9475
22293
10139
11078
1085
16992
3604
13587
3190
8479
21213
28135
19882
5804
20983
12177
12548
17368
21508
24315
2898
24458
21594
27124
13239
17065
27990
21043
29343
27452
24306
27033
23800
15056
25498
9143
28576
29722
18236
8336
32537
15326
29855
21664
20356
8464
27893
29213
26829
28728
23987
30588
31523
22043
18592
1847
26539
5527
29228
27854
16757
21711
2564
29452
23215
17800
16867
28555
12824
11475
18091
10106
21688
3565
20404
29086
1999
31843
14436
14743
20235
22905
22528
18533
8957
205
3009
30250
27598
10296
10027
10545
5166
30453
16026
17968
18574
6149
30
30154
13967
19409
3720
25432
24762
15634
4805
22761
23153
7406
30571
23687
37
19043
658
12989
32714
2281
16869
27222
17800
2643
31993
21862
8372
20471
8669
5007
13566
9998
24562
4477
3052
17502
25852
8627
23175
17174
28794
4746
20308
2809
12595
25974
31877
25022
8466
2956
12913
11191
21299
19265
24130
8114
26686
13173
16621
29213
7412
16304
4712
15213
9991
4523
25879
7616
21551
25618
23943
28096
8058
6792
4702
25291
12516
4844
10386
4690
31527
7130
32730
14975
27604
13429
866
8219
24995
31076
29379
942
23815
25371
14130
29160
7942
14684
6391
29503
10824
24573
26914
24282
23150
24811
29561
21678
1445
22383
19636
8935
23674
8368
20717
6793
31728
30074
26194
5975
26063
20797
22557
16116
21312
19033
24006
15176
5527
16280
8822
29733
31088
32508
24768
3114
24573
18876
26252
9448
670
22921
5459
11844
5298
19221
12946
17692
14254
4566
7288
25902
30060
22792
14050
29237
13509
30193
9354
23636
23649
20328
8315
25528
6094
24216
3017
16250
29392
11522
894
11202
16120
29633
4823
9010
30584
16402
21937
18306
5942
16659
7998
15719
5407
8907
30972
32698
31422
6763
3560
28118
18701
2003
21999
6466
8075
20568
5541
5776
22926
22213
1593
21892
5595
13471
14761
17529
23668
6318
3890
17153
22193
28344
19467
10188
19858
13456
11346
24011
25172
8272
71
23700
13634
31714
10680
9
28366
22981
3516
820
24288
1805
20132
8822
9838
24236
25135
10465
8013
25073
22525
27874
30279
14926
25670
35
11117
2142
716
5807
27822
9254
17934
26968
32425
12956
9919
5974
10176
13413
26486
19248
20846
29155
24743
9952
21466
26735
18642
15154
8108
7395
19706
3693
14879
30556
3417
30261
16215
3134
21074
18608
24310
30328
3495
10472
1770
9993
31724
29296
12424
19907
31292
2123
991
16206
25642
2825
17734
31857
3578
14899
16696
16013
12050
1257
10850
11626
20651
3530
7673
8758
5324
9748
16977
7115
27001
1036
13228
18481
31784
14497
13136
18276
372
10316
19676
2903
9493
2874
26075
31032
13840
14509
27546
12278
25387
16800
4919
6145
7076
7850
24571
8273
26658
29988
25577
19625
20460
14222
28311
31005
7769
9519
7741
30418
7304
27900
1804
26117
4944
30651
25793
29006
10618
7528
2681
20006
29230
18904
1223
9896
16300
21660
8708
20628
3645
4136
21734
30105
7016
21557
9556
4308
32104
1891
9081
26004
20190
27683
4376
21344
17092
13524
13599
11067
13474
9004
3454
27174
2308
14042
21305
31975
29227
12137
1212
28937
27907
25960
27248
14116
2645
16072
18827
23134
22590
17029
14636
20786
32736
3977
19879
19312
27479
15053
3613
8581
2030
22721
26705
18685
30867
13806
5814
29254
19593
729
11469
13239
3677
30507
15789
26064
16155
12304
20707
5316
4545
19933
6525
11060
31476
5365
9058
14910
26866
5613
27365
694
14280
8430
4761
9139
13765
2139
11110
4686
19502
30388
17116
16038
8243
23483
11208
2600
16418
13525
13573
29453
12507
13490
17045
6435
28548
3632
31984
32721
15230
26237
2716
12629
15511
12924
2046
10065
22913
875
12656
7302
21123
1730
29588
11231
29806
15710
21991
24753
30675
11742
29593
7233
24691
5710
30364
29831
28919
24835
18683
28721
1761
24773
28781
17387
29379
6196
18474
29918
8366
4196
3325
1142
9454
715
28570
2409
244
23133
8499
23029
13460
20469
3654
11113
28529
9719
15289
19174
30389
18227
31272
21351
4869
19725
25470
1279
6836
12507
22210
8546
27702
11407
26164
29095
27864
3734
27545
22860
24495
1280
14035
6779
10446
9184
2740
12171
20668
10998
23572
24010
23590
20107
1825
25978
19408
1949
28407
29465
22737
12092
15217
13798
16640
26932
10558
16288
14250
8684
8247
4497
20102
9102
1007
31435
27370
1640
29324
11186
6974
147
26070
8890
24754
22738
27278
22130
16684
188
25089
16578
13700
6686
477
12144
18420
27547
1602
32233
30410
2197
18972
7231
12128
12369
14769
1902
30030
10325
21366
5859
2526
5653
11047
17215
10177
7119
8982
19032
9984
15540
20420
21632
7477
19528
14766
32523
19962
27915
29033
28683
32674
25177
10737
22366
2087
14735
19775
235
9828
3695
16153
23592
31620
28358
16942
7392
14523
8523
13154
22835
21812
21451
3943
18654
24650
29827
30349
2492
17402
15054
8923
3469
2968
8960
1118
5367
706
24977
30657
23498
16531
4478
19230
23176
29464
8684
1300
16677
32520
18190
8730
3851
18351
29258
15378
27745
13100
5527
20514
10381
16092
13866
5823
503
14358
4689
8714
6928
27929
24223
13920
16532
27202
24137
4396
25868
6019
23248
4608
30102
18960
16096
31205
27624
7771
22649
13551
16787
11843
1612
25108
10373
30600
21608
3389
11474
1667
19477
20382
9140
14612
31488
19011
3024
11739
30105
12012
17082
13227
22714
19227
13244
19771
3721
18795
25555
7455
23199
7459
32507
19959
29034
19467
19116
19175
7887
2687
8613
23623
16404
24001
23784
31899
5374
14484
19974
31173
11318
17926
11932
13945
28401
22157
10526
8178
4048
9045
24275
11235
24837
23513
3873
29361
21944
12721
17419
14815
12969
22186
10232
714
12822
8476
26806
29078
7903
19064
19390
8296
10984
31777
22458
13013
1215
7805
14148
15771
28799
7755
14577
22159
26612
7223
4238
24791
1535
15019
15785
26969
16700
32233
15188
10099
14819
29271
23845
30189
7916
3353
32129
22572
28279
31461
24858
24488
5482
20755
29623
1440
12892
21748
16948
19724
32690
19813
21961
16595
10503
4772
21647
8766
4050
20578
2879
23468
17218
11801
17469
2952
12141
20895
4054
15225
18346
28668
25030
6104
12347
24697
10238
15207
11056
26105
16036
25408
19591
8844
25946
7947
14744
26946
6595
20852
30641
25149
31555
5341
3581
13578
7175
22607
32426
11570
25414
18615
23370
3339
25798
23119
30842
724
20897
1626
1218
29697
26185
4372
1725
4820
31178
27625
1658
29229
4687
2021
26145
2979
8936
11372
11738
27603
22154
9771
20202
30968
3160
25166
8735
1981
26912
18931
9583
12879
8745
29151
15580
9653
25900
29296
31387
22884
416
31699
12916
25870
14138
31351
23660
26812
19893
24514
2722
15132
22991
25346
30327
21020
21396
20134
26865
6583
25054
11694
610
11535
32541
28000
9540
9661
23380
18237
2152
30053
8036
1843
13392
32141
30093
532
28633
22959
31538
20551
24604
3980
32732
8382
24471
6596
13698
14375
20616
164
13832
28775
28314
30015
517
19524
25539
8896
23753
29537
9325
10750
10655
10864
22228
31569
11855
7075
18863
677
24295
867
15890
22988
5819
5445
2195
29977
25259
11578
19884
32298
16548
8454
23904
20741
30826
17907
29217
20327
29076
32454
22258
32344
10968
26098
14537
8707
13960
26636
10039
19397
24669
25215
2122
3716
24692
6785
947
19778
16278
8261
10532
22513
20668
29298
22012
19081
25554
30165
7718
25177
5564
5458
15422
15770
24983
7713
19702
14666
22337
11319
22969
24888
6939
15105
30350
9819
4877
11864
30526
20327
25803
26546
32697
22434
10583
15253
29622
12276
31176
23378
2458
5694
14665
1775
1179
30445
16484
7013
23077
3279
19841
20748
18044
13093
24233
15955
5284
7673
22672
29364
7550
27826
7891
15847
16947
19173
382
30550
26069
4974
9169
22994
10820
10688
16452
18308
29775
32121
28104
2598
31516
27706
19024
25459
26314
30133
11920
475
16980
30215
20228
11644
17593
23113
28213
16718
13658
865
1080
17565
28579
19230
32631
14525
18925
24453
692
28409
25507
26725
17482
31436
7844
11058
29366
5204
18409
8463
16983
32515
13160
13101
2162
18584
20280
4436
1913
29773
29173
22207
20621
26194
26726
28973
24129
9083
1629
32309
19617
14646
16095
4826
21107
25023
1925
8543
24508
14487
2850
29021
1414
4914
28582
24082
2785
20975
13123
20220
21288
15694
25806
7846
31109
17246
15207
25539
17847
10612
20828
20601
24083
1570
1611
7167
23241
5991
19591
10858
7785
18724
26045
26308
6054
32719
21208
863
20569
31595
31521
5224
28105
26296
20139
14527
1577
26279
26606
17670
28514
15888
28850
9465
27411
22951
20015
26365
21462
22573
22642
9723
12230
25315
8450
17774
19518
27204
3268
13243
18147
6899
17692
9922
10212
7923
17493
1714
29056
32534
323
31521
18633
14520
32294
20060
7080
23468
16082
6907
26658
17527
27149
30649
2265
18108
6713
5507
10966
23544
8499
975
20613
10864
17274
3887
1537
30823
11924
28198
10898
24467
11949
12346
29557
21714
26498
9034
3035
22554
5245
8994
30259
24750
5153
1869
4780
22936
17065
9002
28406
16979
26604
3139
17225
18376
15492
6873
16553
27004
18991
22724
5224
32519
11125
21114
17644
12744
28300
32365
19379
16087
8056
11930
4243
5435
15734
16478
10823
9309
8091
32396
2087
28349
3257
27070
26935
13540
2690
23272
17507
19610
10224
13363
1545
30808
18148
5128
18104
21248
10509
15978
24376
9164
17419
12426
32202
11908
8404
4757
8368
21493
19031
31697
6640
5790
3936
15592
86
22444
7100
9348
12728
24617
11421
29211
19069
2672
25664
27405
13920
8164
204
17900
15986
16097
31358
24602
14430
23795
19715
29082
15089
14662
28709
13088
31706
21342
17322
10858
15022
14856
29305
4307
23855
18065
4351
2086
8397
6197
31441
4528
1389
25562
13203
31641
21866
27647
20248
14452
28377
13551
9418
21780
12818
18746
21069
161
14700
8805
20831
23276
15943
2529
9475
32000
20304
1594
25054
28666
15360
10385
5601
1562
22886
20044
21288
18969
1063
11020
25122
30909
963
11999
24307
14508
13081
7352
17942
1150
4654
25884
13383
31509
9514
6429
23968
2609
17571
2444
2
10047
17182
26219
21686
2674
3027
29345
17748
8213
7857
8177
26596
9248
3490
10029
1604
7177
24336
28839
13514
8924
31144
24809
15401
15246
32094
23974
23193
7567
11697
7920
8242
12190
20784
8362
27289
9441
10813
18497
17375
28725
27921
4759
10406
451
22272
24128
31110
724
19198
9713
7087
998
5987
16181
3279
20734
18667
29026
28214
24641
12033
30924
19256
3774
30013
19000
7890
8079
30251
10900
23697
12576
11086
28389
176
7374
24164
30848
27520
29876
32748
16765
3085
5057
18150
3433
7679
29710
32218
4667
32446
16239
8475
11657
24026
20041
12877
31228
19625
2211
25893
22786
28978
23935
2416
17602
24649
17514
22103
32341
25340
32082
31457
27699
11054
664
6073
15595
15234
24934
1586
8728
1659
27715
4232
14224
2273
31716
32617
27358
25446
12869
8371
30451
14217
29689
11136
18456
19387
3007
9568
23591
15040
11349
11493
29435
12889
17553
19813
8997
1312
22957
16379
9952
5043
23523
15823
30024
20756
10553
18327
31686
26192
12959
1630
3023
14687
30519
10628
20686
23372
18932
26119
25182
8598
5478
31488
18109
28373
4564
24433
31101
28320
8588
32061
19069
18607
18295
7544
10520
3901
27632
27105
12188
27824
25558
10157
766
21628
28128
3975
23244
15173
6705
26324
17762
6724
20525
15931
31841
16875
26250
31077
23901
16332
426
1025
23254
23479
11304
22540
31082
28706
23985
14671
11592
8654
25621
18985
11240
15016
25245
23950
1530
11246
23456
10832
7580
31634
30801
17309
19663
8419
731
31434
20524
5226
18096
3662
18899
5906
19229
18962
28837
29837
7203
31976
16307
17650
5506
26456
14837
29099
25622
1955
5696
398
12646
26370
26482
28746
11643
19503
5360
5381
27374
30502
14162
23619
16709
18989
11612
22794
10624
1042
32048
28996
18670
28596
21955
10596
7749
11460
17550
21324
1266
30157
29574
9326
686
1906
845
30514
4946
3320
21930
15256
26348
13828
23607
23327
17938
22949
16217
5093
4214
19092
29045
3855
2491
16571
609
13931
26759
31733
18201
3412
23514
1045
10676
4311
31390
10793
13718
25364
20863
12032
13286
17894
764
13033
27715
10438
11710
21182
23986
19948
3369
5665
987
19128
2098
4870
31862
26449
8816
27250
8448
8588
885
641
26802
22287
2142
8622
9907
23222
5033
20303
30861
31029
3911
7519
30942
12543
21746
16256
2640
8551
28865
4928
20170
29957
29178
32156
7912
19292
15911
16835
5545
26041
6764
13596
1128
7006
24343
29833
25358
22752
2425
32494
4229
11982
8181
22765
30576
13203
7254
7668
27417
15518
20581
8826
20650
12992
30908
2949
26785
1493
29141
32624
19582
934
17254
21483
29886
5646
30193
23875
23309
11356
26262
17124
3256
21497
3373
32028
16737
17483
26769
24609
18934
25048
1342
22614
27620
31919
21023
15306
31879
19972
14241
21761
20709
31002
9484
2808
21917
4966
2067
19043
25370
30705
25258
5177
8716
27134
29463
21874
5145
19181
8780
27664
5327
26463
11380
32092
26334
8091
14284
370
8580
28464
19892
10239
4680
6108
27142
31306
26347
29613
5286
24177
13212
12902
14682
24565
10603
1572
12764
24953
4352
833
13870
7111
23949
14201
10030
3604
27649
15435
26474
17285
17023
18594
13877
4594
25614
1461
16635
13801
3218
11052
24273
28662
26875
9860
10832
1825
8124
20916
28068
21689
15742
32017
5344
15696
23062
20591
6804
15111
2485
18313
8866
23820
28255
19875
14157
24672
32159
15469
23699
17886
20088
16939
28093
2425
926
29459
31028
24261
9703
2550
3734
5817
764
7203
13065
4787
25684
17545
28624
26812
12899
2587
12060
7437
22542
1401
23332
5331
31331
2508
29559
9776
22663
21745
3217
27010
26607
2779
28077
12263
211
50
16603
17153
12000
6208
2386
20982
31278
14862
21511
12219
15473
8394
22143
18067
22131
2924
28641
25810
22978
3994
16463
18151
31397
5064
19062
665
24149
13475
21348
14225
6506
6576
29850
10521
29332
32048
5219
9507
15755
27464
14436
23693
25161
31838
26227
4259
25718
3782
1965
14822
32548
17310
450
3084
10428
17142
31380
31559
4920
2869
31233
9930
31891
20407
24060
19594
25470
10939
21731
10817
29781
9853
21004
28601
16977
24991
12450
9799
8447
21197
30895
12693
12785
28577
31353
19877
31411
15044
13330
11795
5888
32087
13611
8859
23350
12177
29993
25818
31496
21673
20347
29529
2163
19958
6698
7623
24307
26965
2737
9862
20214
11979
23824
7530
7569
12651
28956
22461
11378
26490
21017
10630
24086
19922
23690
17418
2620
23172
30280
23956
5785
705
3282
1650
1997
22523
19940
20288
7830
71
20043
9321
21827
3590
4855
746
20844
31428
12370
27225
7649
18784
29648
12326
16608
4973
19399
6178
651
1497
24962
22077
30616
4300
6545
23956
9291
20179
28258
8363
19361
26430
22806
9974
16079
28615
15501
7071
16618
4468
1731
14723
21224
29886
31840
14462
31687
14578
25226
8168
24844
31448
31486
8799
17263
11923
1631
26311
13269
20680
16589
25232
5246
13058
3258
10551
14976
26453
16377
21776
17268
3906
18200
27970
29551
4571
4848
27923
12084
32039
1146
20582
26279
5832
19173
18817
901
24539
26597
1044
12371
4128
20045
6519
2964
19547
20192
6708
6975
7162
18276
20677
5232
25079
18425
8607
19294
23808
8873
11375
24461
29398
6464
4771
30789
19187
7518
1836
9538
31855
22218
2946
14253
21284
25609
32233
10059
28689
2352
23796
22517
18684
16630
25671
21320
19291
25613
26272
19101
9845
23219
2329
30011
197
3204
17319
7884
7327
658
19175
31246
12310
28599
18202
3019
29724
4906
31853
16907
12011
10577
18559
2952
15780
24278
6429
866
24886
31229
16464
1300
21122
11829
18841
15527
25021
19949
13435
1830
9493
20136
14394
14161
31383
21332
29923
4757
24912
12503
13708
6716
28082
8428
10205
29922
23866
5933
11471
3112
3408
27760
9908
12972
22895
21591
26744
26168
9349
20771
10790
569
4509
6601
9901
30323
12219
9800
18149
22004
7431
22073
32205
21062
25902
26024
14871
30441
7942
9250
4326
14592
3441
8719
1494
12107
18307
18499
5181
1621
11239
3535
23984
1263
9086
16413
8649
13532
30538
4412
25384
974
15755
24696
23992
28818
8743
28974
12851
6279
3663
990
27369
14676
29536
1410
15805
31450
15623
18718
12144
5480
11945
32665
31778
10286
12290
25035
26901
21493
19724
16599
25525
28173
27938
28859
4565
24454
1381
16677
14140
1187
19039
30857
5216
8331
9446
1392
8817
14658
28227
23059
20633
28632
14228
9768
9859
10464
8303
25340
28698
6436
200
26050
22163
2711
27157
27690
2733
28043
17327
22326
25655
2596
1660
2122
6867
26125
23499
5250
31739
12905
9087
16967
16961
22029
9584
1317
29147
26604
29198
27607
24158
11730
13896
13476
15818
29526
1708
31727
27847
19722
26063
14601
18478
7156
2543
32073
16331
25922
9687
10591
1634
21049
14595
3301
751
27759
11013
9271
26418
27194
13863
26757
3947
8040
25938
26150
3939
26160
10542
3375
4267
5225
18571
28741
26152
20730
12288
26031
30928
23954
25809
16047
29102
10393
7958
2323
17708
15206
20250
3847
913
22706
4610
2349
4809
24396
22959
14064
13669
17679
19429
20757
738
15890
7340
2706
13614
25630
26614
5028
28520
29285
20099
21276
25063
26992
23042
18937
28543
12122
27769
21820
14335
60
16102
16888
11262
17128
13095
26537
3544
5594
32023
15558
1011
10347
26362
6554
8263
13384
13595
7503
285
11043
27827
26956
28438
27816
525
9921
7280
6323
12776
2687
27013
20928
2589
19214
21140
931
25985
15609
27332
633
24333
2413
2150
5598
60
13058
1659
17504
11957
23769
16246
29492
7466
2023
9539
11816
17280
14992
6791
11225
8752
18040
28970
25126
21741
8342
12819
16100
14471
32650
4658
22739
10255
13360
14532
11473
5436
28789
15058
15182
13
28777
28667
6656
4528
14742
1140
19928
24227
25745
27725
308
5145
9422
7158
27222
5279
696
10753
30229
18431
31745
15913
2770
8804
32311
29076
30638
9920
28569
1109
25594
26731
14888
3125
21232
20493
3329
179
4000
10173
18409
18505
5420
12906
17706
10993
18232
21114
30110
19944
3741
946
777
7346
11869
11350
27819
17246
25820
2449
21014
7691
11597
15126
24638
16811
13674
12808
5327
519
23400
1816
19395
6404
18474
31725
19251
21284
31157
11208
16749
25935
20964
12136
26952
20436
32092
14379
18612
29355
18115
26231
15765
14077
10797
24408
19666
29157
15575
25962
26536
25721
15640
30970
6981
32004
24212
17256
24210
15766
9907
20943
29264
27583
27986
25320
1894
28055
21944
19500
8057
30721
21451
14905
23486
29233
4483
20599
11788
12908
18592
27643
8246
30735
25752
3500
9623
18131
212
12196
10990
1871
5915
2521
22637
4287
29263
2556
14860
3
14679
673
16931
32747
9820
21921
23096
26289
15928
7612
30229
19655
7211
7043
23838
211
9680
26998
7650
31993
15184
15209
24560
16728
14294
11564
2028
14295
22083
25706
25058
1313
20002
2514
17881
27374
15582
23925
27308
8069
12082
27247
23317
15998
24290
7626
16651
14029
30889
17567
31566
23036
32370
13694
12608
28856
6603
10512
22774
30863
29334
1531
25487
28408
24065
9222
964
19860
31161
19070
17089
7091
1883
28120
22323
14618
7212
28823
29347
17924
30985
27505
30978
19558
7841
16557
22149
3703
29153
32463
26547
7792
1200
22135
10172
9104
22237
10119
6412
28772
9045
27012
7200
20037
3482
29503
10392
8738
17264
26036
7310
20096
26330
15922
5671
30398
21572
21436
2919
1950
6402
17328
5194
10497
11769
4518
6928
31986
19100
32411
26328
20454
25627
23375
13424
7746
11478
23019
20844
4894
10264
8935
28021
25673
9730
12587
5604
12173
15301
14708
3984
15668
3093
8442
739
19402
29658
18256
11828
18725
28456
10123
4688
7331
19057
5286
19802
26291
29689
5413
6102
22935
395
8697
6144
3944
15979
19620
32610
346
21899
4253
9893
1089
27649
21494
7080
28244
16313
23356
21967
18993
7783
13471
1182
15138
18624
24146
11398
30367
5610
11317
1534
30484
27441
12466
21206
19428
23547
11492
7624
10925
1534
19455
6225
9678
32176
11756
2751
11302
24319
1331
2698
13855
22083
19486
27367
17387
13681
21788
7067
4366
27025
14947
27149
8477
25714
28889
22688
2501
20124
565
63
7694
5510
12897
12346
24289
10761
5155
16464
21705
789
20733
18701
14070
14499
10322
13910
903
19178
27081
26690
27913
27094
28407
22059
16698
20662
22584
26629
11539
2613
4317
31215
518
12427
24205
15880
24709
32244
32741
28804
27587
16737
7778
4607
27326
2926
6017
7184
31357
10133
24868
25634
13718
13729
3384
8319
29940
30565
12437
17326
3543
9901
12581
8703
12572
26485
16201
5476
20415
10841
32376
4994
10398
4941
8490
27144
25472
14478
31732
5440
23893
19929
21492
25828
2496
4058
27759
25394
3538
999
6073
12866
30745
24558
20309
21400
14809
11948
5982
3574
17817
1056
12581
25971
30433
22080
24860
22993
10051
19946
19443
24332
5272
9245
12032
17455
31884
24425
30692
31851
4445
1444
32620
32362
11231
5599
27573
11745
24260
24216
32148
869
20250
1074
19764
26239
30229
19362
14849
28162
12303
32106
4549
31388
15565
29899
13073
24492
5380
12086
11999
3667
14619
28677
11637
30414
23859
19560
6797
5123
5733
13218
23730
21849
27978
18293
7149
23245
31169
6362
23457
14147
27628
7414
27572
11545
9852
28234
29935
6402
20015
11818
9384
32530
29334
6768
15262
28181
13340
11121
1060
11557
2884
20016
29570
26492
5426
3794
31384
19078
2413
18258
18884
19002
15587
9846
3078
32683
22062
8962
23906
21978
5909
12075
134
30927
24406
16462
6061
15080
19619
32482
25795
25712
7146
12972
21706
8563
12249
16177
23164
465
24738
17521
23602
16274
30971
14290
14596
16249
1129
2395
10546
32732
21183
10530
32195
27059
21729
264
875
14318
14030
13987
3250
26892
23262
18812
26451
28393
6728
24955
16610
4311
28390
24991
16050
13297
27197
4850
19702
32172
7608
31677
26918
1199
22580
14072
27557
997
23745
24580
5280
17360
30375
26269
24633
11808
3752
24330
26085
16260
9605
8854
18194
19392
22468
21572
28942
18432
20143
7615
13860
3947
17056
14480
520
22012
29308
6035
11637
15757
13438
17580
13588
16693
1078
18102
22432
27348
12753
9148
24392
1772
5786
21356
6740
19123
29377
13768
18188
8294
22619
25119
30421
3551
18347
25148
11422
26986
24736
11741
14970
20693
19870
31335
8846
5830
19330
13015
32558
6737
29408
11260
13891
15562
9870
26852
31728
27096
19303
916
26741
26059
11593
3579
9555
22064
13664
32553
30129
14498
21927
189
7678
15331
19883
12444
28376
12075
11411
10985
30508
31679
13405
28721
8607
23750
618
31717
16685
18776
8509
7950
20752
17625
26496
29500
27620
2437
18503
31167
15880
16715
30873
15130
30535
16607
3629
31413
32696
30987
31601
21202
29666
4678
3280
19650
11300
26247
19253
18777
21333
19803
26571
19871
20647
28214
5384
1992
2257
3334
28905
8295
14957
1294
25727
11230
31134
26098
7338
20505
3831
26382
37
29308
15768
9484
18114
537
13466
23990
5623
12839
12206
7688
18074
14511
2816
5770
14313
25993
20066
2525
21453
9607
29606
2451
10336
17904
27723
30020
15020
3120
10845
28637
30390
30157
12438
16188
24763
13469
28105
18938
27577
15159
26497
10120
6449
28071
30693
30334
17963
19046
8926
27951
18812
8073
18044
22657
18244
8248
10902
31996
23994
28258
13233
3616
3884
27823
15651
12284
3393
27830
24185
14076
18818
3441
8213
6659
28440
24045
25372
19129
10711
6214
143
26663
24188
2259
25527
32641
14387
30110
9159
20290
12125
6679
24765
16510
28047
2825
26505
2676
13022
5836
24945
13412
8282
30141
4788
27040
3032
24299
27757
21476
16629
21779
30139
28650
21335
16335
20511
4154
26166
9482
23333
576
3355
5815
15175
2464
10728
10434
18446
9678
27673
839
9594
21977
21833
25859
3236
20103
26360
10760
1954
22183
23947
10932
9387
15779
7316
1763
25723
8277
12372
12644
26617
28699
2175
20394
8472
28718
20542
16836
2811
7471
1914
26256
11612
13059
16728
28715
28462
17633
11264
23723
31873
7081
17827
26385
17319
20088
25276
1145
19861
18809
27030
16788
30091
14078
26382
5208
17400
32463
24730
30198
28824
20417
1930
22797
20447
26507
12686
20509
12186
3286
14969
30782
26324
28563
13124
31762
7414
25489
598
17144
3123
10575
22786
8322
17187
14607
8786
6186
10670
17451
20227
2368
19756
24748
8912
22311
14282
4889
26356
25025
22320
10893
9706
25128
13921
8972
21623
32671
3810
535
3050
12488
29982
24958
14755
15639
9225
7286
26578
29318
11268
21227
897
25482
2305
14104
17365
16710
25575
22868
5776
9727
824
26159
13787
25553
12017
2749
19267
11168
2993
29490
17409
8273
12574
6063
14974
10809
32644
19292
6422
7893
30912
16823
23068
4284
8285
32300
2335
23507
9980
25061
26988
16832
25849
19427
26068
10913
26699
32590
11696
24061
6572
17417
8994
18426
15611
30090
32413
7889
20702
29673
19367
31872
4523
11062
8925
16575
9097
9488
17720
20276
10194
22643
31888
32234
16828
11218
25950
18432
20025
23910
1478
6302
21275
17861
21973
16941
27004
10422
7431
30152
10077
2116
18700
20205
19597
11793
8651
18297
14029
24301
32424
10195
24881
27815
24834
18279
29385
6691
6144
12630
8321
1453
20878
363
26182
3469
15522
3410
23402
25308
8388
11780
9802
16022
3789
15750
21294
27888
3823
7379
4720
8939
28661
22039
8673
21033
7116
12061
25960
28415
5443
16395
29420
23757
783
25165
5492
29834
27666
3023
2957
22947
2269
27247
1261
4358
20083
21426
9045
3705
5711
23733
700
11313
1961
11879
3241
16544
9718
27126
6881
18062
10414
12679
11586
19307
81
10538
14063
6116
11436
1037
18093
18100
18521
29168
3725
15805
28037
216
3788
15703
22517
18184
26615
31208
26699
26925
6226
29621
27782
20697
10363
247
20937
10034
2891
15922
9053
26604
13565
22722
31480
8308
11666
26550
17984
12142
8819
18146
1419
6242
15193
10288
26601
16306
13930
20279
26724
8912
4005
11023
20614
24749
14207
16995
17436
9845
7374
9671
14906
21625
3559
23628
1919
28525
13571
32338
23962
12755
13288
29342
25613
20919
8901
429
20017
20125
30301
13127
4731
23480
4455
10839
9981
14940
1333
29433
26416
6326
17813
30421
1776
18619
21493
2988
14024
25438
9674
20528
23920
11270
18994
19225
2708
18495
4823
117
1751
8111
17431
28991
