11759
16778
31849
17641
12671
17704
15071
20696
19970
27638
6583
25039
7397
23350
5240
836
16788
5945
4737
25137
19447
27602
32168
6432
9276
14604
11298
645
25560
30744
8611
1361
16328
3209
27589
4036
26653
13764
7598
13443
183
13489
12013
7658
5969
31159
16806
19363
15038
28392
5103
20088
6001
12920
8313
30309
15683
21876
12915
9970
29297
29360
28843
17856
14308
12802
9207
30561
25270
2989
15571
7788
28401
24608
23627
20689
28570
14305
25628
14187
16366
16324
21014
3028
23019
21856
27332
10365
30226
14275
30543
24318
22636
12389
6816
2218
28363
18523
453
1383
9298
24013
29590
7357
3639
11690
920
29996
21960
9626
27681
5571
940
4661
21437
9710
4204
32114
465
24464
24114
20834
18046
26449
32720
4894
6600
32570
28931
18942
13816
18303
9209
26379
12606
411
2066
16567
23195
2466
28132
30412
24062
31187
27777
21155
29614
11373
11260
30614
7911
4037
14633
30647
16328
148
18085
8387
31853
7829
32534
5457
17752
20304
19636
1615
30997
25392
14857
8367
27421
4316
20468
862
20988
15044
5364
20854
24751
13050
4515
13492
3920
28996
32385
25644
22261
28527
32499
827
25813
8166
3468
27838
2220
12931
32138
16001
25185
7076
13732
14587
4838
4482
2051
18232
29793
29630
19342
17174
7561
20797
6762
18868
13394
54
22977
13352
21452
31881
28355
2160
2376
83
17643
30379
11454
2751
2436
13962
6251
18719
16491
22785
958
5691
5654
25154
1397
1000
4821
16363
260
8925
4952
28542
822
31939
10866
26899
21014
29835
20508
8777
13328
260
445
15746
12884
30125
14249
14672
23163
19912
21479
13354
17261
11695
28215
6244
22914
3691
8531
17502
13799
18307
15734
763
1348
27410
1051
26708
16795
10268
20743
26286
17268
10018
21641
12202
28215
5364
17153
13756
31705
20423
7583
25054
11194
27271
30829
20870
22734
31343
24976
12501
15100
25302
19915
1297
22467
4940
11844
31573
26147
27621
5003
3975
10683
15317
472
8075
2351
3645
23188
16054
25548
14661
32539
23942
27247
25451
4289
6544
32674
29467
29203
18873
25353
7295
27999
6825
11261
408
9334
20349
22390
6286
11696
31420
27950
19524
561
17293
3
2864
8555
2855
3485
14442
3556
1672
338
13058
1849
8298
24134
26519
9572
14195
21719
8229
14650
3244
18232
1567
5687
30260
347
2750
10622
10806
10261
10648
540
13848
9085
14708
11917
30197
2197
16221
4993
8270
17964
30709
8160
14844
6402
2828
523
1641
2862
7537
16997
18432
701
13576
26386
25826
9116
8989
1278
17371
2232
26872
25121
30100
6243
19122
3330
32266
30714
1095
3450
21054
25284
21739
4795
24111
26654
21666
17040
9989
21717
18443
3559
23951
19412
26236
11916
29935
20991
18004
12855
4500
20830
25485
14025
25705
22398
29841
15315
17996
4884
335
11608
10178
21732
28813
3028
10473
6113
32640
21884
28078
21654
22426
5320
575
9156
13987
14383
25540
29773
23819
5937
330
22608
13951
18587
18687
11670
28858
11783
5541
9517
29854
22690
4161
28242
30083
11058
23059
2197
2767
23895
4811
311
1990
17424
3834
8151
1444
898
21191
17997
21481
3573
9443
2007
17141
5152
19903
15219
31956
19110
22268
3467
24667
10464
24355
21719
4724
1245
21910
11904
14774
12455
12998
9601
6201
31944
167
26963
30632
17421
18273
22473
7063
25738
12873
24121
11799
18910
271
30172
23176
27833
6456
16247
2735
27547
19407
571
31241
8414
9048
4586
4958
23030
19974
24636
19608
5112
30766
15745
29910
24921
11002
3207
10429
23800
866
28094
24846
20063
21848
9626
20350
25414
3907
16953
32194
8793
29103
17478
25321
31548
28483
20253
25326
6091
18675
9264
27790
21158
14967
28073
10583
30445
19195
7249
29698
11592
5656
23728
2306
14891
8451
26486
9565
29016
4100
12569
1979
677
20522
15552
1980
1023
2366
5728
14223
23727
27637
14372
17345
30172
12393
24339
1362
21585
22730
4845
31246
32641
3153
25941
5914
22984
7798
11317
10702
19956
5731
15199
15042
30212
19112
24944
10028
7984
25904
11258
25705
20265
25460
14050
8665
11937
26350
2822
15600
32014
27089
20515
15242
29099
11255
22007
16511
11712
27675
14498
11896
9252
16712
9298
27905
6656
10385
31775
991
9429
6915
26676
163
18881
16344
3888
23167
8702
3821
32460
18521
10411
30583
1981
15646
5583
24305
4316
32345
27291
3161
9604
2308
4847
21403
17211
14493
16416
5454
10901
25725
24825
26270
14166
26470
23295
30089
983
17755
26873
32079
23467
25524
17072
24355
16769
1905
29172
13095
3148
3535
30943
26007
24482
4889
11614
13380
866
31681
28140
8261
24218
5039
5025
10217
6568
14297
17772
23792
11167
15892
4253
11002
22252
3881
27302
25151
22841
10028
34
23169
21137
28681
29974
16959
10181
10848
31351
28204
25615
22675
23789
15583
24054
24605
28887
25292
9073
21797
32655
12915
29007
9298
6639
13527
14806
3810
29716
9778
32427
11510
11873
10983
498
27184
12231
20664
4789
12416
30020
12345
30858
13627
31402
17028
17008
7278
8354
16175
31995
26225
13296
5755
5041
23487
31225
23502
25011
27396
26242
13412
13728
11640
24250
7745
19638
1388
11643
9066
2362
2850
3277
19796
26650
15330
26796
27805
31186
8010
16139
2298
25228
22246
16664
3441
9611
19457
6594
1224
16329
28602
32120
31293
21983
16730
26420
21111
31014
3812
9913
12477
18460
9198
9241
15462
28169
23216
31865
23184
17890
17243
23576
12309
9325
21932
14734
32699
3494
24768
22098
14507
22882
11562
10367
18725
2866
1347
4568
2417
24970
6081
2057
21273
24610
26763
4656
6229
22941
17356
16283
4039
15465
26438
31699
18536
9958
21994
25562
14787
1738
2469
178
9313
18372
30588
2846
22148
21855
6619
7341
10520
29738
29994
29171
18662
13846
19106
8730
8203
3615
27999
28570
29608
18222
28086
5700
2524
25150
3784
14981
27631
8126
14935
24041
6352
14391
26329
31966
15298
2095
9163
14779
15186
13133
16456
14592
13452
702
16346
4831
13934
726
4496
32252
20893
9211
15697
6002
20567
25279
31599
27670
10921
15180
27263
9983
2786
27653
22377
2374
30279
19306
19387
3850
28168
13628
22083
26039
7283
21218
16860
6024
25192
17164
11912
4171
22797
25750
16575
24421
7106
18607
23303
23317
28248
4154
5573
2301
4989
14452
26963
28638
26491
6872
15954
13987
4899
9280
22594
13473
27395
1868
20048
22301
20192
28167
1646
14
7520
28360
26281
16933
4102
18519
12471
7691
4963
10577
15312
9450
28555
1742
192
9262
21703
17984
11321
16013
8329
16031
11117
5700
28325
21699
26332
27812
19133
14097
8043
23246
5629
31833
8631
1979
29961
10751
17320
32639
23092
25945
24649
4046
32755
21593
17879
19903
26513
29036
18968
10448
12324
22177
30957
12074
22975
17422
4395
26407
18665
25968
17319
25106
7758
6929
26768
27694
14005
18927
7938
32249
26418
30490
2775
21169
18845
12894
9409
18456
11586
5154
20630
27509
32730
21136
11754
22491
17083
12790
22243
18861
24651
21612
329
2914
30138
11448
13789
8070
25841
6254
4588
19457
17093
25948
18211
27292
30065
17956
19877
8897
5955
31275
31835
28802
29077
11442
31627
7390
9215
20291
17837
2879
19403
29519
10874
70
16297
26389
2117
17867
13220
6597
12174
20512
22869
2790
9429
18582
20567
18677
13484
8515
31483
17231
3600
5634
2876
29521
22265
16058
23541
8381
28464
5860
27217
17759
21857
7751
899
21489
25201
30470
31416
26173
20241
9437
31562
5761
14228
20904
19255
2071
4605
15141
4561
25429
19037
11770
30391
18611
31068
12794
11523
32555
26901
19364
16069
25062
23591
30444
11441
20756
19208
16191
13844
10780
2973
6337
23821
2805
5896
24281
31481
25811
25026
7151
31023
8711
31209
32372
494
25376
24539
7971
15763
5975
19715
31879
28687
29738
23795
20414
2713
4166
19635
7804
1440
9642
17497
11859
5892
16138
24282
15665
6277
21617
25632
9002
12924
6955
26973
16759
7881
3298
19358
25279
6156
27143
14499
28822
18712
15220
14830
8772
20644
5967
30234
2247
11588
11569
7278
7195
9624
23943
11954
11704
195
24633
7489
25693
8991
16010
26976
9484
25392
9280
16846
3413
10966
19460
19869
25304
14534
2827
6463
7174
5690
16374
23012
26151
5352
10487
31492
19617
26929
25910
10807
25975
13468
9587
21837
10000
5250
20460
20123
19258
2315
7041
2963
25454
18521
26134
12696
598
20994
19001
25872
7820
22212
14340
3770
4773
18548
5445
2881
24174
9784
10461
30994
3445
22774
21862
6251
26315
13324
26393
29109
18953
28226
30958
13844
23953
9980
13572
3644
29206
19381
29764
19334
16223
29096
322
12099
24135
30672
611
15440
9225
1299
20293
18155
17082
14011
13659
14020
21271
4901
28632
12119
11137
5309
22223
4730
10310
24874
2456
4402
18722
197
6261
16075
18438
10832
29045
23080
3351
30437
5273
16727
9210
4652
21302
17256
5711
15057
7834
17536
20347
10037
10738
26665
28075
8804
25452
13804
9238
30024
2200
27682
4738
28700
23060
29959
13833
10274
12904
12816
22301
15769
1071
4479
6346
15850
888
8756
3387
30242
32363
6598
29568
18852
10544
210
654
24864
24844
31123
25991
17855
10957
21683
19772
15520
28777
26721
15089
30344
16866
23972
26720
26581
7532
26607
28928
23732
722
6901
8326
7572
22038
21182
2732
14299
21848
25083
20530
16087
9720
31383
13603
6391
15615
1166
27738
11579
9915
22274
15428
1257
29098
1932
24808
13698
16538
17360
20260
9972
18445
26964
15673
2577
15074
20370
5258
4928
27186
30795
12448
19826
7289
6687
3954
6488
24566
14683
22243
11476
23636
17170
21389
9901
26505
24175
21693
2694
25087
26697
2494
14609
7665
19704
17499
14464
22041
13415
17567
24892
30600
13419
29151
17114
17109
32083
9467
21835
2169
13505
26592
19026
1146
29368
20049
4923
7495
5365
19432
28363
2531
23683
11095
4979
9030
2442
2804
18888
25857
26984
629
2872
24864
2818
22007
30965
11092
3420
23110
16182
32594
15464
28248
14495
9846
28700
11802
26109
24748
25031
17008
3639
21648
27557
29302
6786
19156
26289
23053
723
14562
6842
27027
24218
24259
29881
4849
28077
31808
30562
18395
11650
24903
6649
11603
20130
23952
2407
10351
7770
21375
32653
10333
14516
29261
9432
20900
5798
23395
12310
28332
19592
14086
14472
18817
3275
31801
28216
21204
17129
28639
11404
14915
23192
7969
6940
23514
1859
22799
20673
9945
8122
27530
11502
25015
25129
10081
23364
28520
13383
28602
13664
31196
13263
22708
30456
9672
11060
6474
30758
13224
16017
21627
25091
12805
25822
32167
4472
9459
362
23613
7249
18143
12677
29331
11411
18055
8829
19477
9744
9802
973
30370
19000
8354
27024
11059
20018
13807
13116
27070
5932
18294
19084
3162
4335
25513
20158
5539
21174
10153
32767
15968
1600
23049
32548
1635
17700
8917
13722
19633
24677
1234
31136
13027
17990
31752
17075
20428
31327
25982
586
30044
21489
5189
29892
3524
30327
14263
32415
21467
14461
30465
27114
27329
27829
26079
6141
6338
16712
13991
31591
10621
10602
19849
28200
15173
1329
6421
14369
31687
31655
21501
22984
6125
15134
5149
28448
25347
5059
19128
16105
31001
8310
6661
18963
24744
29145
9194
28537
28536
28583
13831
30668
30400
25672
30454
7629
31376
26274
30929
26304
30828
5681
21749
24349
313
23898
13574
3976
10846
11772
27956
15875
6691
27721
3004
20323
13148
31700
433
23808
9292
8938
18684
21169
23748
14374
11170
10488
12171
20032
4165
3961
8962
21030
28654
7089
13576
20302
22793
20452
5660
20042
9137
3671
8129
413
15150
19648
2599
13517
8380
7163
9479
12729
2958
22526
6095
4141
18963
5135
27903
9140
18552
5941
27859
31661
24686
31980
2850
10657
22061
19996
27782
16852
9913
9804
18109
18970
2916
14611
8271
2796
22164
19408
13169
30395
3526
30619
30762
7044
25811
18300
6580
21157
32370
1754
23333
8943
5631
21558
12111
2300
30331
19481
2020
6595
25299
24650
8158
13161
21349
12101
17693
12379
11456
28649
25938
20633
21419
17777
25117
19797
17002
4005
28786
19132
828
2897
1857
7188
13352
22263
8534
3591
30713
12225
22142
11070
30856
31417
4075
12082
24121
28220
23513
6975
24776
28588
9330
8699
21830
31078
19951
23749
23902
7412
1
32673
7133
30083
7791
32579
4722
7831
13568
23913
3249
765
23195
3950
15454
6146
20397
13084
27369
22754
23499
1475
25653
5763
11929
20871
32413
28515
18410
17662
25657
975
11048
26875
349
14935
25079
10404
15459
10366
4629
8139
23211
29622
10884
9083
14047
16011
27628
14544
11388
30238
20539
28172
23694
5077
5518
18920
12219
10065
28756
17704
14722
15520
10416
626
24773
29364
10016
14432
29061
22036
13405
468
31726
21458
28802
2188
9363
22717
17775
15862
18938
28887
22640
5701
9051
31498
16154
31172
15525
17686
31606
24682
29634
9166
866
19375
23324
23428
22323
4767
9568
27842
27551
13357
32386
6459
27355
9161
30209
13568
4352
17461
24172
6135
10163
1172
17957
17290
25861
21444
28005
4252
12696
24045
23936
31169
6660
18522
1386
21934
28536
24456
32634
5614
23461
27517
25711
24023
27607
7771
20401
1469
22373
20789
30937
24165
1356
801
1650
18620
5399
20111
32257
30153
28418
18649
30020
25313
8030
27
26808
26138
311
2884
23389
24322
31797
24685
9149
24464
22976
25962
2603
24922
30055
28319
7241
23305
19587
8213
22989
18954
12567
25806
7812
1159
9211
28757
28055
26518
6714
32408
525
13744
12728
17914
18577
14692
6424
20389
9845
76
11996
10781
12792
16961
7118
10779
16324
18635
27807
11672
27067
27355
28367
5416
29427
28861
21708
26505
11519
29768
25950
21372
17009
4440
14914
979
2716
31358
21014
31180
19103
17909
31093
24989
1951
1752
20322
5456
20051
1683
26858
16849
5062
12952
22533
25158
4952
4691
6590
1438
19974
22879
12179
4717
3820
27130
26655
31991
6408
23478
6902
9098
25153
23154
23505
17682
32680
29065
26859
17895
9981
5961
22698
14057
26997
3239
19074
21199
3002
25904
7959
26044
7988
19267
31649
21267
16519
21630
7317
11661
8029
31350
15234
5513
13157
2987
3128
20899
17052
10427
5424
21895
7371
8661
26408
11016
12368
18545
30734
29036
23586
2366
9503
26378
8976
25180
8272
12568
9289
2508
19693
21950
32033
22565
20352
7278
30738
19336
21748
18552
11521
14037
21754
25049
30403
28959
21420
84
25056
6494
26224
19653
30871
16996
32
11441
4130
6931
18536
19489
31547
26316
623
31153
17886
23082
18105
2276
24145
12273
5196
11962
20322
2625
32017
3205
28656
29712
29054
23800
11180
5847
28530
30593
18721
30858
6240
7641
20722
21966
29360
18393
31331
27751
23138
24975
16667
18927
25845
12177
2089
29390
15495
19857
28228
30054
13885
31538
14167
15758
10213
11034
28477
15426
16602
2120
10696
14232
27176
26024
1033
22262
29169
19429
19147
16259
1552
6527
27233
21723
16891
26909
2978
29191
21486
12836
561
11948
32070
22408
28674
1154
29227
6371
16921
26888
23665
6596
27285
12151
1472
29513
31726
18164
27891
1008
2427
10505
19135
29098
28983
3158
18837
4657
29380
12164
29897
11676
14256
20603
8947
20273
12536
9173
24470
6266
28106
24722
6143
19099
20367
13325
3952
31202
16169
12846
24190
8096
18297
5602
440
32311
14629
26056
15241
2933
15256
20782
19808
21792
28490
22843
19469
5074
1345
6765
4975
24583
28632
19015
7500
15733
4287
15683
16256
28828
2115
2318
5466
21149
2511
5876
6211
5967
22963
15001
11168
14736
22565
8427
8186
473
15749
11092
29020
23318
27622
2868
17661
27060
31177
12686
27167
6395
23083
26370
25143
4766
17859
8187
13390
21648
18821
24873
4007
22810
7786
18482
418
1323
11891
3236
17120
20719
27372
3375
24488
24226
22510
15633
16266
29607
28967
1489
20546
2004
19421
28976
22495
24337
6705
12125
12836
24865
29601
19816
32046
9151
1745
12281
31063
23277
6283
9794
8283
9097
29700
10546
14265
23585
12385
6891
25180
8
28537
6775
30075
14505
31197
16310
5310
6428
23574
21403
22946
14327
26925
22680
2590
7015
18033
30551
8839
11135
25716
9131
14001
7887
2391
3526
28247
5433
20551
13228
8380
21760
16968
9960
21395
24098
27697
23165
8476
18408
5624
3359
18833
7355
32560
9123
29632
10297
17616
1973
24825
27528
21558
24265
6186
11242
3948
11604
19529
20370
1705
14907
498
31927
27419
18059
14418
12006
7907
28012
6467
13980
1634
16464
29880
22292
32435
29552
2908
30302
7544
11897
27766
5041
7642
21890
27408
30722
7883
24130
28248
21717
5774
1408
8518
17748
8058
30922
17791
26014
507
18538
11642
29793
8153
13718
8673
12971
9405
12519
13882
30205
8177
7437
20678
8354
27495
10688
27049
29758
1021
23289
17740
29354
14079
4195
11776
16639
18669
8460
28900
16625
31103
24417
8712
21599
2279
6489
27602
32551
8790
26864
28065
23359
20417
26839
28081
4866
23269
8554
25151
21959
16265
16866
5613
31416
4867
31180
27495
17890
1277
1722
1095
904
23929
19000
20278
28093
7187
31745
16724
4146
7302
19571
16091
7756
25714
2881
30463
28537
32349
9832
14104
5573
1527
5476
30978
17064
18850
1187
12484
28194
9521
21818
7537
29706
31216
17623
8524
7076
26597
20982
25903
15729
11350
12376
19246
31563
18828
25009
29815
16049
23510
18082
24188
29023
16336
15334
23381
9249
28132
6096
26975
6122
12050
7157
11818
23840
3821
12070
6290
32059
12006
29601
28203
25230
24269
3463
18403
29284
7829
11665
16866
3407
27992
13311
25269
27069
2458
32722
32172
31948
1746
15931
5248
25952
23591
20051
31801
3442
20599
3340
18767
30123
26525
7528
18192
24369
13556
233
32321
18369
14103
5192
3848
27646
8427
17514
25098
17416
13280
3983
29904
11857
3955
9933
17775
15532
6648
17341
8552
22439
26262
1652
23501
11291
15507
28596
11941
5889
9169
19300
19346
903
6809
7998
24497
28516
22680
29128
3778
2408
17191
32133
10633
7767
30416
9324
9075
18423
2573
14233
2941
4712
27986
26435
3154
2996
3150
28398
14259
29095
5231
20961
8476
29153
1188
15323
2981
12329
27238
23042
12070
1796
28665
16412
22686
13958
8175
11777
27094
30057
495
18768
31809
6236
29876
8034
11047
17309
26968
892
18690
23242
25555
7497
1065
8949
25791
15239
16043
19190
8286
16128
7550
19973
9949
12732
4825
25736
25050
24181
26590
30505
2853
31819
2428
18476
195
17081
7316
18175
6713
31176
7514
16915
25351
23170
3583
27371
24178
21418
30861
24691
14470
1706
18450
13202
2140
4301
15616
6658
1945
29870
212
17248
25399
14321
7414
1151
2440
2352
22752
19714
6519
568
17283
6954
22290
23158
27622
25068
18757
7596
3345
5447
25832
15080
12585
20692
26877
32695
4060
19615
20530
21398
11264
5173
31662
18345
29814
13310
31497
20144
27733
20685
5532
12598
7748
23990
30972
4619
24360
25632
12481
5877
9216
4634
19340
2467
28428
755
20808
1250
6197
30212
28335
532
29865
26577
31248
23261
8646
16721
13648
4895
30521
4489
28976
32553
25703
1376
30157
6699
15628
4526
21613
8429
14625
918
1656
17601
11268
27414
32197
2743
14035
5084
2583
11023
31256
91
14312
1268
2732
6943
3173
31335
11733
4701
17081
18553
8370
4559
28302
12221
28377
20158
10193
253
7230
6753
9142
25132
9815
28261
24317
24476
8317
10189
15731
7537
28566
25596
17083
15702
26865
13328
18510
19566
22641
6770
21697
19853
12782
1707
30791
13225
29144
17274
21110
24715
28957
2851
9550
31690
12365
13833
6519
13818
24061
14207
6090
19489
7273
23772
23571
24426
19037
717
9493
29982
21333
13552
9679
13007
19171
27550
7166
10967
22353
23560
12259
19713
12167
3717
326
20357
12336
12074
1467
9274
19481
19612
7204
19975
23513
31010
31095
10906
4279
510
21186
1117
3784
12542
26732
166
29272
19534
22205
15919
17547
18576
20384
14277
9028
24878
8616
16196
8262
2799
12370
9410
7066
29897
16778
24075
7472
2807
17520
16974
29129
12363
30043
11797
3859
8644
798
9082
790
14435
6539
15000
29392
32059
30006
30273
27676
17352
25724
20719
3801
16001
22979
5628
20807
16816
29442
23317
25524
10370
6789
11756
30553
4186
9450
18989
27775
24171
4208
27572
11238
17286
18801
4349
12134
12848
6188
16859
32215
31480
7112
11885
7727
776
30358
14926
17898
18681
3991
18445
18095
11244
3390
22749
32560
10454
28022
21645
21330
539
24295
3514
28558
1375
16245
22083
23446
25496
25610
14333
8252
20328
3478
9640
1168
21931
12116
14370
9801
9292
27214
19419
29031
13148
25123
4745
15126
1125
20232
27933
980
27643
28941
8693
9430
6549
18594
17235
27816
20891
14425
23054
28437
3520
29677
10375
3142
30610
24708
6623
29486
29007
18993
12647
8997
8443
4797
3672
12498
12719
15783
22469
21071
16180
32105
9421
30344
8145
9725
13589
27620
96
10400
3446
23080
1703
31958
19698
5016
28134
6830
19949
351
20909
27207
26521
12080
6896
19603
25523
14894
17245
8539
31853
9993
25325
28291
30379
25450
15290
3216
11377
30354
14352
31847
7068
9534
3782
19031
19665
3277
463
8794
9908
31140
27404
31128
346
31954
2916
28973
3584
1264
20503
22060
26365
32331
591
25316
23541
15942
5369
9570
20048
15865
1234
12087
12778
26654
32453
29307
1548
32302
16500
28689
23196
22727
26389
6957
13712
1873
8319
5652
27816
4833
29316
11299
18269
26717
3202
11539
32021
11746
22325
3451
25496
1890
14031
28822
25031
3730
13131
32583
31372
515
31486
12378
1037
28558
29551
26125
24357
24054
19560
1231
17172
14793
18765
26439
29045
2439
13485
21400
26225
11526
12823
21988
22835
11285
25135
9231
8347
22624
3328
28357
20535
18068
18068
17342
8559
25283
16834
25920
31999
9225
17736
15078
14507
9072
30490
16289
23853
6673
29177
4348
2163
2684
22854
932
16391
6490
24345
24871
18383
22865
28814
13052
20726
3624
31839
16068
5418
11052
1976
6095
12808
4306
1350
27106
22740
19869
8850
24887
9838
26178
32653
21446
14209
26891
1131
4035
19710
20601
18869
29544
5321
31021
18074
12788
27314
12040
14727
27124
9638
5522
32503
28865
17702
28568
19083
30538
4857
2586
30301
27667
3358
20068
23698
15998
11269
16250
28462
26442
22783
26297
556
23129
10482
29628
31695
17846
12113
4989
24371
16854
32075
17084
25895
22302
8515
8101
5951
31910
14977
32429
8484
29757
29991
18109
19503
10157
614
22674
22838
27456
24817
1380
11430
18818
2482
22725
210
15433
21693
14797
4747
30451
10882
10100
31729
9711
21830
5183
12680
18303
1748
9503
21903
443
26223
22422
21901
6618
15116
21275
1580
28845
1470
27072
12618
10348
8306
3090
19022
22453
13532
13376
15544
28114
8113
3200
2301
11323
5143
21679
9105
22875
4954
19255
19013
4247
3296
7478
17363
21389
14943
8669
15799
16537
3149
25878
15425
4766
15000
17769
20713
19971
19864
10528
2786
16123
13122
3753
22002
11530
13470
31805
15232
26565
24443
4799
14831
4313
14433
18407
9770
18254
18631
2975
19328
6157
23942
23725
15795
22432
2446
4243
4427
18746
16599
21171
28208
14071
8091
7863
12408
24420
12739
14896
2942
23618
20127
29053
25396
26247
23769
7151
20410
7078
4780
11051
32559
10256
1617
18895
27079
31483
8890
19800
3101
26466
21635
32579
7115
22093
806
370
27193
28242
10862
20946
27058
21596
10286
12603
2237
27051
4658
29079
22442
11036
10358
28487
11371
5547
14230
14786
14501
13366
32646
12159
17927
14980
29315
4374
3291
20869
24649
20386
22746
30939
24967
6761
28741
8602
6032
28607
28977
26188
5203
13607
6435
1081
32397
6844
10972
31205
17981
19919
26230
28377
32089
16082
18352
18598
10431
32372
32391
4392
7534
30222
22022
4616
15862
32574
32094
18820
11309
7889
26425
7283
17188
26343
13132
27011
27993
17489
22059
25030
11054
15166
29538
19053
23962
22295
7617
3027
10527
20903
29175
12733
1276
13695
16227
16608
19107
32665
13094
1443
22893
1083
14717
16423
8845
6942
2382
20868
12611
22224
3584
20054
850
19287
9104
6777
17843
10263
22753
29200
18827
10486
11348
972
17755
8893
30361
107
13942
11969
30661
17278
30393
14788
15012
31088
23158
31254
16976
26308
27313
4351
13826
13470
3983
23394
32553
26245
16139
13722
3513
23911
1003
13992
14022
3037
28914
9872
24913
16305
21592
13312
30050
9374
16247
11571
16727
25686
14023
16405
18811
1994
7692
1448
13786
32165
13518
23718
21076
27161
14090
22376
21745
9183
30247
16646
24180
633
32299
32192
26931
25019
6959
19100
6693
32393
21265
8273
10301
4322
10088
15716
19958
18206
13245
7057
31024
1651
31736
21612
11578
5310
32536
14664
19248
3968
25127
8792
13447
21543
18285
14612
31718
15760
9701
16862
6199
23241
13549
10470
19967
795
16449
22091
17130
27464
30762
3459
28587
8209
4595
23548
25602
2555
19613
23299
4382
24147
11732
18662
3622
8560
2849
15701
2835
7736
13152
32014
26048
30438
19573
12474
5444
13066
14651
785
24447
28368
7101
27205
3315
3974
18345
8350
3797
8537
14593
4193
19300
16991
25364
14071
1146
16091
27565
17227
3169
17084
9866
29556
15591
17510
25871
30100
25781
3253
28220
20480
7900
63
13021
5281
18609
3546
4608
25498
2523
26207
16812
298
8874
25005
12240
724
29867
13552
28538
22462
31097
24099
1609
12376
7125
26835
11813
2365
9977
28710
24365
23902
16426
541
13809
17245
7821
18454
2530
31287
30011
6293
18439
10534
17303
22083
26097
22214
32736
16439
240
23414
20482
6005
32135
21249
17586
15796
15134
20862
19129
12645
12279
24436
18064
2800
355
322
3630
24385
27702
19902
13598
11139
4472
22557
24276
11819
31581
28947
2881
20793
28279
826
4517
2490
23339
3768
15781
20626
866
2077
17053
6264
10368
7818
31031
25922
21914
11544
6973
26723
6628
23415
29099
18098
18280
12758
10505
27501
2558
9219
16375
3197
27256
22484
17418
17403
4637
10949
20694
25332
25177
15074
1356
24937
13490
30440
25415
3994
22270
31143
19809
27781
6099
13482
5899
17833
30528
11802
23261
1039
20410
21984
2858
19083
2905
13834
28888
18752
14661
624
3182
27234
5995
19351
3439
15424
25716
22741
21479
15489
3575
28086
12355
26797
3821
32415
21861
14320
4710
6321
12536
25115
11899
240
7681
6124
19332
20133
9655
4239
2955
1281
17045
4196
17920
28674
22957
19715
27565
18587
24127
21118
26349
25615
21386
19942
19481
29342
8418
24848
28228
4451
27651
25496
11304
13181
28069
13607
2399
9837
29777
1266
26583
13759
2418
12931
30080
12781
27823
11196
8775
24192
22904
27673
12872
2936
19167
309
16447
24046
12714
14480
17472
3064
20646
23183
29353
4045
13118
5828
1876
5673
29259
1392
20753
11251
15150
25158
4435
28446
19741
25714
1065
18125
24762
22490
9328
26298
11754
23460
72
8664
996
27128
12740
20535
10120
3335
20454
19496
27635
25932
27594
19107
14672
25873
28193
4837
30192
25910
26849
22877
1438
30510
12603
16841
21292
6218
21966
19613
6226
10810
17690
13220
22457
21713
14391
31209
15698
13576
13766
13016
22764
32070
16681
17569
26374
27358
2543
10717
7137
13529
12178
30324
9434
22519
28005
9150
21495
25584
17096
26600
10688
11775
27550
7322
12624
3233
15617
30934
25259
155
14900
8740
32594
28474
30168
22764
7445
20958
4963
17443
21289
32442
31951
8233
15738
28373
8335
21746
19010
9556
19399
14181
1499
7164
29884
31233
22738
22771
2442
4294
27708
4550
5909
3155
10317
32688
23617
12364
294
18714
7526
18686
1519
9310
19454
1094
26150
6096
22177
20910
24886
31487
13620
3546
21580
7480
1373
32035
23142
13644
19257
22913
12973
32403
10834
30638
24836
10033
10955
18312
15585
29592
24286
13240
25179
15183
31881
9361
14725
8945
16259
10810
2043
14200
10101
4624
16570
20155
26215
27462
1589
20790
4984
16078
4773
20746
30163
32381
31392
4676
31710
28522
32237
26722
12981
5015
23191
3348
20950
22227
22080
21567
12062
734
29112
24903
12020
16079
31438
16782
1220
7603
28774
4152
22447
119
27852
1842
8064
20232
2632
8562
19938
19640
30195
12928
6097
3044
9416
5941
29519
17619
24318
25538
7512
5090
5526
13045
15383
25310
13872
31416
29018
434
28962
2523
28996
12866
9675
4883
28993
11158
26917
26946
831
22587
23194
20728
12572
21478
15129
2874
27738
27739
31336
32131
9754
10637
11964
6921
9032
8455
10887
29505
24851
6282
9361
2469
7584
15352
9802
23221
22783
27248
13407
12860
25182
24251
25995
14036
17788
14055
23472
20140
11361
7985
21286
16777
2381
9257
15442
15371
7406
28688
4987
6194
11477
30597
27354
3872
32299
22881
23280
14369
26784
30175
19741
30952
5541
256
21613
19228
16347
5165
2229
31507
1739
798
6111
17373
10967
30716
386
27780
17776
6850
12470
19090
20874
18409
26662
19924
6221
6724
13414
31070
22030
19497
22663
28111
11133
13265
26857
26838
12064
24321
2129
24053
13056
4586
31547
3205
4770
11599
1394
14075
7480
16357
17885
24425
28697
18175
1180
11592
21871
25194
10068
24692
31535
32662
16326
30072
5711
16375
26791
24332
17971
7851
25771
30940
19560
6493
13284
6027
27796
24681
4938
23032
2221
21057
6811
8128
19818
17935
27749
18692
759
27036
11360
9068
21997
13936
12290
10347
11393
16955
7502
28869
23548
28275
27629
335
21099
15167
31871
21750
2199
16788
14899
18435
20535
6301
31381
18590
21093
10849
4008
28816
21071
15264
16437
27725
2095
11005
6754
21297
10365
11107
21638
21770
27490
32161
12348
24791
10353
27991
5047
10447
23186
5398
19797
10149
8254
11715
13686
2827
3058
27964
8846
10101
22749
14398
25465
22815
22492
11143
13327
30289
10409
16439
24569
14050
4944
3964
1987
13563
5602
31086
15409
27421
31340
13112
25559
21349
2346
121
7908
3087
11001
7146
7487
9530
4107
4928
6869
31722
11998
6740
30257
18003
12143
6529
5453
13653
5803
31565
3239
20291
17958
32076
15512
26600
9231
2114
22753
22988
32612
21384
3719
25779
1122
22449
15330
21863
21824
21612
28400
23223
6940
28076
7663
11200
9014
9223
20010
25451
23644
11356
7443
13623
18597
27321
24466
24377
14178
5244
19357
32097
23378
15800
24585
8702
4373
21978
32415
22404
27107
22412
27763
28557
20094
12249
11377
17183
20069
8338
26681
18477
28491
8689
23341
8288
4295
1917
29639
1303
14413
27693
7985
13484
22877
10704
29455
17657
28154
24492
10655
32538
29534
19558
9221
10357
7916
32546
26336
23800
24422
9194
17697
24226
32352
28500
11549
32325
30197
27999
19425
394
20152
14239
31429
10805
6637
22170
11076
17066
23546
21105
17674
21424
31512
14019
10831
26486
1614
3534
22116
32212
26784
5847
19083
5586
23684
15308
15628
28782
13205
2601
16005
28826
18059
13080
18818
15493
8555
22236
28749
1051
16379
8047
7432
4303
28281
28266
6136
664
8844
8742
18468
24121
24699
13857
25119
20678
157
17059
31010
19556
26897
8097
9821
25168
4014
12001
14991
32291
22589
4447
11733
26196
8934
19440
16831
9726
7913
7973
2473
17379
13711
5746
19785
27314
8543
4751
31108
26245
1428
21279
4998
7086
6607
17296
25105
23219
15882
3906
16661
13719
2765
16619
21378
14939
12708
28986
1882
14021
16848
18618
8202
26976
9533
22778
15098
17348
27060
4331
611
8727
10834
20617
609
7124
11577
24509
21577
20939
2437
19586
5180
23914
27010
29768
21756
17722
15644
15509
1535
6828
28822
16114
32706
9494
31615
27653
10848
15865
23522
27131
29283
17029
20926
12841
32730
15967
28341
12786
25516
13217
19976
29419
12075
9251
2243
3645
10732
16377
14901
28491
6615
23868
10403
10645
20858
7438
26174
26076
30882
25048
32337
10888
17197
31446
703
838
2586
10454
3501
19445
31458
24636
2940
8899
20747
27722
24826
17811
19962
22430
16857
24227
25353
15868
19296
1131
16857
27470
14176
28872
18154
27625
15210
13145
29288
29202
26687
25385
25416
13505
7560
5007
2196
11173
26055
4179
32003
19559
20110
9490
16589
11571
4335
29668
17853
12405
7731
7995
392
7648
25806
19215
31325
19637
24979
14648
445
17218
20773
1307
4493
28585
5550
17032
32618
24034
9427
995
31292
3843
4583
2946
1550
21951
2142
11351
27165
23597
19077
7631
17710
14027
2161
18169
15397
10435
9013
17643
30420
32109
12377
12386
24337
6932
20871
26280
22027
13053
13446
22971
21470
12965
20333
11179
9572
23115
11536
6468
15438
7342
23999
30701
17780
11288
24624
19152
31082
22683
5817
13115
23380
9115
7362
16454
23035
11405
4219
25015
1824
23293
9418
546
22800
27094
3976
3157
10872
14302
10220
24563
27771
384
18759
31070
16130
26574
19954
20698
25427
26822
13957
13552
15590
11476
20810
9233
21619
19865
30194
27004
4432
31211
10630
354
7418
6941
16032
2119
9458
24448
17882
14763
28362
20009
25223
16874
29311
18421
22433
26465
28425
6603
24835
20178
11569
1057
11480
24329
25763
23490
2388
1984
30532
10190
6818
28609
30405
24834
11549
20042
10361
13881
30658
29621
31587
31283
25317
17752
9364
7830
10020
12459
21940
24626
22682
22952
16862
2185
12885
2168
25777
26767
13833
6731
16291
28846
29701
31112
409
2573
3943
24870
19637
5394
21132
28505
3695
12582
26571
19314
7656
12728
2659
25344
5242
25732
17329
572
5268
3349
2215
19364
29381
14728
19321
21221
29974
21652
21913
24318
7325
6343
32230
6051
11599
18706
3873
8671
26646
21128
29344
28670
11044
15203
29510
18602
27782
840
11442
18772
17148
22732
31415
26582
28936
18486
32012
14166
9797
18310
837
29805
27386
17335
29954
7304
27119
4930
2663
5263
3199
29155
26828
8901
7407
27039
30645
16368
25342
19718
516
953
28349
9910
30573
12373
1441
16928
25131
8549
26071
12687
25841
8731
21463
30054
21796
28319
9788
10408
17735
25777
17363
22206
5047
10127
18418
24181
20888
15129
16651
1607
5647
23091
15744
9691
4529
3179
6841
2255
30268
16092
19061
28340
1669
25681
605
19546
25266
24750
2527
12878
25769
17292
6713
31906
8393
5668
1236
12268
24279
16494
5076
10129
7995
18826
22765
31044
108
30558
24184
12745
6313
4481
28358
20223
6122
19287
26036
6941
17942
6526
16511
19772
12662
30313
24538
4886
8554
23115
12350
26637
8538
27191
11394
23919
14320
8837
28331
14328
7812
119
17157
1688
3288
28445
29043
5751
27910
31605
12547
26679
2998
5079
31173
2681
6292
22160
10462
32162
2818
13262
10968
1247
16137
26300
8252
2150
24214
2541
12387
27903
27363
19198
32393
1219
31283
375
29987
32036
32194
11507
23410
28206
9212
7809
26969
28429
10989
20809
19820
21454
14073
13939
22857
30826
461
30788
18475
15616
30101
30858
21436
5986
2159
3643
2859
24019
27680
18009
8319
12047
26119
11288
8235
7052
25423
23619
18146
29696
7528
26588
27052
24867
25271
18947
9274
10422
22412
29976
16758
17348
17237
15140
4703
10792
15890
5493
10004
30543
21001
3977
7726
19519
26043
22830
32339
4824
534
17382
19977
1626
18668
12176
24007
9512
12196
10821
30802
28620
21040
18305
27975
6458
29247
29315
10739
3161
30387
16374
21611
27327
32597
720
7385
26812
24775
10363
14613
10907
7355
8243
15989
1828
10851
20911
19941
21350
9000
26371
17978
7091
10143
28101
28867
28139
4281
4974
23585
6398
16698
260
22873
1452
11116
6646
20264
3215
24340
8776
22423
27996
13221
4079
23502
19302
25268
2943
8749
21347
9900
25603
665
28275
12739
31276
13588
9822
4396
26287
28305
7965
20622
24552
16390
18845
29110
8899
27586
13247
3209
25308
9473
6563
11068
1509
28094
7206
14023
11849
1736
16553
1942
22798
9752
7701
28290
4864
26466
23323
18945
2316
10986
25025
31641
30698
22169
27674
20891
16127
11600
20052
14605
6785
12412
8697
19432
18652
16363
13934
3972
8020
27614
27328
30544
20972
11615
21663
32710
29319
30932
22699
30110
27470
24277
6127
15682
30801
12091
22187
11907
25713
21113
16471
22666
3453
19760
11492
16913
29595
8701
19269
31187
22506
1430
21806
2880
11877
6421
12316
11126
26379
7827
8085
12909
21053
23545
27825
13425
9319
8211
9945
20438
23778
7654
25039
743
5145
4676
5358
7711
29931
26525
32692
9884
25937
19480
14205
15568
8769
28130
17041
23418
21202
20934
25697
724
22176
30719
32526
9230
21362
17226
11819
24828
17946
22079
32452
29708
6813
23264
26783
21626
3988
26739
27841
27335
26834
31629
32052
26983
13639
13424
4616
7610
11300
20374
3992
19773
25920
3214
25103
29442
28859
30471
29226
29021
4577
17963
22335
3041
8529
17966
27262
15754
23134
38
8055
16188
6069
5149
17884
21100
17216
31076
6280
9245
32075
6443
15809
23567
16102
30543
7354
11315
31626
23923
11356
29793
1535
15442
8006
20045
15484
14163
4371
5560
16401
3679
6363
16611
15170
23023
25852
7497
31733
19817
17434
17549
25742
29612
16228
23986
30808
6633
10777
32394
1831
23734
19019
16753
15419
2909
32484
25403
5224
21882
1766
32106
32628
30405
19959
12452
12481
21804
25116
21349
25387
17701
30405
30962
5172
26690
6410
25742
31327
23045
31028
15599
15065
7927
28031
5107
8798
2548
4638
5776
25947
3017
10880
30985
11088
8449
10194
29544
27001
20987
30917
25128
20653
31040
1681
24370
21126
17428
826
26379
450
8523
27921
24139
20969
4702
27519
2897
31280
4798
26878
22581
32670
2408
3688
28926
10861
30906
884
4629
27315
24709
6269
6906
28738
1635
15750
14646
31180
6219
27260
16273
8011
23906
23738
32132
7071
26900
19923
10993
22905
1124
1931
15378
18297
16768
31014
12720
14227
28057
12774
14741
19895
21745
25807
13123
16817
3382
22957
27878
30798
14862
28504
11400
14272
32755
4919
22916
31555
6465
20995
23101
10753
16781
26061
31247
13619
27449
25923
27526
24970
29509
30767
15054
16333
18280
13632
17515
6339
12896
3341
1066
20563
17030
26199
20568
1002
32421
20366
21809
26653
23820
27031
25755
10640
12514
28621
28181
21782
442
326
13034
2841
359
3927
2730
573
5138
5466
19418
7488
7818
32174
11499
6181
3802
22528
12649
4241
21281
17609
30581
28021
12958
14872
31093
27117
15627
1426
6154
18280
17452
12215
67
27402
5031
9319
16912
27214
23318
17572
11001
19184
32347
17817
14607
31242
16435
219
14883
15997
31503
6640
27447
10898
23583
7438
11314
20705
21679
31524
7128
16498
13750
1823
12280
3107
10668
22630
7655
24905
157
13990
10030
29082
636
29397
7808
13387
15289
20849
14575
17013
30741
27145
32607
21181
24502
8191
29754
6196
27254
6284
16741
2172
7553
20996
627
19757
18207
16476
32537
25718
11470
4841
27106
13576
24468
1898
30500
6447
10899
28233
24627
9538
20446
17438
9940
11582
1931
1141
11509
19886
29962
6609
29851
31694
1717
3825
7195
24815
29607
25937
27277
1309
19410
13556
126
3328
20044
31073
229
3840
31210
12268
18008
17324
3088
11062
30848
5469
25031
16375
5579
21270
28432
12027
17760
2735
16505
28779
1368
20019
15085
17486
2347
26758
3536
11343
23656
17739
2892
12993
7594
4100
23269
8928
26055
20091
14932
5722
12106
31330
16530
31758
21028
24118
22323
31763
26526
14697
24053
23804
10898
28607
11417
20058
10203
18425
26353
15491
21258
32177
22331
4498
21338
10885
17069
1967
7399
19063
27729
28817
10778
24468
14867
5696
26984
30932
12313
6432
13116
8258
13906
28459
23601
29788
23634
26750
14213
28861
3933
23831
7627
10745
30401
26589
19423
201
27241
21216
11807
4200
14256
6371
27608
23612
10355
8216
18175
185
106
4650
9250
27523
25784
30080
20125
24274
25024
27585
19729
17435
827
14739
23058
4589
12935
31657
21792
18713
20290
11516
16345
19733
13848
25176
7020
7074
10713
24347
14929
10157
21199
26426
23096
23411
18510
29316
6719
1513
22668
9515
8551
14171
691
12672
2377
20819
22325
1790
24837
19900
12896
29322
23676
327
1330
5113
959
23822
8302
19667
30406
29560
13807
3158
6502
17500
1085
7358
15229
5225
24670
21956
4464
21445
4591
22629
4311
22516
13683
14308
1398
27900
6378
13330
29296
454
18086
26829
5047
29640
12890
5831
5063
15841
15476
27017
18836
3716
32684
24247
4800
2329
7389
12949
7698
13984
30996
30154
14884
27032
8679
12388
31835
6431
19465
13853
21532
30554
8219
4060
24125
18199
18884
7807
3258
13489
32003
23256
30378
13876
26052
22261
25713
14018
13746
25765
27702
4406
17485
1335
12952
7686
30012
1669
9116
22638
22756
28978
14314
24267
15161
11311
6714
21061
5332
31108
16649
22960
4679
12365
20624
19380
9645
22530
22774
17452
22149
2300
17605
10445
17344
13877
2971
24840
3096
17488
32034
17713
4260
4569
14401
2272
17833
21709
8852
9368
1460
29021
29722
678
6885
11759
11054
29516
29326
26726
31929
11295
12029
12451
5285
22190
2965
27723
14997
29284
18212
26571
11987
3504
2160
30874
21385
6754
28947
5310
30261
24921
21129
914
19799
22875
14728
3014
32364
25924
17295
17063
16416
15715
29378
24737
27840
2081
29685
16130
6382
26083
2823
25344
664
29746
6513
14846
27691
3098
29470
27403
14339
16335
30078
25004
22567
23447
5334
30171
26163
28131
21466
21839
30613
6847
22909
4606
508
15981
6408
31201
25614
9037
16489
7159
26202
20225
24782
7820
18573
10957
1395
19131
12008
2884
11448
28978
1009
23329
22391
3125
8809
28019
8852
17126
23423
15101
7894
12739
11587
3804
23285
7280
15709
26218
21492
27831
27647
2147
16304
8909
4888
5958
26042
6870
17867
8958
31330
19372
9247
32194
12308
25308
5880
22586
29416
25074
2118
26851
628
8439
27516
8884
24037
23095
10820
16130
13902
9032
18800
7841
23359
30535
23092
17996
21914
13925
2963
31302
9378
16034
28696
15682
20821
473
19398
13953
19452
15613
32337
17210
18432
13474
23951
14142
2559
6847
5161
4316
23583
434
22678
9218
7330
132
4170
166
6843
27759
13098
6244
13728
19357
836
26473
29153
25907
27837
9359
30968
4750
8714
15561
14113
13772
18531
7618
2924
31119
18549
5057
15888
15869
5976
16080
12546
22284
3008
25373
32454
32764
4983
6304
31622
10277
23819
7678
19553
31986
18884
21166
2309
21806
15320
7258
7040
24958
5346
15240
21075
17967
30865
21369
22728
562
10141
10577
2438
18277
1792
24185
20323
10261
10082
10818
2169
15808
24789
22219
8060
11551
22210
1316
20299
11107
30755
31923
17604
26816
20467
2519
4829
1064
14819
12236
11504
27737
20303
12751
23383
21017
8304
14210
24121
4032
3539
4241
12963
10744
22026
23446
11739
19905
11169
5178
25329
28600
26452
19613
1686
28824
10878
5625
17713
27393
1493
23682
16176
3704
30805
14992
8092
11184
23162
1791
241
22023
2482
8918
5164
15956
26642
18984
15909
10976
1096
27704
7967
12466
32209
20192
14494
4624
31084
308
9593
26178
14798
24930
6191
28313
12439
14813
4990
15536
7045
14778
4402
3570
487
19546
2876
92
9813
5193
6915
1156
16543
3430
8959
12507
5123
6724
13955
23087
13731
209
13274
5492
5942
6709
17558
1731
10749
14845
14373
8611
11768
4217
27813
16008
347
3170
14841
10649
1084
32704
4893
3766
25742
3083
20918
26298
26194
6545
24558
18941
31756
24087
13438
19486
17268
14019
21772
17663
14959
22842
21176
11024
16445
8197
29938
25297
14068
30265
1678
10130
22829
9815
31002
29053
6141
4209
21103
31959
5415
2958
6278
22147
3471
30288
12173
4552
18418
15060
24122
2900
23509
18906
27744
23936
25787
20774
4032
27093
30107
12582
6945
7119
24721
30164
9123
18658
9940
22238
4176
20923
9448
772
18420
26824
20245
15042
28974
8698
4631
32304
30920
12234
11287
21030
21060
29050
4570
24739
9911
13981
13369
30832
26075
23513
14801
12288
27999
9452
251
12187
14977
30701
32255
26300
23007
24020
18820
12471
2442
27709
29515
11422
16733
31849
27933
19558
5517
21382
8706
24390
10112
8240
3508
7008
6371
28983
26707
27299
13559
2467
14938
32496
17451
13813
27858
29051
15856
1712
10694
29045
19657
5144
8438
17896
22689
12090
1231
9954
2914
9260
21403
12757
963
29078
16630
32062
10850
6513
21377
3973
23826
28431
2778
15652
25718
1628
8651
12812
26575
10339
16577
10820
21266
28948
13440
7636
25406
31300
32022
25569
19692
14325
18701
4377
12583
27096
12517
5458
21631
17936
18114
23661
19545
16697
20065
30337
5769
6057
12624
2870
20259
31733
863
7278
30861
3767
11090
23595
2521
911
984
6573
14162
5992
2241
2522
10581
15357
25707
28387
5475
7323
29053
25381
28019
24616
1240
19277
6541
19556
5067
13248
28564
11887
2694
7482
23908
11404
26322
31924
31005
25892
27391
29324
27581
32526
32029
31968
27125
3853
1647
10554
12085
30362
26396
2419
12042
8164
21032
28625
28841
15126
9635
13939
18636
24792
4896
5615
26044
15896
11369
20281
25007
11530
10353
11463
20309
24429
29834
7922
29870
32273
26072
30624
10270
24982
7942
2336
963
18550
32311
11349
25350
11846
10048
29207
24176
10296
32276
982
14784
27365
9599
30592
30778
23881
22040
6821
2881
23823
8561
30938
20264
6159
30096
8539
19014
7958
29859
28660
25160
5605
29935
23841
31691
9340
15626
6516
14379
3480
20554
30775
17813
3706
24445
27987
30052
27626
12762
8816
3242
20604
6712
26462
780
24594
19582
435
9172
9378
10075
8118
17729
14393
17975
29308
2593
20544
28521
13137
24994
3583
12970
6234
14694
14431
19401
31864
5589
17140
7585
15982
1207
17978
22857
6983
7682
19743
9610
2034
1776
7106
23190
20016
11093
21371
9718
28848
8496
6171
10949
6775
27264
6773
29212
7558
2393
11293
16333
17591
6710
16495
8020
31977
26769
32467
15626
6492
12721
19008
24476
14174
2500
25087
5564
1320
5933
32690
27670
28675
6175
5780
16262
32175
26219
6146
32648
21764
28054
24891
29936
14810
18223
13924
24795
39
29023
28367
2021
14951
21442
13948
32156
10049
1653
2272
17461
8807
3953
18662
5246
7358
2583
6708
25108
24511
27915
24495
28630
8221
25158
833
2201
9127
25959
27354
12318
32369
7242
16052
24641
11054
7644
25820
9842
737
6958
21998
13673
22453
7880
12063
16150
14120
22079
9601
10967
5999
6666
16003
31726
29718
10129
29111
31794
7656
16775
6105
32516
16910
10874
19212
20613
27771
11688
7270
9479
2439
10773
17071
7361
10969
21466
9830
12230
5003
8128
28421
5688
20361
3341
30087
184
23098
16798
16422
13602
6243
11318
27497
25463
10568
8470
9310
18203
21268
9422
6180
26689
3706
22866
31917
4515
30109
16720
5826
20086
6701
19905
24904
1181
1747
27071
14785
32541
28624
30870
13846
31953
22241
31261
1939
5983
9829
18759
3891
5738
1985
10485
1822
777
30980
4878
25968
3960
26055
32210
23612
9998
18264
2923
6865
14959
4119
22469
13371
7171
26143
22688
20237
167
28969
996
606
30882
16302
12340
1042
29914
1868
25541
3163
11336
17515
1393
4734
30121
32032
9223
18139
26998
11090
18406
28200
24599
4635
714
509
8276
624
12773
14997
21004
21253
9778
26067
2345
3947
9990
12163
31955
8827
744
16099
16100
32760
8866
19809
1948
4464
21144
6823
27031
27235
13913
25045
507
1960
6772
13325
30966
7691
6285
23605
26216
15419
16815
12280
28380
17380
17124
29198
11453
32280
14339
10686
14791
20211
8394
5025
27835
19583
11308
4008
8023
15573
19948
12384
4229
16261
21099
20341
14035
9784
25791
19318
5923
16532
15108
21207
29603
8032
23799
24636
26368
4841
14529
19445
16343
26788
31248
5828
12397
11284
22380
20967
9887
28398
18889
18514
24604
23676
25176
19773
3793
7231
12963
21470
8613
18392
31449
13432
1383
30761
4710
17044
29188
11703
16071
6286
6142
6226
27805
15444
16921
505
32512
363
16216
24824
10517
19507
10535
21843
1507
6763
23002
5479
25186
29943
10070
3535
28117
12001
13838
14469
17498
5535
30770
28489
1984
30356
11554
15687
31384
7641
29993
29684
20879
12860
19816
1849
12027
4745
2064
29907
31923
6153
5333
15098
6180
25161
11679
8768
1185
4124
15234
24253
6139
2531
2032
19561
21842
16652
3629
19145
27178
2265
260
31694
449
27747
22713
27130
25249
9694
32062
22980
2673
6942
24745
19006
15376
858
7654
26869
13285
6705
28585
32024
30320
1002
5031
3549
27941
18176
28166
18465
17787
32478
274
26447
17984
11239
3377
9602
3887
17593
27929
30446
30404
27827
576
5244
31311
29621
17812
6580
29768
806
20589
14816
3298
7228
29120
20590
6370
19319
9109
20631
23218
13679
29883
22590
22961
24784
15034
27163
17358
24995
8201
4888
3413
18895
25217
32507
17160
735
22034
16454
17010
29957
32693
20315
19576
8031
23713
1252
9777
1402
10690
4978
15352
5653
16231
17508
31423
28455
21819
31755
21414
8995
17014
18700
7628
25466
3668
773
19044
13409
25799
15475
7948
3542
17256
3027
27227
3549
29364
28679
26297
8208
8053
21500
16244
15958
10366
30090
27664
12019
29851
13211
21982
25537
25800
1936
31696
24252
13985
11744
2187
16324
27418
16898
3774
24479
1392
20878
24498
7230
13920
10911
12323
14913
18326
27003
32591
32701
23400
2422
29772
27708
21700
32019
9630
12805
31591
4461
32521
21662
12368
8405
14756
4240
18037
22717
6703
28778
21428
5845
27046
13064
3596
8563
23574
26389
2317
16184
22960
24527
26509
29169
24092
26378
21917
22715
25104
20600
24252
32107
800
21031
29770
4396
24024
17995
14399
23658
19976
14910
24604
26095
2399
28357
17442
5452
18491
11669
28354
21627
28864
6166
16470
29890
30760
21350
31502
23258
28249
13729
19245
13905
26557
22624
8053
18477
14670
13439
26079
31954
15088
11044
144
23846
1028
8188
1801
6898
22074
2248
10142
15500
10918
5657
15657
11187
5399
22871
27903
11194
29092
3080
24867
31465
4231
23631
29370
8992
21551
25267
22719
15805
30096
9506
12024
11968
25278
19254
26921
6957
27578
26551
1671
7858
12683
31584
6511
1162
2961
5350
30552
1953
22295
12854
9479
24057
25895
18174
21250
4940
31394
3184
32326
30451
5776
32323
2364
8454
29364
10490
24810
21189
29283
11624
614
13878
29591
7540
29841
16656
13888
5658
2561
16088
19930
15026
32575
17994
20804
30069
18739
7674
15568
8509
10204
21563
14999
140
20805
3648
17679
9680
18612
21121
22495
12517
13860
21088
8945
1500
20981
30477
29641
24827
14563
13735
18710
27652
15413
28324
17543
14523
566
23666
28384
17570
2793
21854
589
27143
27897
25782
12022
25152
24303
32554
3539
15670
24743
22136
13762
29216
6405
4169
9943
28049
15332
25685
32755
16565
3151
26062
12952
21975
20212
31740
10491
20007
16597
20005
4699
27835
26177
9903
18834
13011
17923
4488
2538
4449
25817
14790
26161
21449
5416
19083
13840
10213
28397
22316
28056
26444
1015
3730
4894
1492
9300
15840
18249
18773
18185
26197
4969
11952
27398
27253
29194
8208
1112
5731
17866
24688
18849
1938
12903
20574
30149
14236
3100
28670
20967
11890
20782
16977
7060
8118
25026
30135
6973
30565
27121
30131
32491
6585
12830
18927
19758
23118
18823
26240
1110
28291
16155
20842
14822
24355
23692
16743
20038
15685
6052
6628
2232
7792
11740
26701
12173
9219
7723
18058
28825
4564
29980
18122
11748
14360
7971
19583
674
13443
13617
30377
5222
20144
30598
32600
1170
29634
27335
13420
5650
5452
19280
28064
23370
28526
19147
9159
76
31297
19457
3413
1359
2677
4337
25632
32093
25913
3871
14440
9547
19291
24111
29973
26350
16305
29874
31041
7308
3255
10048
27382
10385
19833
7623
10041
13699
32180
13090
29511
12856
21816
29422
21278
24135
29328
10649
10559
31420
6373
15035
947
29456
1312
12714
14924
4696
7759
16457
16941
6332
1354
8224
23180
17707
18326
2482
30391
10061
14729
13834
2389
19897
15279
7832
5359
9321
28525
28475
9647
5994
7908
24223
6247
19928
23576
24777
21204
4362
6994
26608
20773
13322
19651
10127
11447
3912
14697
3512
35
25743
10039
26283
19578
16183
2160
24231
17359
9373
14932
22016
7414
10448
5886
15218
21644
15245
24205
24757
32567
16750
15234
32081
4399
19806
26217
21428
16126
3664
11452
11394
23428
17713
24324
7212
22333
22298
27201
18116
17607
20427
8332
5648
1694
26709
29947
5597
2603
26134
11973
27285
13309
26090
22438
5652
24918
26528
27013
32440
8937
11691
32597
27831
5346
17690
3385
29110
30759
18891
25579
28311
28893
15067
862
11154
3631
29536
162
13959
32586
7003
777
31634
6572
9448
7304
19425
5279
10680
351
18114
7680
15553
25340
22784
11333
1076
29213
18032
12735
12208
19510
29127
5403
7861
22546
22190
4911
19291
21948
27161
28148
19780
9632
21716
3278
2255
2798
15454
29204
24206
27967
3579
10700
28411
23931
5
5558
18022
25082
15747
14989
1330
19945
28669
29321
22593
10224
7054
10536
21933
25617
314
1070
4537
29908
31618
7658
7
30625
2358
13500
29963
109
31371
29652
23487
18585
29805
14652
29592
17686
15894
32025
10937
26574
3296
15918
26728
4159
16983
6049
23486
28521
20627
25602
8866
25323
14533
4489
23800
2921
22543
2975
21
8752
30361
23968
32374
21021
19681
29408
6066
6075
29522
6124
25774
27819
28697
8466
29712
16969
22324
23075
2806
3980
12491
9079
24039
30254
6596
24626
22026
17165
21138
6598
13973
19922
12365
31929
13961
31696
9224
4777
25245
27183
19551
23949
23415
841
17743
14397
17442
852
10827
8245
29885
12354
32395
19605
17776
18661
28584
13933
1445
28503
9830
30264
29556
4761
6608
6822
18270
7034
6283
23711
10303
24762
31844
21636
7038
9840
15403
5304
17799
11433
20420
19807
3707
4434
6779
23909
32549
2392
20376
29890
27185
13581
1331
11261
13720
5070
26954
13551
22623
23267
19729
2250
24705
13222
31369
14170
5418
9447
2132
15242
2341
11152
8136
31017
12696
18053
26946
18414
21743
31182
4797
12218
26134
3320
9379
14878
8171
2232
6370
32029
29939
14290
26691
17203
10059
12089
504
29846
7394
8568
24947
9659
17382
336
13951
28444
7036
14243
21385
29241
13492
28817
22078
12252
16316
17376
15964
5026
31060
15521
26305
22711
3201
1040
5321
11233
15494
13245
4566
11968
27408
4841
816
16468
20145
17203
29712
11967
28047
8308
17911
13900
12382
22503
31556
29105
8587
31373
4102
8081
11450
3791
21775
24901
29299
25958
330
22236
1048
13688
27982
15456
7195
17411
11570
27739
9837
6783
31907
27546
11578
4287
12597
25137
32211
11801
9975
9664
6636
9670
23370
14580
18695
29323
10739
25680
24112
21913
24686
19501
1515
15539
7045
10239
12395
21390
8994
32475
27652
17533
14434
3382
17379
27726
2538
14320
30461
1390
17022
12433
6981
3668
26064
11986
290
28445
28565
25439
27424
8820
26846
2011
28134
26037
26534
12324
3176
13394
11431
16601
25693
4725
21363
12058
32500
27367
18623
28047
6594
1072
31490
10924
31743
20736
31039
17459
11251
8141
29726
5114
6315
28094
21826
31214
3056
24776
24791
18264
30842
11543
5482
28511
30816
27055
15870
8398
4051
6227
27228
11544
2060
25765
16810
24730
30339
24208
25407
12319
17506
13283
18870
24489
19001
11582
25665
1647
21491
29234
23104
5154
8457
22692
11539
15220
13557
17266
11308
26075
3050
21594
28520
5266
1986
29975
19359
21218
10552
31692
30074
7583
26967
28326
18052
25589
18226
10941
22660
1381
24022
29244
27403
28938
5757
9666
18249
18977
19204
11528
5668
13768
27807
21187
23692
13830
716
6092
4616
13836
5765
16766
1429
11194
23994
10079
1201
29285
15102
1027
30899
17112
25985
19758
28253
27800
19774
22329
15284
13421
3957
18359
14351
31773
3932
7000
14959
6011
1810
17165
21006
29344
9428
7276
27963
28025
2163
18775
25188
4226
13573
10968
3957
32464
19163
848
865
18773
7604
977
26109
1888
31536
18632
4629
22627
13704
2527
5562
13049
18043
289
3289
9511
7820
19807
2578
27106
29802
21459
454
30674
10416
25860
27506
27990
4558
10473
3388
32200
17479
5713
9676
17410
11038
31107
26717
7713
1162
20001
32532
30345
5873
28754
1936
7721
12820
26911
15810
7168
20616
23070
18687
5599
28005
19534
24403
13937
25154
26179
13081
13434
24928
19843
24264
24412
24613
14127
17168
21727
1484
27622
2854
17457
29276
17126
19292
25132
29142
22644
28148
29400
28595
895
25142
3121
16013
20096
16832
30250
2077
30628
24606
19441
31077
15405
30874
17013
32558
29461
28245
14374
9909
15093
21143
29179
30370
16166
9572
10682
21561
22566
1104
20852
18644
2877
15252
12366
15249
11616
28000
15496
29512
11605
17267
22199
29888
18712
24298
19029
4386
12926
31317
14204
14509
26392
29200
18927
26028
16218
9937
24922
13221
30972
28285
3803
30420
16545
1856
3008
26583
32439
16604
3475
14251
27550
20545
6996
8151
12044
351
18437
17127
3760
15160
30316
28956
28693
2617
2580
9570
12746
9418
10645
20098
8128
7716
30229
14489
1779
15202
23567
10953
11340
7899
24915
3374
10950
15792
5198
11028
31953
21409
140
25959
13556
18725
19579
26986
10677
16313
25714
16300
6333
14456
22257
18233
1336
2284
17963
28941
21883
4644
4801
20430
29673
28166
9169
20410
30487
1767
28719
10974
5422
19801
11506
28040
26257
68
17715
7936
15296
15161
32529
25203
2685
16130
29176
9264
13869
10366
12836
10007
14208
2476
21856
1613
26452
6405
13588
32565
28887
27407
4478
6044
12012
27183
31296
29748
30929
190
8219
29508
8702
10592
29690
24477
12624
22929
14130
20432
4966
31361
24840
1438
19532
25634
32116
25008
27734
3711
26916
16265
19535
27983
3780
19896
21715
10698
2429
13906
21754
11963
20667
11167
11319
15063
20788
11540
19327
27981
5926
6273
20909
158
28127
23436
18213
10159
6275
22878
15543
16669
2058
22684
20935
21712
12936
3481
26027
4051
28593
5322
30805
12898
32412
29050
32306
9285
6343
25790
11089
9053
13916
12460
31176
16509
26546
7112
28500
7803
26647
18623
26175
10118
19917
13912
23943
11449
31570
31655
5180
9201
13796
5252
29738
30684
1349
21051
4024
7763
16572
17541
14096
26858
27996
11959
26752
17349
20872
23866
8224
22189
25015
28475
19126
15458
27253
26787
24534
17459
7083
8266
26446
29133
22815
24167
28097
12113
29758
16204
11409
26025
13082
11856
26882
28443
18607
3340
20125
6174
8810
23242
18643
8813
12012
28730
8163
32347
523
9063
23806
11878
31257
26602
14760
2318
19049
16221
7777
19688
3856
3603
29829
15086
19945
10246
20337
11033
2268
10769
12519
20274
17759
29536
27828
6117
11580
21284
28559
28695
11413
16011
27973
17017
12582
8943
14867
32093
28363
10318
21331
2249
19778
30714
23388
25290
25393
23441
3235
22027
8811
18480
26662
32422
6511
10724
8970
4410
28210
865
6018
6206
30238
13815
15604
7061
3930
1473
27479
26210
8012
11808
28128
24349
23132
6759
10461
9703
14587
5848
22241
27930
15844
3536
8481
16421
29090
9534
5918
11415
14163
20569
18820
377
24235
10643
3154
6369
5948
10440
9276
24516
10484
2492
25422
4108
5607
30404
30929
20714
2382
19395
30834
12654
14288
1368
23713
12629
5377
12374
2104
19490
553
28021
2909
14960
23110
23879
12201
23942
32596
2157
3978
2348
19659
6154
15589
8125
4970
29304
15104
13438
563
4154
20384
10286
8375
7474
28526
29662
16019
14868
18847
5635
31803
29211
14036
21962
20726
14587
3903
20651
12842
1302
11272
1601
16346
23026
6127
22105
6765
22251
13106
9545
17841
7717
20145
6787
15647
10181
592
11625
7521
21857
17053
29795
1809
22964
31155
27183
7876
18583
10078
7545
20039
25389
19583
32428
11048
29789
9650
16391
9848
20869
31023
31731
27088
21356
31726
5524
1426
23417
4623
1950
21617
14627
28280
5482
14388
937
21952
4681
5046
15363
2124
13080
9778
19224
6071
7700
11197
12337
11127
11504
26388
29614
30910
5413
30872
12792
29087
27274
9879
21174
28530
12324
31437
16452
23673
27455
22827
13152
8388
27837
29655
26407
22097
17583
16499
18753
2168
5154
21154
31320
646
12603
16328
13006
29097
20871
28690
24495
24076
11916
183
3044
16194
22692
7037
27050
12264
11275
26494
4163
1158
7222
30508
16875
18871
18790
22419
19982
28042
5246
9438
25528
6183
9489
18461
26701
30646
5568
16965
9850
892
15043
10360
26987
31303
14021
13703
22591
8205
20981
5302
9657
32464
18266
18879
26680
11972
31846
23065
11753
27060
22223
7033
8507
28066
9370
19354
20883
29358
19065
21818
29762
14393
11350
26213
12724
27977
1072
15349
21225
30767
6950
18010
25385
24936
6353
2967
6644
26050
23767
27277
8505
29631
5821
9084
3016
6206
4093
18887
4104
7768
23641
759
23277
26249
25710
14083
3877
14608
32396
5583
17554
6040
2501
5618
7165
21015
16196
20668
15113
25335
11745
24440
17509
22132
5106
7662
8262
16709
2915
30252
10517
2686
15369
6534
4196
3253
2099
19164
4135
21091
26498
7707
15393
29070
25595
20742
1948
19109
27995
8503
21341
11948
30378
17248
6103
12440
4627
24535
32671
9725
32499
14418
1568
6886
24112
23279
28304
15620
204
1655
10019
524
1210
9187
27774
3418
13296
31007
16750
6362
22973
30991
3802
25896
605
21712
32758
29942
22731
12864
28346
6063
5846
11200
29843
1881
15223
32056
29528
7616
31586
604
10879
25809
8155
27182
11409
1604
18379
17348
18651
24190
16147
18508
15719
14005
24608
1613
17706
27221
13247
21040
22143
31650
17203
8190
9684
23455
20614
10859
16547
26927
26908
2836
21669
27515
1678
10245
30530
2963
12725
6782
331
4440
23556
29431
21227
26521
25371
32353
5083
11132
29338
28847
17366
19232
14387
6293
12109
30592
7684
143
7259
28059
32547
8486
17403
23250
2682
2159
27513
24721
18389
6868
12838
31537
29497
20758
26448
20509
8824
6035
31857
10036
26882
12997
26535
4975
28158
19724
2660
3780
10393
4525
28775
3402
13982
31002
31467
19357
328
10868
19486
23684
9300
5710
1748
14801
19289
11956
13949
23689
31068
24683
29524
8261
28319
12667
5850
30168
8379
10475
5251
10546
30958
25548
19119
16005
19638
31609
24539
10918
17567
8476
25
27317
9561
4724
3773
16128
12045
19414
8282
3365
1777
7026
20717
11639
24347
31192
19031
10147
20627
19387
3857
8852
7083
28916
23835
2963
17043
17609
15669
14515
12840
29552
4690
2668
27917
18639
15690
20614
27901
23686
10447
30264
11871
