3585
28882
27413
16985
8146
32075
25637
20214
6358
8944
31073
21499
13787
22760
31913
30170
31578
31829
22241
14581
24316
25549
7575
20660
10846
18190
11238
25813
31505
20205
17050
16644
998
24976
29588
8876
29544
32477
23665
6412
9129
16690
29798
11149
30530
22103
29038
14931
1941
1201
2216
19730
2133
4280
3578
17443
1097
5803
14075
8151
22348
11394
1296
21003
2457
24612
6869
19964
28741
26074
190
19037
14093
2819
7422
27047
14162
16650
25255
15537
16482
21654
31763
21376
13561
9472
29828
20576
8712
28682
9479
12595
12980
1486
26782
17162
9634
30964
23453
29682
10098
7976
10837
30481
13961
30155
13040
28401
29716
16105
32412
4635
1609
27244
21996
32232
28656
8079
29818
11156
291
31381
8146
15252
17746
21178
9611
2857
4746
7274
1207
18486
7670
15281
18046
30543
14758
23283
18949
8210
8079
6621
1941
5050
28115
10395
3833
497
14403
9035
17703
20454
21282
16818
9507
26016
15148
12078
2081
26002
16087
7916
14570
623
19673
28763
22144
26431
3050
30689
18949
26035
8139
16332
21465
24245
16263
21899
29699
6468
249
30494
12754
31615
32142
13515
1731
23039
13389
23315
28838
20842
19732
14564
28413
24133
8484
5648
28581
9994
11487
28158
28344
11387
20177
17056
19889
21557
30702
7076
9681
392
12570
1519
6594
12422
6639
10055
27259
18266
17594
14927
21347
4572
5062
1721
29113
7010
31710
10679
15155
23256
20493
17074
18405
25875
31400
22591
29541
6498
18318
2383
6445
31846
9135
24229
28736
13604
30155
20622
18961
24665
29820
21708
14496
11789
7543
2259
24550
32107
12815
19512
30323
27344
23803
24422
14678
1058
25944
23187
22333
5987
4850
4338
5853
20358
10175
13354
15508
4993
4780
19464
29517
23459
16284
22128
15525
28968
10414
9114
11340
19467
3263
17019
29357
795
28465
4480
31441
593
17642
18306
8064
31585
29343
2295
15274
17551
82
23909
6662
6596
9753
6429
2041
29665
5666
3877
4025
27219
10228
8054
7602
21224
18679
30055
5417
5088
22071
2666
6175
23624
17253
16630
1656
13955
13087
11204
30812
10538
25712
21822
14302
23062
6555
6965
32219
26554
23572
29394
30245
27830
16848
10447
20193
25002
6078
29158
22318
20808
5526
24458
28936
4782
32465
3286
23147
32242
21752
6083
4539
20222
32546
15005
22883
10910
2745
6584
7869
31191
27004
6495
18482
3963
20682
20493
11938
19450
7709
26848
17925
13179
25813
2634
14675
10795
2359
5386
32162
19157
3253
20314
8334
2996
28527
20586
21982
9605
19195
16398
2149
28895
2657
16051
29221
11719
25450
2456
32699
27008
29979
12091
759
30368
12156
26641
30922
11113
26782
26489
26213
23125
17115
14579
4511
14579
18528
32141
6295
10482
24553
7583
11419
6011
32460
17080
29769
26309
15417
11736
22772
5603
10688
15840
17226
6880
5395
14918
2867
8973
5902
13837
7932
11674
5108
7925
9652
13412
4348
19695
8406
22286
780
9683
20777
15443
31428
10581
25317
7578
20926
31030
9495
12491
15636
12727
20550
25698
26915
9811
8279
8642
655
22189
17838
2507
20616
12232
29078
24494
17483
28022
483
5632
8683
12307
4054
12814
9809
6770
26176
31089
20097
3096
8938
7650
9248
19368
1845
23375
13107
13727
15358
15406
3370
17217
3268
30737
32029
32212
24077
8314
20821
12811
25349
4081
24078
30661
22121
20309
7547
25080
15011
25968
4363
27367
25911
17613
18411
28828
22877
19406
11980
21906
13807
2809
3302
6578
14982
17811
21053
32640
10209
24688
6947
4503
32646
13065
3326
7251
26283
28367
28747
28621
12374
4287
11235
32268
21188
4407
1405
10617
19464
17928
19317
22420
14836
10956
19404
7142
10556
890
15471
3894
24537
3383
30908
9984
9900
12655
14402
8483
22116
28453
8904
22490
11169
28295
26001
4589
9817
29382
11743
9001
30844
7716
11446
28941
18387
15439
2018
12230
18222
1773
23612
27486
27326
6264
13608
12592
15296
332
7522
28063
3931
13054
11515
20999
9420
13808
14494
22260
28352
23842
1560
11922
3073
27723
10775
15205
13141
25641
29490
24378
5796
26901
1578
13918
344
30682
3952
4877
13833
23751
11751
19757
20314
8451
31466
14909
10270
25121
21393
24968
3776
18420
18224
16542
18401
3237
20257
13316
9282
19202
13252
22571
11749
1817
17091
30367
12399
9478
15003
21377
8401
16905
3928
28471
10279
9180
27807
4194
21984
12867
6386
10768
15648
12004
7728
29236
354
8025
23387
15443
5730
7556
25502
27775
14138
546
20111
5769
22731
7587
23985
7539
7006
29498
6973
26404
32651
10800
22050
30815
25179
10621
8010
3318
1193
4505
11295
59
8654
2192
16974
6584
22909
3157
4298
4640
28907
16216
6677
25733
12083
25434
5051
16330
22778
30336
24351
11356
3918
9895
32633
14877
5588
3832
12576
19105
17443
29628
1541
19357
9835
28785
11136
30108
4442
19485
15696
25332
11584
26594
18909
4857
15473
31699
27583
11632
8427
5638
7300
6727
25912
4074
9390
16771
19606
28123
19708
1913
11862
23796
13547
22849
8322
17189
29307
23912
13762
5509
24374
7397
21120
26857
13935
14414
23883
28853
26824
32076
20089
24562
18679
28749
25361
24737
30153
7800
30440
5455
9574
19430
18953
22762
13784
21007
13658
12499
9927
17026
4733
9524
24710
8666
23285
29588
27732
20205
17034
20393
475
27206
20718
9837
3581
20950
16032
6004
5840
1254
6417
6268
8423
1104
29190
30534
31188
751
7741
11684
3050
31316
18259
15316
8008
30650
21733
32012
11283
13628
28918
10838
8706
21318
11152
32670
18720
17994
430
14089
8141
19636
19290
20105
23046
287
21779
19375
26087
23753
10353
29120
6510
15940
18444
7690
28034
18543
25241
15992
27188
11685
16726
5733
10308
15156
30121
17838
3047
14609
2563
17931
7367
29130
14859
21151
8012
30395
30201
28109
21274
29829
13631
31054
31451
11196
23663
5248
4414
25056
14937
13569
20287
24207
24691
11645
26538
18680
23167
5828
7130
31123
2407
20256
3527
5136
9580
997
29504
32141
11135
31049
3700
779
14831
1142
4023
17443
8261
27614
17539
13813
9837
8655
14269
21090
20246
3399
10042
18299
6490
21769
29314
15160
1442
24816
26324
30574
25028
1412
3178
4603
8303
3531
22781
25923
16329
5986
27532
27873
854
29899
13658
23190
1308
2569
13366
30597
25093
22378
8702
9635
1412
9893
15718
5481
22651
3620
4086
972
22365
16035
21842
5230
21392
20218
26558
7190
25621
31287
21985
28510
18794
1008
1481
2475
18607
14040
2352
8290
16905
12687
1790
30297
1604
30143
24079
908
12220
28004
25909
17682
637
23147
27777
18767
6057
25727
25534
19562
22554
14624
19007
30977
2633
29173
19419
8476
30574
13667
12085
864
27625
17758
31041
28806
5857
28799
27139
25867
3371
6487
13978
27432
29549
18436
9342
22788
4995
31233
27142
16169
24865
9283
30765
6964
12730
7041
4501
8913
11169
22227
21196
15079
12399
16510
4047
28432
18084
2318
10956
32076
18065
12454
18476
18934
20085
14997
977
20471
16870
16169
2972
24889
22642
20424
17203
19295
32647
24892
21761
13491
5008
12367
21630
17759
13409
21656
21936
28897
14549
30100
7666
29625
1461
22009
20980
22884
19420
10566
17667
7822
29081
26527
19850
17284
11093
5080
17113
25320
1910
10192
2086
8360
29059
6912
18641
1328
28808
14163
18925
6367
9404
12344
29947
21432
18529
12278
32760
13659
14316
20289
22171
6451
17766
11018
10456
6896
23314
3227
17064
7992
12624
22498
4364
21657
7105
13325
30799
16579
12716
8792
24460
11764
21920
30499
5489
3251
24667
26952
29250
7617
29419
11179
23329
30797
13331
17683
2700
16487
31984
6712
16935
8631
14556
24093
18876
25199
31891
23711
24448
8830
6293
21326
32152
6919
10955
19581
6363
29201
29548
12437
15578
30336
28962
431
10525
22596
2153
30049
21424
12496
14904
24791
29919
28621
11748
11046
61
16
4673
14814
12011
14538
6666
3038
32534
28415
6019
30317
19650
15162
31580
14470
26566
18302
15065
22642
19224
14719
24880
32669
22859
3346
20531
18594
16982
29411
29742
13224
30359
1894
28435
13553
19224
30224
32468
4528
13072
23750
8977
32539
12973
918
17907
14274
28432
15525
27736
31519
32666
104
12592
11118
25702
6679
4134
32191
17942
30815
17284
28745
25299
30296
14672
31489
19599
12470
25531
11883
23693
15171
26813
13488
36
19085
29945
26866
17088
9691
13798
30940
14633
30054
16176
17533
12808
16582
24412
28758
20391
12715
10156
23985
28408
28365
11074
32053
32729
8998
14727
12216
12950
1374
6094
10580
7855
29575
32309
2749
18140
30474
23500
9425
7759
17633
9722
6769
29497
3591
14108
21648
25231
13357
110
31881
14606
13999
4911
28854
25981
27590
17664
26430
24626
23039
29582
13102
11223
17900
11120
24524
21358
18457
13907
5672
2451
32577
21588
243
19713
12994
9389
8852
13912
31055
404
20857
21278
14309
21344
20139
12803
3328
7918
10918
1129
31758
21315
27751
31011
27940
6770
11974
13437
21744
12736
10246
2429
6383
3335
20395
22633
991
18776
5771
13961
24184
13028
25896
17198
87
25117
21565
19956
27963
13336
21399
12867
21107
8758
13094
3100
30871
15619
16980
10770
32119
20062
31125
24726
27217
26331
25152
8824
31303
23141
12445
683
9487
28712
17471
841
16877
18862
660
21974
22238
17735
16314
28873
26646
24495
10644
7752
23469
22763
26910
26676
17814
8308
28157
1381
12240
19607
6235
11319
13024
8476
13553
28229
29310
26918
32613
372
21135
10330
7895
6708
30803
26435
20663
15106
27616
7925
13785
7473
28111
2033
30155
5867
21813
20553
11366
8819
2517
32005
21923
27308
28307
31428
11184
223
20524
8615
11075
8121
11301
12394
12847
8083
25601
724
27701
32759
12471
1874
540
10847
27235
14303
16131
21055
30780
6694
8183
5702
31942
2795
449
18145
4681
22695
24833
30210
11137
29042
24705
13343
27799
10278
2499
7805
4176
21698
31708
8878
11653
21516
31877
7001
28883
10875
8048
10809
7827
20051
30680
29544
28940
23826
2140
7646
9960
16395
25869
15668
21989
1105
15302
2222
21965
27094
14012
889
22440
28116
27989
31281
32048
21612
22334
31143
1157
30094
30136
8928
23586
20760
10034
97
13072
11842
22813
16553
22873
19001
3068
31232
1216
23050
23994
23407
19887
25538
3649
28432
30833
13011
12872
20872
24225
27578
2156
721
3299
735
9347
13373
26834
6845
25901
14263
29497
3394
26539
29772
31365
9337
28149
1003
20858
18022
27398
24169
24102
6194
10619
13768
5395
23688
16476
26553
13505
4414
19002
10335
21843
4152
4730
19030
8329
14217
11504
18420
17902
23772
11184
29135
32595
4115
26400
26239
14715
28973
3154
14245
13592
7533
26001
24620
13302
30648
4410
28622
1655
20544
6862
4058
3391
12127
10820
17717
816
18373
15780
5023
9113
21462
8401
26168
170
25166
6054
24899
7724
22055
28229
297
9327
7612
25516
10945
16259
25902
8842
4302
32426
18439
15440
4810
18446
17949
23178
30946
13488
32698
6768
12609
26785
31993
18104
29329
15220
1139
25519
26559
17651
17691
16776
18687
8721
22375
2292
1553
1568
22961
30195
26050
27716
11228
13545
16053
32040
3642
5620
11619
31983
10157
2685
27489
21870
14093
8461
11234
4248
29642
29538
8572
22329
25043
15043
4399
18408
7350
32400
5795
14902
24072
4381
32177
16940
17159
20160
21797
2037
5502
21289
7874
18391
7145
6386
16519
3688
13530
14199
6961
1278
16795
13032
27137
25191
9237
4765
20415
21466
21488
12713
13567
29230
20220
32177
23459
5962
26832
6143
19361
10205
15793
3282
32007
9551
19637
5368
25404
7159
32039
5535
15752
16782
4910
21097
20694
22499
22442
1470
28345
10193
30559
21350
28078
10350
23893
18775
30369
9862
3198
25291
19378
72
15514
16790
27704
18750
15960
4535
14854
27267
27326
19245
1006
4912
8650
17932
6532
3351
7258
21711
19492
18868
5449
22768
311
15200
3547
1462
14769
20168
12635
17743
13022
6302
7170
29726
1119
2958
2331
26198
24432
19060
11365
27592
21356
27340
15033
17913
15250
15209
26092
17528
14857
25451
20471
31598
25634
28011
14677
18551
990
4856
28333
6576
4784
23623
14769
11026
20867
26662
22854
11774
8703
28722
17637
3864
1288
23882
16193
20057
25224
67
31786
7520
32367
17117
23985
14345
16120
25846
3213
11073
10285
6654
28605
32281
12461
6827
18287
28953
21421
32494
28449
18390
1085
29733
2822
20678
26060
9106
9387
8020
28143
23820
31450
11312
21342
23028
2239
20457
28223
11371
2121
19389
28072
11970
29651
21680
1631
1842
19204
21723
32484
5070
7923
22279
15537
21173
10639
20602
14016
6796
29759
15633
29006
14124
20933
16783
26335
16023
12136
18485
642
12849
338
19347
3926
16429
20023
17309
16717
14661
7735
26881
15152
3758
20742
17080
13795
27723
8010
12763
11499
17185
19268
28601
13357
22539
17587
12838
23288
10926
17397
27158
16454
18608
8304
20586
15423
24869
26160
13577
17151
11338
28369
17459
25753
31606
416
13842
3676
1357
16125
7314
29013
16951
23300
17267
12820
27921
27500
22173
17843
31778
19630
17075
8213
9808
25194
1002
5996
18579
14087
22300
8446
16299
16027
280
19240
2574
16650
8253
6307
17957
12145
15431
8454
24759
26821
2152
6796
1958
12727
2971
12568
13529
25563
9013
20086
25977
6154
5052
14308
20832
20485
7165
9425
14030
25434
15961
13028
3678
13196
13408
23360
15161
27502
16545
19719
2954
19920
21183
20764
7474
22365
12744
6958
31420
14276
8387
11250
1171
26134
12680
10415
31346
21615
14805
19456
14621
1753
7837
21462
79
4461
27043
4284
21747
16828
23880
31327
21398
30573
31393
27981
1821
28711
11725
30205
6067
2737
5254
19728
26118
17751
4853
26838
26291
31632
10955
18452
20990
9951
18573
23044
31687
9975
31535
10142
26554
21794
18917
8726
28101
26339
7222
15014
719
25562
26706
10125
31143
13033
7077
31320
20538
661
29100
27488
23818
4271
11528
32404
28891
5427
26321
25976
16559
21616
26668
17006
11253
7273
16928
12597
13054
12668
6053
14511
12720
28225
19966
2535
12926
6837
5961
12370
28056
16024
2901
5973
18526
29459
17075
2312
26907
30622
10256
2618
13040
3617
29634
14261
15886
25177
1440
2242
8232
126
4375
6896
6441
7971
20346
27410
30754
16477
11418
8071
19590
28199
8599
18366
14233
5637
12789
13560
29222
18408
16114
20560
23152
23634
9495
4601
7788
17850
22542
32200
22061
4402
28851
18674
8864
23111
24941
3350
9337
13865
17599
11390
24429
23052
31258
19362
23970
205
1270
1005
10084
21465
25121
13252
25369
23371
18262
4037
12663
14676
273
22860
6644
13536
25250
24124
7038
22390
31872
9724
13677
8800
3297
28607
31926
7949
24199
26121
4449
20147
2525
11119
2109
15672
19522
9374
7378
15187
27045
9118
16279
1007
19538
22616
21605
20688
22283
10838
13612
8824
7515
24523
19685
16204
30247
13779
24263
11763
7302
19963
19902
12031
21203
5380
30745
31183
15360
1764
31618
16563
24364
29710
30004
16466
2424
11251
4712
24137
535
12489
1296
6933
17573
22667
12488
23347
13754
32577
9226
19333
1470
11905
12705
25848
13823
24118
15968
21348
29696
12960
5907
17332
16149
23452
25270
23878
3116
31014
1253
27285
23534
10524
1172
29973
30471
8772
19200
22622
17601
145
20197
4237
28632
9890
32754
18407
19850
22668
1658
26560
15085
29657
11116
12444
25733
26833
31877
7571
11286
22776
196
5882
8375
32471
4383
14399
15656
17151
10612
11541
24677
8780
17858
27089
13435
18791
8089
17172
30619
2446
24527
10411
23405
2712
6261
1971
28326
24115
6921
6145
17629
22641
32493
6337
20635
20867
27672
16476
9137
13508
32268
25504
2510
249
21256
6171
12624
7638
7038
21959
22107
10949
15815
23533
9256
10980
25110
23875
16544
12876
31403
14167
13866
30873
7241
14641
12225
29863
15081
15668
15177
26009
7856
6726
1571
27936
9503
12337
18431
7930
8842
4936
20465
10680
30667
6989
26568
31941
12343
22930
411
4004
15313
14943
25508
11897
6590
21908
18001
28619
1785
12943
6297
14216
1352
848
24205
27465
20079
6875
24111
15320
1955
8926
3718
10224
18753
21652
31986
7235
20160
14569
7358
21697
25317
13279
13556
25368
23605
24368
24693
32375
15792
30773
21576
152
20412
25862
24627
13309
17760
5347
23944
22394
16818
16339
66
31475
20883
18826
15952
6503
11673
19344
16689
5165
22605
2720
5569
29566
27799
23375
3667
4148
12406
14830
2815
2769
16372
6576
7230
13251
25690
12048
13236
18663
27552
14701
22348
11339
5159
4087
2698
30776
24747
30159
25117
5232
26739
31082
30132
12468
30666
25399
9235
18569
5299
30593
23910
5180
15321
3990
26581
2852
27077
20009
21080
23335
17491
29429
2509
31103
30823
4515
17480
12478
8156
12270
13994
20496
17341
3845
18549
24513
20152
9264
14814
32511
975
1207
28708
20192
19793
18688
23585
3751
30729
10999
12063
19779
11957
25522
20972
21528
18874
3158
21041
12034
18197
1588
14847
30103
32405
11832
1451
14765
26183
24452
11228
16157
31538
2392
27618
24774
8773
23605
22089
18132
5518
21058
17326
21058
12717
5870
11730
24989
14215
4567
7917
21259
22079
6379
11077
26509
4450
3532
10494
27521
22369
27257
6708
18539
23621
300
32071
25588
3230
29566
30582
28723
11452
9425
3504
4396
30754
11247
24486
31638
21816
2031
6437
28898
28992
7257
3491
15480
22667
14474
12824
5700
24301
11865
26895
3697
27758
15354
21756
26228
578
19747
9424
31565
3068
22382
3787
9481
20734
22015
28049
12172
6708
10342
13185
20621
24578
22726
10306
16098
5242
3383
9374
20222
24019
10346
16532
14520
21782
23948
10152
27214
7451
15212
1918
3241
26036
29407
19623
7394
12072
23652
8635
16134
25059
260
25768
11798
3691
10876
1609
27986
27030
16030
2107
7863
22779
27125
3308
8903
9126
23976
11764
25992
6928
9376
3241
31951
20558
21485
20717
31678
10632
6758
2635
8076
27565
29584
10051
14724
3173
450
30433
31313
24647
21382
26773
632
31053
6209
32318
23590
18820
2071
9352
16940
24072
777
25976
22600
17968
11104
10565
14502
31494
32591
31082
31398
23290
13780
31225
5856
3543
25311
3378
19558
25845
9910
21844
27464
2993
27800
2227
10334
7194
31904
19467
24129
27629
25837
1812
24475
9668
32256
26454
16033
650
3685
1343
11741
14130
20886
24435
24113
27304
26140
8291
32281
18440
26359
25121
15920
271
13376
25715
32502
21711
12045
26918
3024
28326
27797
10916
1872
12656
9365
8393
27831
17148
24306
2035
19128
27581
9375
24152
7039
7874
14273
19357
24050
15848
5905
9892
21559
28239
20610
3493
2934
4362
26405
17536
4320
13339
20553
19793
30704
3998
19430
28485
5616
25412
7228
8109
5824
18435
24759
337
20179
18956
6166
28167
28282
24318
3532
16004
31333
3161
13990
17521
11622
21045
16559
10946
10105
11828
23121
12355
3586
19125
29884
28787
341
11850
1420
11926
2939
32621
2981
22278
27700
12398
23394
10954
26168
10160
30192
18793
29122
14357
28660
3328
30799
32183
11124
27795
32163
29401
26868
22689
23054
20765
29663
17915
27117
4855
28201
23254
22131
10593
32563
29214
23466
14800
27119
26893
12212
30823
20036
27389
28503
29291
6580
12154
13241
23800
27452
24220
13671
15346
28283
3987
8348
30013
29207
5508
32449
9265
15709
3732
22832
16712
26919
26946
31037
29210
16387
21497
26999
5516
27025
19173
7211
24644
25901
14343
23338
7520
6094
22916
25804
26471
28974
25155
23093
28031
27692
2230
25303
6369
28270
30712
10552
9867
19274
22297
5366
2356
28135
23222
26120
10117
28319
5324
5446
19078
6056
30413
7724
20567
7412
14836
5595
30496
2901
8662
13152
21578
13029
19771
11577
19440
4261
2347
4117
7312
31588
23116
29404
21255
6115
12395
11247
15036
22582
30808
27569
7707
2669
32759
24646
27461
14964
24724
18075
4357
27448
25463
3238
10247
27403
5304
26863
15428
18250
30805
2895
19137
9021
5506
19191
18297
30270
19520
30133
16279
29982
10545
9331
27625
10948
11179
14593
18322
1047
12811
26900
32511
21279
76
31374
19228
3430
5336
5375
3271
18853
16285
19564
15493
16540
12132
18768
627
21826
26974
12769
2688
26654
24320
14484
26842
31221
5649
29667
8870
24997
5890
25422
12020
6481
5501
17824
1010
26302
1856
9331
1119
25341
7468
14582
24899
9547
21145
3566
17374
5429
1773
763
21470
10240
21869
5405
28117
3399
8019
4214
7657
3814
31776
3922
13006
10263
1075
27236
31985
6107
10651
32338
3574
29340
4906
27253
3173
30480
11722
11482
28576
10848
26644
16268
14361
32650
19487
6933
30657
3588
27542
16962
16068
7074
21006
15143
16499
32185
29078
6499
17537
5509
15759
32165
14451
27592
26558
11887
30034
12212
29599
11802
3491
7435
5116
29211
14233
3461
1727
8068
10120
14706
25349
28878
28317
27552
3443
10453
12749
11391
18125
14116
19723
10371
2244
29043
14014
21962
9488
1646
14194
7423
23231
3512
18893
2430
21965
22832
14021
17592
19700
27507
16913
24793
12741
14242
31453
13993
9976
3685
1218
23216
12545
23599
27893
28062
21732
7364
24511
19434
6473
10233
21037
24760
7635
15291
29704
8192
15534
26451
32263
27629
27239
15336
12356
27011
18433
26182
5357
2181
6981
5598
23356
17046
8537
21773
24233
21918
28564
13985
11870
32111
22161
31897
10475
28841
31618
7212
59
9434
7111
17165
14790
7658
11968
16878
32521
19639
23007
67
21043
16636
27393
23880
31522
12919
19710
8773
16525
9547
10878
27152
16771
11683
13071
8660
788
5784
13941
1810
1614
28757
2625
18149
31339
18808
28070
8842
24392
6076
24455
15647
11289
5077
6868
30379
20060
3228
11543
30815
5387
30060
23370
22044
23574
13260
18668
26933
3088
28750
5460
18549
16936
28343
25412
356
13404
12639
32449
30406
9705
27611
5410
2149
6
2266
13160
26640
25297
18253
32461
16356
17034
13003
23456
3530
25855
31539
30287
22593
21319
28563
25286
8286
5043
8264
17911
13584
16386
27751
15802
19369
19412
32348
31448
410
3938
31697
16738
11134
27243
27858
17224
5467
4978
7726
2342
6180
26406
800
23905
10370
19490
23086
28019
17107
32470
6482
5507
22644
22981
25944
2617
8763
28146
6279
21712
31816
32660
7299
21869
12030
15121
7026
16303
18764
13866
19550
17799
28721
4467
24282
25674
18303
19975
18921
2052
22495
11129
539
30992
5653
8718
23289
18405
28549
19753
6051
11059
32758
23046
28344
1071
21655
20139
1398
32042
24639
15644
9763
30313
1273
14031
13739
13617
22208
5215
11402
2337
31623
25988
5868
23493
19581
7491
24595
24167
7310
20066
27898
18984
18477
3103
19000
26192
29265
17186
28966
18659
4797
7855
26692
1397
14725
20000
17113
15934
11214
16019
17370
19313
15829
7392
10253
27850
3635
13262
23406
14694
1631
31366
7634
16856
17524
26439
23242
6265
21044
23132
14538
13311
19789
13643
9099
24658
25820
29264
21933
12699
20528
20489
9633
11677
8912
25971
6598
8008
8639
12821
2002
18571
32254
32379
17268
26219
6227
8422
8248
15186
12873
31298
19114
5033
12408
16216
15550
30888
20998
25157
20847
1389
366
12331
15271
4684
8832
30502
25695
10855
426
18562
29703
32638
18549
11051
2856
20488
6994
21092
28232
29570
17559
11452
10510
263
4293
24382
27814
17441
16396
233
11623
29663
12561
10848
17331
24615
10478
11746
5151
2382
23674
2939
724
21990
7884
30076
13878
23255
22778
31018
27843
27058
12070
8115
27197
22849
30396
7014
16395
15459
25077
21794
29917
31510
1184
28175
20367
470
5665
2445
18768
31526
5306
29546
27395
18284
11785
30296
6629
9985
4306
30366
6000
19081
3071
9485
14464
15744
7909
24118
6069
24342
24265
2522
18200
23869
21923
3746
17665
26112
15905
11792
14392
790
16623
23734
14170
21431
5942
27302
8062
6318
13923
4137
15897
18096
26921
12980
21023
4844
31177
30231
10347
11747
20881
28152
22369
8314
12706
896
24018
32589
26871
25428
10527
26695
11171
1991
18082
32368
28506
13134
17481
22533
28979
28468
1156
4814
18604
25230
2402
684
11247
5490
31479
11890
18772
29796
27904
3829
23078
10257
10186
17511
21162
5440
30799
13792
21341
6405
19362
20286
16254
21815
6542
20783
7372
8485
25210
26508
8337
29317
17552
31209
3551
21165
27679
27242
18714
13318
25405
14040
17590
15293
1200
12275
11074
21435
5647
15114
27302
6360
19748
20938
1193
31051
17557
13396
18614
5989
9155
402
23263
17536
32243
10698
11298
10290
11436
28531
18411
26566
10591
27208
6875
25068
10830
16540
5832
21167
1702
2797
22533
29608
9710
5563
12259
27761
32421
30106
14455
10077
26663
8583
21918
24166
17361
1912
18239
29799
16741
20279
12496
28300
17072
16239
14876
8710
8810
30983
11587
27139
25181
31920
13826
31197
1226
11962
9780
8081
5384
19756
25497
2676
9070
3091
25303
27169
14451
19482
21438
31158
788
8027
25296
19264
18038
4213
13313
26483
19149
24543
31419
5535
21884
11132
21285
24543
27774
13423
16549
10132
26884
14128
30116
24081
7519
2527
18577
13720
4641
29913
31272
24198
7807
31114
12532
9418
24570
31618
19986
411
21823
32714
32569
30059
8267
30328
12791
15894
13266
17025
19517
15712
28642
29647
19998
9118
29124
26515
16596
12979
6947
17117
5892
11582
5231
31594
25155
17938
20100
25276
472
9191
18311
26480
11971
19791
5905
205
2303
4331
1424
30873
2565
15838
13034
1840
145
16514
4195
30167
31144
30554
12736
15181
15066
21576
14764
18083
12741
7680
25948
27726
31962
26045
31599
10619
29028
1331
8728
12706
17093
14532
24702
31326
12035
10742
20323
14716
21636
32293
15620
2385
5398
15733
18497
10065
10803
9739
14078
222
20098
16253
3017
606
8352
17030
7869
23696
8993
10495
15782
13344
32210
31242
5990
28537
25665
9873
30359
5850
17792
2543
3953
31404
10533
25324
25838
5139
23957
22767
2349
21443
23427
24943
15636
21269
691
6571
13114
7001
5124
26779
31236
30574
3245
32038
20750
913
18119
31893
28108
28531
780
30024
29553
9870
16350
27047
8719
21176
395
1884
256
27897
28623
24256
2182
20634
27802
11922
3758
1150
2068
6127
31610
11958
30174
20094
2110
26191
26523
6380
3659
22382
28848
13720
10443
28064
22343
30607
11756
30827
30362
12218
17217
32297
5742
13910
4453
12566
23517
10405
23265
15015
14169
12003
31311
20765
29678
24188
3008
19291
19399
3196
17756
9972
9716
9287
17224
13449
24939
22154
19149
24146
20812
13425
18614
15610
20073
2843
3833
28336
517
4939
5530
25723
19932
18784
17101
6605
30052
391
32347
27228
27731
3119
5190
31277
28257
32445
10928
25585
17487
29825
20217
8597
23080
23529
24104
25365
2759
9205
19596
18321
17561
24043
4259
11426
27556
10060
13626
2030
7368
28678
22230
32506
13893
28907
4179
12608
18814
26210
6859
26754
23037
25437
9401
9053
3510
20619
9310
11809
12944
27598
10596
15840
15649
23535
29122
16837
9401
11409
17887
24231
16547
18019
24570
18654
2727
14234
25289
28758
27347
24735
9056
13026
28796
22788
19029
2258
7295
8381
4130
24519
8396
29069
6346
6086
14630
17598
12992
22156
292
24853
32004
9505
27516
1285
14479
2992
16000
291
18673
8086
14825
22234
10297
14265
18900
12128
21013
15131
27402
16104
27194
15791
9348
26650
8710
24427
14895
13248
8548
8606
31980
28866
30449
9860
23515
4180
21341
3863
6873
4718
5139
27433
21063
5756
24860
28592
7182
25688
25152
26465
4575
373
20335
4480
192
9821
24672
25334
30148
10333
24440
23972
2073
11134
25581
29175
1096
12472
30507
7868
23737
21603
10615
17206
886
20718
22994
22382
4400
6611
13600
32459
23943
8906
12425
10466
27782
10046
800
13455
21869
1533
25282
18757
1716
1331
2113
23202
2892
4761
16066
2631
13608
21482
612
23526
20732
7063
29219
28572
18245
5563
6395
13954
20105
16721
21072
21887
4832
2469
19853
10848
30387
5128
29964
10026
20676
5576
15414
30638
19310
18015
6379
9567
18735
16875
11300
11617
29283
28638
24022
15586
20562
16887
28698
1965
6509
24433
19852
27900
4821
4218
5872
24206
11037
32230
13340
15866
12881
6437
27666
9283
21303
16498
18540
18348
12756
29518
18429
29646
21298
11053
9397
18407
12897
11375
12485
12149
9916
25489
3844
18692
32621
8869
19089
12100
30772
21247
4538
22622
27492
28466
6173
32648
25902
22843
25613
19672
31777
24827
2872
12117
4850
3819
8838
7508
26489
1803
25924
12034
4861
6171
22401
18237
24497
19214
26552
16040
6014
1724
21424
17662
12291
7127
21665
27814
30683
19744
22168
5256
10526
10202
16156
9248
1322
16511
1810
19920
23971
10163
11230
19323
11960
11126
15307
18767
11944
14493
429
29410
30341
28803
5061
22145
10297
18172
18916
4805
13766
15498
24275
614
11730
2260
16627
23124
12642
18771
22049
28164
30438
2127
14044
3592
32374
12298
9386
13539
23387
15931
16311
30235
14033
19389
16320
25488
28683
15497
13359
23819
32120
11234
3976
32282
29509
26831
515
7708
21283
5838
26491
5784
2378
18119
19590
17363
15037
7231
20198
29601
18640
21198
23840
13947
11752
14291
6506
18130
6019
27750
25546
31395
24952
910
20349
29516
22143
20660
1942
32670
23027
31320
26343
25651
24279
9475
18212
32257
20504
19069
19270
29488
19985
4415
10542
26153
25940
14379
13963
24304
8872
27259
15613
24243
10318
4088
22907
20899
10377
28012
27378
21250
26973
10585
21550
30589
13718
2283
5374
4541
24332
31020
32403
9529
13862
14455
1834
31566
6813
13359
235
3729
2434
28336
14352
16484
19587
390
15433
3271
11882
4062
22879
12401
22758
15673
792
29984
16270
31848
14428
6189
15395
19124
8597
32611
16405
11101
28252
12305
16201
30534
13905
15454
14362
21742
24906
6877
31902
27810
23217
7265
8490
11505
5159
29715
13336
13153
7021
1473
8903
11616
18309
28281
28644
17789
16660
31575
7912
28888
27147
667
30946
12503
26758
21246
3703
7451
22773
11591
6951
18867
27513
31769
11730
23951
28817
15887
14970
27959
6389
22027
31050
28093
27842
13770
14039
21487
15832
5820
31143
13266
6528
13587
8432
29772
32083
16666
24737
27425
21335
31433
16038
29985
31082
11158
30056
24223
22500
29325
24468
12324
19320
5795
20766
13157
26203
21320
389
17523
19624
21307
27480
17202
12292
19874
17657
14604
11902
31066
30369
1766
6328
19084
12708
12115
25420
11905
3319
4360
18281
14775
19183
9617
22205
31796
11339
6210
1688
28698
29813
18799
30286
13948
773
4576
29917
5744
9863
23167
2511
29285
3198
23636
1378
10167
29353
7347
23527
3201
32132
31156
20584
32691
22546
23268
12941
16228
218
23098
13248
31081
26671
31053
6032
18982
17333
14019
17235
7588
15137
6157
28944
9956
21056
31570
2460
24947
13371
17832
27138
20799
17433
16778
6184
29865
5765
16775
10928
7387
14546
23351
26653
8284
26940
20083
24887
7137
9329
27845
2736
13671
11344
5406
6663
5502
27632
6087
10669
2792
23780
5786
26727
3170
20925
13682
22515
3266
18897
12000
24302
21826
12859
8480
12789
23068
14371
10059
22539
15703
4160
4813
20026
29664
22426
22810
3709
16604
29077
2461
32222
31549
1835
24561
1500
20883
2937
18004
23823
37
27005
23641
17167
11585
16158
21981
13201
24528
18796
17979
21715
17453
26154
11204
9531
13112
20106
20329
11323
12198
28471
19643
12919
19867
408
22038
17706
14458
19028
2328
2245
19196
8465
26456
7898
28031
9602
18261
9017
11937
17824
20909
1113
18958
31031
24208
15097
4502
22181
18291
9478
27779
25822
265
1984
24873
20148
4463
32025
23742
23382
13991
20573
11628
20502
20807
3608
25253
8047
26482
19253
1975
2374
21512
26467
27808
4208
30234
20157
28963
26997
29857
32425
1563
18067
27247
20992
22800
9478
3685
22640
24072
32647
11239
15647
11167
2579
32653
145
23898
23277
19483
2508
28729
9446
15284
21178
19851
26332
24906
13262
30726
13441
28249
4842
3863
31837
28885
31105
7287
28439
11617
22009
24575
27632
27073
27731
3517
5776
15250
14861
12871
31237
12088
20807
12623
23817
23321
28454
4728
11139
13065
20854
4200
6481
12292
3987
7711
25157
8227
31369
22151
19309
13001
18554
2636
18840
5405
3904
24557
28949
12990
21076
14868
4798
28338
10222
22563
10806
26783
14702
25871
366
8765
8955
26737
11630
6411
30314
19930
18514
10305
25953
30311
3218
18182
22204
2198
13703
30436
27439
29272
18731
30329
13613
20840
12065
3183
10249
13786
14581
32430
604
29431
32676
2511
14246
29256
14943
27860
7480
15601
29324
23831
24145
12097
14606
30337
31623
2694
16582
31740
22888
22822
601
31787
8802
22763
19764
11864
32736
24479
27086
7086
28342
28121
12589
26792
12991
25622
15788
21193
11716
3595
6395
13966
7584
30778
2919
12705
1442
17348
28764
13647
18227
27774
13352
7484
11705
13638
24321
7765
29115
11928
20810
8711
30533
2908
5394
25006
19342
14338
26846
22097
9688
26577
26536
20620
28568
3196
29223
19661
6103
27639
15697
22468
13784
18568
10783
5908
16123
20257
19088
19023
21473
16365
14320
22561
26833
1321
7770
15307
19802
11317
8572
26323
22330
29931
32410
27386
13439
27439
4053
111
10476
16071
5294
15426
15006
19822
25542
2843
4592
4899
27111
17452
4251
29895
6728
26724
25634
6375
13325
25062
5997
17111
270
22457
26547
25600
29145
27073
24734
22394
15098
26862
938
31710
22394
24499
32463
8021
5285
32442
13919
29173
2832
16854
9777
29262
10459
24889
24063
2111
12596
25319
7437
16911
21788
24682
20747
26552
18798
21703
31805
22662
32285
1714
18137
26337
23229
25342
16305
9831
9285
23383
4113
24639
28691
7475
9963
8617
18480
13574
7985
6361
25814
29109
25987
13317
7983
7246
24842
14013
352
22518
9124
14715
6086
15907
25921
18299
26495
2827
20109
3788
11821
28252
22223
22184
20214
21549
14608
12289
4304
14900
17537
5212
4603
25914
3095
26338
5326
2765
14712
2996
2487
17205
1818
2432
31358
22441
9641
26962
15049
16578
4266
18604
485
26927
5727
20952
20931
2219
5866
3709
20289
11052
16052
18545
28587
14429
16400
27854
8066
3919
20508
9544
18044
2667
27368
7101
19659
32684
8923
7182
1442
4363
32594
2094
8950
24890
11913
21112
5762
148
3775
29254
1037
9813
21141
1727
10479
2566
17592
7152
23762
28988
28351
17951
4022
17794
10071
1883
26936
18068
19357
13144
27923
11470
10187
17786
18663
20451
21271
23856
12089
9682
728
21635
25531
11798
6379
9455
23758
7453
29013
3697
7750
23548
13097
13537
12653
12385
10413
10114
24138
8393
25272
1752
2595
26867
11102
15545
24384
4756
3023
31399
8690
1612
27005
29277
22228
10457
32381
31912
7761
22667
12592
8824
26982
24311
3874
15415
27561
10992
28466
7001
28299
26291
32500
29237
27098
15970
16211
28179
1418
27316
13435
14214
26804
21482
19702
19708
31199
24837
17428
27539
29823
18230
913
31278
30651
28054
18546
10953
29299
14615
3888
17929
4226
21690
2840
21783
3392
18947
11506
7599
3915
32171
31969
9332
29064
25748
19338
10631
7524
1282
32376
21335
23136
6151
31679
31675
14028
24383
30944
21310
28114
702
12525
20153
28343
2887
17902
4904
26974
19646
20866
21430
1038
21728
26826
22042
7796
12850
6018
4390
17900
10039
5745
6557
16124
7654
16644
20806
18465
28507
3638
3134
31183
21453
4274
8338
26547
3776
16956
5133
26427
11132
7757
23631
8024
23997
20477
25887
17795
23212
30502
20739
11262
15886
18631
10253
1372
20412
3750
26871
323
15699
19002
12403
9841
7212
32455
27324
3581
18319
26315
17265
25567
28451
6297
18339
20659
27049
24132
28205
12474
8170
17598
31299
15394
9198
9793
27726
1159
18543
13294
29943
27577
19597
17077
7810
30656
28612
24436
8286
10269
538
28259
4346
12371
17565
22959
27098
15270
11788
4965
4585
7715
26581
28306
25105
5856
5951
5033
22537
1925
18153
5156
27502
17675
1139
24942
14614
26052
1659
11009
30881
12444
28363
26571
28752
4510
31952
3799
23323
14266
17487
17193
29949
16325
15443
30442
8595
4289
14954
18885
24805
19807
11792
9872
1668
32450
12396
25647
26325
23686
15418
28085
28332
22017
8713
13773
22812
16584
3238
31065
30606
20597
10712
5464
16401
15272
19277
29709
5617
12876
5077
21854
139
2332
1230
30330
17503
15973
32735
23742
4711
15373
4330
18394
16808
31444
5179
3887
18182
27354
3334
28284
24412
17762
16400
1466
8140
11221
26284
4164
24660
14346
3561
5947
13474
25028
30218
9001
26410
23932
1590
12516
10869
22625
10353
28086
29884
13726
8651
32442
14773
12507
15063
22409
30381
2566
19551
25622
17623
7763
1110
2519
26084
4737
30478
17446
32467
29280
20652
24550
29963
27024
15064
6761
8615
31115
19129
10129
20241
20709
2848
25398
13522
10195
30467
12744
26024
17899
30766
21558
25561
5418
15925
13070
20424
26171
429
25829
25798
18934
1947
29689
14378
9256
31021
10005
28324
23442
25512
20917
23502
19252
29858
28523
16388
22731
18033
3713
6262
21656
20707
19936
13691
1635
21040
29232
2857
3008
17452
22081
28706
27537
12737
15018
16048
716
157
14512
3093
11902
808
23657
27164
22288
26297
10785
26356
16585
21001
4860
16190
17813
18408
7389
30309
23557
8750
16775
18734
3990
14581
18690
11920
20022
2565
9025
23237
12036
29840
1281
30881
5720
23840
19444
3363
23299
19917
28191
14666
20696
26291
30848
20009
23659
12963
24821
26430
29720
13337
12121
32512
12871
15982
16880
12727
23791
28495
12549
8848
1625
23662
5585
14065
11047
18807
14495
7178
29076
31302
27182
19117
28157
30039
3159
32095
4257
19070
3567
19631
8357
12760
24047
26054
26715
5889
6610
3904
30403
25735
31551
28730
6738
9119
18664
19884
30963
17431
20146
12794
26956
8332
8470
12997
28994
4829
12231
18695
3519
11487
27541
28511
10162
26963
913
31401
23128
26901
32114
24786
28347
4246
11575
25066
12408
6539
20494
18299
32708
27879
20085
11802
17585
22791
27039
3387
10158
30765
22553
29002
13133
23344
5549
7159
17226
19570
27271
32465
25800
16145
28054
17430
3037
15970
1589
22985
16977
29083
12555
13062
13219
1999
3119
13203
14925
8224
28304
31159
21065
560
3733
31311
5332
15064
31744
8990
8562
28957
28952
30565
6194
1887
16135
23219
2355
23764
22913
32255
32103
17205
17830
8948
31895
31927
28714
10636
13480
22077
11955
7136
9756
12748
28802
11327
31196
5439
25174
22909
25652
4412
2445
11661
14623
5222
6797
19026
5573
32468
3682
14515
17218
2499
15272
11758
13993
22407
30380
15150
21064
16328
31950
7007
19502
11242
12074
4929
24043
6093
24695
6075
8599
2743
14894
11891
16406
7310
31983
15515
21657
23371
8226
14350
10600
9387
5338
28315
12768
18471
12286
22432
26039
1319
32682
9179
24968
14707
4051
32638
28811
21482
25130
14977
25507
24438
7491
19260
22943
14911
14071
24373
23737
19743
7687
28215
31075
22359
9985
932
12868
8832
16488
12811
30077
12996
12815
25853
30512
18253
27590
1309
5443
16126
10040
8823
10337
13665
24852
6419
26178
27617
28011
25545
14637
21306
11098
4438
12475
18733
7144
4016
28637
24184
24625
16791
15392
14597
25285
4717
4656
26210
12363
31815
25499
12913
17258
13380
25048
22113
18409
28958
31368
5084
6420
32766
26875
4226
32610
7061
246
1431
29014
14696
5812
6136
23459
16747
10282
27732
13459
25554
11152
19352
24233
292
10012
27563
7814
22673
30225
12380
10249
28805
24312
30873
1722
28029
24365
19425
25961
19226
20382
31739
30994
11123
18128
3817
4868
12464
23587
1304
7746
5333
12374
20441
3114
29659
24397
3093
29780
31749
16146
21819
27581
30833
4123
17534
22309
27118
715
28734
15541
8717
13882
32707
22757
5243
5177
10033
31389
21133
11921
8120
27290
25885
396
28684
25108
30869
16311
6421
21662
3913
2789
31463
4429
11786
15991
1524
32540
14071
11995
3200
30863
26263
595
18518
2711
10021
1784
26810
6838
11819
10750
15518
14435
6227
29753
19737
7600
30585
12256
31764
9002
1796
7058
31559
11009
31351
20118
12132
18281
6723
12903
21393
8255
8928
13680
28956
23536
6683
6932
32618
3991
3762
3313
16433
31333
30238
20838
11239
4166
7344
19282
635
6081
23519
10015
21570
24352
2785
22784
5940
19666
23928
20598
7256
20237
9487
1305
31101
28344
10245
16533
15147
2439
841
18931
29401
30568
18983
22042
30048
7966
22625
24981
23984
15915
2690
22422
10178
26612
20591
10811
30670
32
20031
16401
25021
13377
32588
23255
17633
14518
3978
23428
4068
19664
24344
1931
254
18995
25621
13149
13931
17279
24245
30255
8989
30256
5012
19198
15278
5059
74
17105
28568
9755
15935
11327
17064
4898
1985
21552
6832
947
4947
17384
5501
12728
14664
8257
31496
24975
6033
3639
8176
2739
10196
16554
19496
29592
31678
4960
31213
17622
5017
22346
252
22410
801
13320
513
17145
22675
17070
9810
28023
31240
17865
2013
9352
27905
8861
21856
68
15427
32689
1752
5632
28645
11406
13883
15914
19367
14019
28777
29045
18309
20524
4704
310
30348
27252
1712
12046
20461
11225
30512
26570
3664
8495
18158
9607
6506
20776
26732
15642
11730
5330
25609
6831
14096
22881
8893
12719
4087
12079
20745
9192
7478
18945
28206
25576
30249
22156
23454
22185
4085
18744
176
14452
7891
2595
22167
18687
8620
8809
28821
729
19431
20131
21612
25095
16767
6829
14102
32240
22872
27309
29109
31350
22995
5456
17101
5222
25504
29527
12209
19730
32467
2131
6715
31036
32314
10412
24256
14134
11502
16616
3651
4168
31273
8746
6377
18770
5975
30713
31917
9906
15472
19267
19541
10088
1668
13986
8869
31608
9368
12253
21970
14736
18096
2738
32570
6123
813
6355
11089
11381
9817
2862
17887
30768
8257
30833
5737
16854
1219
11470
24812
960
20967
9980
32466
28934
28787
26238
1054
21992
8889
28455
17642
22381
21940
9694
20243
22089
2131
27295
11315
30980
15637
5058
32719
8537
10710
11904
21970
20701
6633
10419
13626
16609
13926
18397
19218
12696
10437
4460
16800
13437
19372
2108
6111
30191
24070
25438
3376
18974
27733
8728
30028
299
25673
8492
2173
18059
1681
5469
1038
4013
10993
3888
12031
24028
2709
27632
5886
22374
1189
22516
6547
31742
4377
17957
3483
30815
21967
186
8439
23858
4570
14150
16005
15666
21278
11765
4175
30350
10778
29202
29187
11150
20484
14285
26532
11898
29467
17724
27774
25784
7481
3743
11871
25908
26791
26600
2308
22021
30518
28539
21970
19789
24459
5682
25543
14688
1211
26788
11183
5161
3096
32167
5275
26058
25930
11795
23695
23171
6305
31177
31099
28629
20393
15860
1644
31975
19455
8335
4356
6696
16484
21800
23336
11318
16400
7907
25848
5631
14408
13249
21252
22054
10291
25890
1212
5032
2794
12681
28457
23999
10190
9120
4059
8966
15646
8828
3107
9182
14537
5921
20610
25617
29568
2889
17504
24502
8720
9569
26113
1877
28911
9685
25270
18251
32276
18829
32592
7791
9484
13752
25818
2037
20811
20680
9608
15507
19136
11453
3562
3811
12460
26279
5733
26377
5811
8038
2276
8597
30772
29109
11979
21931
30166
2407
6957
18017
4451
16367
25918
872
23514
25126
26379
31983
18879
841
21608
3780
8630
321
15914
18108
14672
7720
21911
27222
29733
21256
1051
32667
14627
16358
11069
23880
21029
23807
8400
1583
27079
20817
15214
21467
7033
4701
802
13427
18899
12588
23141
32736
12073
30864
13132
10290
23646
16556
9471
18752
6653
7094
30061
23439
24453
16380
27454
3702
21765
21285
31753
3455
4841
31418
10952
13583
5140
21989
10889
31306
3631
17528
6502
2609
9280
7984
26550
25613
10110
17724
16261
29457
23140
8953
66
27451
27140
5632
8888
28027
4510
21090
6464
14103
7281
11570
52
24654
14801
28740
12966
28220
22394
6965
5970
15357
30244
13739
14802
32533
11351
5854
1041
27407
19329
18008
11266
14437
23366
23033
10642
4768
24343
30013
18651
12736
6662
19906
11418
8926
17624
22788
21731
1040
27228
1899
32275
14221
24060
12425
27655
21010
146
5276
30091
18564
18301
5979
25621
8406
14835
6127
31668
10797
22680
2623
16195
66
9040
13680
17634
24072
12626
15276
11943
912
3967
20259
7056
13097
22769
14416
9404
2507
15830
4478
15067
14006
27775
23434
30692
22102
4276
20458
14598
29802
23883
5102
5344
31077
21497
12614
500
1812
16231
30661
16729
2178
5000
11365
25009
31001
10283
10634
28251
9993
460
21643
7914
29934
7344
3182
6869
24237
28209
30195
9583
17822
4182
18645
17946
18417
19366
588
16568
10058
29502
8406
29283
687
18210
19767
26206
26532
20689
5310
14155
32404
28188
6347
4254
22131
32311
22414
25681
5026
25873
29201
10458
1555
22753
4985
13146
27309
11777
23945
535
23538
5376
32359
2860
13791
32499
21411
25471
28947
7179
15989
20980
14644
10349
3398
8928
17039
31549
7794
20417
8958
3068
8269
20268
12815
25109
4708
8454
13410
8882
27653
27383
22099
12500
3073
14620
14809
5027
21936
14076
7086
5891
7990
29886
21425
23143
21765
3225
13448
16874
30371
15499
3721
32156
20654
18510
23003
6937
6173
14216
19416
21857
19144
17474
23478
5859
31019
3483
31335
25051
23910
25277
445
4830
25481
14865
7890
12723
1807
10415
15271
17509
10664
28185
11275
22678
18236
26664
8639
14102
11052
838
11223
30133
2779
31454
17763
23381
10605
32273
14159
19011
26830
3243
20872
9415
27638
8277
16224
24569
11884
30220
31540
14551
13577
3025
9548
16277
15359
9890
16898
11572
1562
29866
8999
14166
12613
8117
162
22097
13391
25574
1114
12674
27119
32428
19799
9700
19718
2546
11812
6880
18981
6038
10871
6503
19023
8477
30739
22847
23296
8101
1774
14490
5997
24602
21647
20973
14094
26541
3771
9215
25946
31874
18768
65
18130
9897
19313
13149
20288
15696
14307
7185
19777
21559
5303
9278
20225
7524
30250
20540
17478
4887
20681
22641
432
32256
14041
290
2367
11184
1269
9352
15381
26958
16889
8999
22909
5771
13855
11867
28461
25815
32104
8500
7880
5846
6462
23427
23719
21517
17751
21301
3033
25826
5084
20448
7016
27331
5323
1180
2270
26789
3226
31764
27656
12208
32285
2781
28666
1080
2985
15366
23891
3824
29562
27632
6595
28250
11090
1375
16586
31874
24419
5330
14786
7404
22639
9744
28447
9931
3374
8196
2806
16243
25328
4810
23740
14609
24963
11274
19537
18842
24151
17797
32316
11777
25312
16877
3385
3501
21052
11258
31985
12842
4630
19386
18952
26399
15050
9769
15196
5760
4809
6913
22668
29956
22848
5331
10680
21210
9204
32599
9352
25752
21616
30721
27248
6260
26723
27860
15410
19382
10564
7547
18084
29805
32567
12950
11443
4961
27444
24402
29352
586
27750
16700
11946
29247
21713
29271
8836
11889
20792
363
8873
30489
10302
17569
28277
2223
29899
14925
23990
9053
24497
27659
1899
9907
7312
2061
17868
5532
11767
9395
15242
5777
13515
25180
15959
17420
20205
24445
19113
24896
18711
13040
25787
18183
10247
24718
2773
7452
19680
31743
7374
13194
14541
28113
23759
4196
13287
3784
27993
1463
23385
3445
28810
25533
23233
21002
11420
6995
21722
21613
22958
25773
16217
6283
31943
15945
13844
17647
29720
22561
2409
1939
6273
16165
3038
15606
6231
23784
25349
3438
28517
8090
24483
29888
8240
24118
8464
26606
4736
19708
2017
3408
15131
5666
15301
15078
28884
27335
18605
12013
4804
8232
5936
14000
25560
11542
17453
14241
16268
7080
7090
20136
3061
17197
15132
31163
3333
24164
7808
32687
32011
20976
7498
2638
3705
14086
6692
9897
15082
32361
27162
8112
867
16280
14075
26367
1497
2117
24834
32763
3060
16394
9141
8478
30483
29784
526
32655
11664
8368
15833
30966
27973
18197
24157
3982
10063
27841
2622
27772
18705
20247
14498
23647
5756
25817
32147
31272
31118
32667
30117
31788
27417
8567
5336
22391
22726
23299
23743
11619
11353
17792
15842
14186
22583
27988
10338
9529
3365
16571
4059
8453
32082
22201
26254
28194
20632
8787
21440
21970
11775
26110
10589
22107
32387
31576
23777
18524
19735
17174
1912
28256
26601
20797
12644
8884
9960
10646
27808
6006
31620
8283
707
23791
11700
13111
14886
8739
27198
28270
30281
25509
1587
12887
14195
31920
7096
27923
15769
20084
25612
7289
21121
29102
29383
11344
32552
9851
13920
1217
12384
30318
25074
23819
3773
15584
9280
9849
3506
2439
20470
9106
30200
4427
22834
32655
28463
8532
19522
31250
19656
18536
8624
31508
8738
10868
4987
8991
25075
12904
22440
11198
3306
5704
25593
11315
13203
24960
7933
5735
20346
31097
8777
39
14227
20585
29188
3212
13273
14959
19881
2491
29750
6367
32264
5839
28323
20443
17550
26132
26768
14883
20423
28534
12166
3885
22817
10041
17675
28537
20467
3306
454
2847
13757
9877
29667
5802
4018
15416
31929
552
4467
26488
29098
9858
25886
19347
17483
23818
13447
2454
30149
13651
22469
17616
22908
15685
19697
19334
27374
3952
23850
14312
15069
7073
4828
7492
14256
23987
25922
5498
21783
30376
15658
17072
22254
23545
14073
6470
17252
4393
17902
1548
16476
8096
7339
17587
24595
16567
32497
31362
8451
28176
24747
26954
9480
19496
30254
20124
25538
9007
6591
17209
23610
23063
10837
11978
2504
10219
18337
9170
8244
28514
3916
14304
21275
30900
16256
11273
11412
32172
25257
31125
14100
15358
26749
5881
32399
476
20538
2310
11488
26820
18478
5215
17771
12956
26237
9008
17409
32000
24351
13085
8964
16091
23336
24441
3275
17460
21836
23481
15431
7243
8098
29224
20711
11749
30376
23260
6586
26084
17800
32488
7124
13338
32665
31699
22514
19039
13097
31561
4961
20961
14714
13073
10267
2748
10250
8511
8244
2507
26391
22699
8308
2237
4451
29089
26182
31851
309
29402
23760
25960
11936
18091
3428
3802
17159
4221
28439
12169
1505
30333
22959
8502
1722
13205
8131
8750
10362
1434
5149
21791
29162
19399
32355
29481
18292
26986
17143
25656
29227
16605
16923
12690
6155
23224
12889
1708
2433
3397
31266
13378
2094
14388
19637
27046
27368
26768
3650
6233
17153
30962
17231
13784
26316
501
3932
20408
1374
12009
1730
9717
10130
19148
22497
16264
16976
6518
3962
11575
15886
20755
31834
28337
6038
18390
30265
11738
32266
10732
3041
17508
4646
19375
23699
16287
10950
27677
8358
22162
17064
31624
9585
1610
29554
14990
16491
18546
8695
17740
32145
6180
16310
24271
3336
14591
17827
4299
13316
29818
19499
29584
17640
16759
25714
12857
25263
2588
5855
7975
5002
990
10970
27822
26314
19934
7124
24077
12801
18809
24456
1188
10596
24858
24961
23905
22388
12627
22493
25212
14302
18477
21840
25956
31135
28348
15468
17657
11371
12534
30751
21499
23888
6085
7549
962
26263
18778
23231
10032
30443
965
22412
25061
5053
9666
27256
6065
6886
14806
18379
28751
1934
14235
3459
17232
32333
28504
20636
85
25745
21461
3982
26497
1856
5742
11800
9774
5278
18789
24124
11231
28016
31869
6795
19318
4450
1988
5538
31912
10918
30896
17141
20909
31966
21869
23755
30012
15164
10870
2954
17590
2535
5731
4661
23202
11937
18433
9267
7513
13480
8872
18514
9730
2009
31945
27915
5057
19227
11463
4616
7980
28155
22536
10979
511
17812
14411
7985
1808
11442
19260
3007
22149
28471
8261
10523
21060
1213
14504
31574
5803
24188
11723
12041
29570
19566
4562
18326
28973
15794
15987
688
13862
24623
1542
5406
24747
25465
31452
9403
10420
25336
16594
9154
24104
15175
7462
29000
5968
20186
14473
25354
9100
32228
18293
7273
5701
21879
3264
22195
32290
14829
27250
32420
7295
4232
29908
19245
12571
11349
15305
12659
11792
598
15969
23067
26633
26847
15532
31685
5807
26177
23500
16086
14692
21158
20558
3707
13364
20796
699
31467
14600
25750
25193
4332
20765
8783
23191
19096
6837
18928
7609
32097
3853
17171
15121
26963
25742
18121
12927
19865
24903
14394
31386
9795
12699
28811
11519
30534
5943
517
19690
18628
1096
13939
23555
14478
30442
19659
12666
17640
10467
14865
18261
13452
26513
29049
29193
16369
10273
30668
13896
24524
11266
17932
12571
25816
18841
16219
17968
15570
11575
15897
2165
2248
9800
31821
4326
26772
21709
23366
14242
8100
19212
20098
25413
30460
30597
28110
25202
125
27433
29359
943
8039
20423
9473
24438
31261
8903
31454
2184
14632
2074
28609
5765
14207
18801
22251
16058
2053
21933
11526
28474
29780
21655
11529
8240
22713
8914
11355
20339
383
18958
571
23131
28017
18813
32351
10708
6554
17035
13019
25776
14927
24010
5445
7234
1392
31787
15127
10024
29162
2164
13652
7784
4224
31982
20335
12479
25036
29022
13672
16437
19840
17719
17720
32245
7922
14862
3951
30812
10968
4686
19228
20304
591
2093
16621
723
22307
12511
29079
4055
30026
8201
31608
20308
30129
24440
891
19353
3644
3859
9533
32736
8968
16654
11886
13860
31987
26209
10617
30519
18782
24441
31591
16655
18225
1325
6400
30560
17696
15859
5940
17009
21805
29524
6842
20520
22894
31645
27383
11110
19985
19416
11297
7579
29853
1530
1188
20113
17530
14174
12741
5772
17588
23410
20357
13973
13052
30385
22472
27411
7152
24017
7350
3227
18588
32061
16994
13065
9536
13509
31657
3792
1363
7060
3678
27790
26825
16483
25252
5860
9874
14829
8602
2692
8291
7075
10046
12427
25528
8864
19339
4882
23578
11999
18149
16383
31389
23724
13751
20001
30382
21080
32603
14461
3083
5681
9274
994
23059
177
14132
25284
18496
7926
1602
19271
5106
6514
13913
13209
27502
29412
22162
26757
14886
13191
11913
12869
2619
21641
19458
15256
8000
32702
5075
28437
11841
30614
23038
16063
22275
15181
17693
2521
17038
15201
259
5372
2793
12873
1184
18534
20517
30052
28453
10389
7836
21040
16489
15637
2683
19388
28811
22934
9342
19552
10970
32065
11259
8107
12273
15436
8738
18589
8998
26572
8835
2070
18214
26571
9425
10127
28121
31643
3045
23560
8076
21609
9733
21825
15694
15893
615
19757
8858
19010
16369
11172
2615
12713
14659
4696
14941
24498
12791
25866
15385
23621
26919
8702
8690
2013
13616
7852
8653
24031
3254
31928
1550
12587
8425
27428
14848
5872
27910
1989
30071
29636
24352
29939
19380
24308
32288
30597
8584
20504
12555
12541
20157
19179
2947
18943
28337
32090
17297
8456
9284
987
13473
20828
21748
18432
5070
9792
8007
11596
14688
20074
4202
69
9107
25526
23831
23498
5787
6938
8635
30887
32228
12508
28121
7015
29342
25858
7849
5226
2937
7179
19718
1591
22957
30684
21127
26130
14142
31997
10731
27346
19070
6149
11962
24045
25299
5971
41
725
4794
27903
2878
2183
11020
19728
54
14688
31617
31728
14116
23859
31858
24861
18394
410
17891
12832
22796
7305
30656
18883
27315
15657
30567
32639
8112
16099
9831
4916
19122
12986
30343
285
16985
29407
32523
20994
16540
5247
30514
15279
20840
11232
14851
9638
5257
5804
14153
26129
22222
16525
30173
19194
18024
5625
2851
17342
18068
6480
11223
16063
9850
20004
14858
3930
16212
28375
29799
28697
15826
8300
10939
29993
6845
6295
7093
782
1756
27158
24554
7573
19988
27460
1563
8970
30162
27372
17595
18348
6830
10075
25772
25950
20808
15289
18762
29599
3702
30617
14762
15292
23202
21710
20259
7492
21613
32640
11534
30397
18072
9344
26059
1685
21797
31193
12549
22620
1465
13736
22326
4656
10053
26413
30317
13944
23781
26145
1103
11733
20489
19530
12635
11605
19922
11598
4467
19690
21439
197
11672
25115
20360
29329
25334
29434
5706
3442
13088
21846
22245
29653
27036
20017
2978
6893
15010
17780
12058
15365
16161
25058
14419
28693
29187
8523
8747
10643
4786
16642
506
139
4315
2705
29043
1266
25970
22698
20427
2872
31990
26721
7710
10012
5878
19097
31502
18628
16084
2492
429
12301
16841
22448
3997
10784
17961
22534
13941
19782
26600
23156
23655
9981
32350
6533
20512
4171
28487
20879
21488
7250
13070
17382
25643
21797
28235
31311
15567
15066
17546
24247
25190
14560
18510
31525
12846
1427
11349
30190
15736
8206
6686
7720
29774
24640
20905
7264
25432
19779
30334
7056
2305
11752
11760
32331
1493
1943
29347
29755
11309
32598
16716
973
13071
20775
696
23595
4176
20887
22288
875
15867
11668
9819
13573
28407
23679
6724
1163
30435
30850
25885
6292
26949
28964
31269
4602
13284
19482
6918
29509
14450
26720
24226
7270
10606
30601
5391
11945
11849
8532
11488
27877
4808
1407
32167
27637
1449
4064
7096
10092
10889
21169
6447
20101
773
23340
22580
23897
29472
13400
21117
22101
25828
3106
31253
12266
20301
11951
5980
19078
9314
19441
18512
708
27301
15224
1290
13280
1453
12939
19851
15981
29202
8312
25785
26442
30857
9512
15525
8914
7248
22006
30735
8275
18637
17601
9516
10689
626
32064
5543
11180
7907
27798
30693
31088
18523
26407
5517
8620
20556
16553
23368
26357
5445
10878
3525
12491
25
19521
20481
2251
23614
19103
24261
30759
3955
12392
9584
22868
29861
28133
4086
29186
24084
25197
15913
26961
690
9267
31799
28226
23243
31330
9332
8811
12267
15724
20058
7408
25597
4510
28366
6574
13232
12281
19877
10425
30751
12605
29799
29193
11184
3910
31315
24944
13884
20635
20899
20175
17521
4677
31249
30346
11893
25565
15513
22073
12748
10729
21633
16801
636
31337
10647
17378
30575
10156
32698
8433
22040
28008
16283
2889
346
29706
15557
25054
4005
7755
7387
2643
3170
21764
17441
15212
26769
17731
27454
19398
24240
17566
16961
22726
19935
20423
17633
22991
20547
22369
9225
29624
4264
20242
26772
8317
9066
13018
13141
32564
26261
30371
15962
24643
11595
5145
881
25041
14950
10939
11244
12410
20063
26162
11682
16455
19567
7906
14646
4573
15091
26816
23964
22516
8981
1123
1240
4363
5033
26205
11785
26970
19285
18635
2215
30985
19957
31531
21769
12959
26941
25710
11818
5565
27808
27470
8364
31244
6257
14562
13085
1652
2121
2416
17274
10383
7336
32642
24049
8285
10207
11580
28907
29753
25133
18412
586
24843
26920
14819
18927
6848
20062
1668
21888
28919
31037
13466
6504
11261
24624
13039
4895
13820
23819
27418
24747
25711
8361
30360
29031
30169
2515
10782
13315
6071
25444
27438
26060
2227
19883
1001
26413
11034
22289
26916
14710
7056
2044
9917
2525
8195
26099
26159
28099
733
12802
17253
13368
11902
26208
25548
28864
7401
14159
940
9047
28605
6980
28088
8628
17512
7752
4324
9675
6295
1182
10358
9621
21232
166
10848
22547
17412
1
28621
2961
13183
21494
19450
12584
19874
14612
1351
16774
1268
537
25742
24306
15412
27155
20147
22666
19601
20933
7292
29391
15390
27724
9379
6500
14464
7939
11306
24083
10729
6307
12527
26897
29259
25519
17024
16003
11461
30735
23856
32064
354
4090
31595
31449
24834
17434
20806
24791
15768
13035
26202
12099
4758
14181
467
18540
20902
29402
7364
27108
1947
11809
20158
14028
19879
22004
26784
14161
23246
5783
12720
29047
18842
23226
31467
32534
26129
12705
31898
17697
6116
24706
12838
12334
15593
9007
10285
6707
1995
24564
28885
15758
14081
21187
12897
22857
14332
29582
1026
27291
2725
7157
3311
8114
30982
12321
6583
26543
30535
20208
7126
17395
16349
19794
18311
16025
32766
243
17370
10819
10328
7706
8454
3866
13826
11473
2304
26896
1971
22854
24141
7017
4914
9073
15636
15737
3853
12791
4727
9391
25742
19534
15907
20434
32235
16418
29222
6027
17597
13816
17666
18468
25779
14610
10751
2191
9864
30354
17349
12970
30514
30690
17705
193
28509
23634
21576
13396
28439
22019
9170
6683
8653
28165
13993
3912
32374
21436
427
27660
6158
15240
24523
30556
21062
4260
3175
18421
20090
32335
6102
13982
9443
5162
2624
17837
15886
2530
10418
8652
24716
26126
4209
8189
18156
3163
7311
23772
20966
30438
18877
24868
10969
7913
3168
28533
27256
22682
19687
24405
6079
9808
32347
10612
4909
18152
823
2356
16941
871
21627
22376
3797
32736
7932
604
4050
5017
19198
18199
27811
27753
8708
4060
20998
356
1767
7159
2736
6331
29734
21686
4161
25821
13437
29621
10359
31970
2489
24158
25250
13354
13770
23217
2392
5441
6682
321
23657
1030
24861
4223
10005
19213
26154
1339
1661
6209
20361
7272
29784
11470
3789
8736
27111
17470
15203
12776
12075
30433
31596
19508
10837
7027
28360
25902
17278
27641
20595
20659
12440
29164
16917
12190
15781
32153
30164
16970
25895
11464
10861
17490
19671
17564
11651
13723
31385
25274
22583
13461
21936
18861
14840
19901
18478
19594
26012
25703
5295
7631
5296
6330
13383
1425
5389
20220
20665
17111
13484
15376
12010
7233
8124
6972
7573
25581
25841
28976
15423
29338
5150
68
11886
24078
11014
20994
3862
28342
17520
31204
14420
6285
15737
30046
13150
31550
17710
19743
25787
11661
2650
23445
18607
22515
31645
23727
21498
25224
19902
10982
19650
14887
15426
19838
12237
28876
14398
15369
30195
15680
31081
31534
19923
7673
9589
30376
7622
9019
416
15505
25105
9348
25222
32225
15199
25895
20025
30770
16750
27703
1171
11462
28168
5030
25035
2250
13365
4782
20295
25308
6063
1904
14001
29132
22678
17372
11085
8351
1893
25040
15754
25562
5413
25220
11479
29693
13280
23845
27575
4429
7001
192
10776
13526
1530
28002
23009
21169
31246
10366
25034
4483
13104
12430
29296
6982
16387
29693
12713
27468
10276
12101
12308
15744
11869
30293
23797
752
796
27957
27712
32648
31523
29676
25332
29984
7808
18850
15786
32698
9152
27394
25966
1796
11104
12258
26317
26917
20356
27686
7983
17077
23531
6113
21608
30733
16931
17086
27273
25538
7673
22175
11260
20076
24116
28035
22480
5036
25987
16045
27217
6253
14259
26371
21468
30313
1829
4276
4593
239
13952
15901
24202
1764
8867
15342
27051
30217
18654
32392
20795
17275
7521
28330
19218
15744
9716
26957
13651
10880
11497
30412
252
22866
8271
32072
10939
1722
29033
29259
13828
15407
2143
20395
24160
3041
8242
20402
29448
19962
7925
13435
4274
17188
15931
7839
11691
16460
6092
14098
11302
18342
27292
12359
26324
13042
11261
25243
27572
21245
14611
2032
22829
10346
15496
23192
4442
6578
7298
7030
14245
19050
1234
17247
11415
30661
24943
25542
31726
32345
23842
31385
28912
27942
14466
15718
17664
