25280
21763
11577
28104
3578
3961
3499
20533
16805
12512
3196
25077
15374
9187
14583
18226
23180
13069
19408
19684
4357
12858
31426
32230
31411
23627
12150
3663
26664
14622
9639
4351
3728
8126
13444
11128
15415
10454
18261
15344
13899
9580
18786
9636
9186
28107
2320
14190
10814
7361
22094
24730
7760
2827
24623
10230
28540
7950
5592
6440
12188
17608
3741
7236
23623
8709
15719
27550
19795
23254
29529
7133
27800
31295
30131
27217
6903
21296
10998
17799
26268
28086
9033
17434
30335
21619
27
32203
20273
22092
32522
31444
21717
4193
11267
11642
11884
21570
32427
10722
28247
15968
26366
4133
9238
4289
3382
23718
15190
9720
18671
4772
19499
4181
5000
29963
16538
14681
31180
16784
29530
5484
20690
8700
11227
16338
12833
18376
7048
4828
792
26091
16458
4187
2958
31984
20557
11866
24501
11595
4870
23565
8516
1005
19317
21252
23509
29974
6055
2212
139
31083
27008
21464
17657
328
31927
6916
26943
12887
28194
7739
10614
9058
22580
12721
24143
2661
6340
31859
4342
4328
9231
3925
1597
17035
2305
26668
1270
18915
2736
13630
23456
28548
29482
27895
26951
3935
880
3550
11685
30799
9410
6855
9357
27118
16157
10057
28810
9389
22787
2162
6339
16420
25722
32186
24097
15270
23895
26166
27572
32025
7356
22030
26195
12804
1504
8241
8067
18154
28686
10311
28571
26839
29169
4328
31525
17720
29198
6667
26502
31727
8338
17345
17122
30631
15950
2339
9018
8293
21760
18312
16599
7264
17620
9724
4076
4883
19242
4334
7543
9872
26266
7721
13160
5911
15413
27910
2053
17639
25102
22239
31885
1108
13050
966
12059
30746
3987
14199
25550
26097
12419
27276
2343
14690
28159
1008
23474
10456
8337
18070
27881
12538
32539
18283
4437
23096
7705
32649
31222
31908
29734
20141
31973
30212
1986
491
20792
1573
10834
12960
16934
17778
25704
4521
7532
27076
30533
29394
24814
19836
6044
11409
27554
27856
17817
8181
13738
19810
26146
31961
21440
1047
349
5725
18903
19750
19058
23447
28927
27247
21650
18565
29834
15375
6456
25414
10861
18225
13230
6538
19177
7974
30164
4680
19306
25785
14877
18351
24751
20412
5850
32094
27691
30439
22203
26327
22699
18915
23186
4657
10810
29089
18523
27406
17729
2800
11130
27085
12531
28495
27203
17153
22760
32767
13503
11041
4616
10077
20653
641
26283
1135
26312
32128
28159
29885
13640
7427
12969
28770
19371
2851
27823
27746
13237
12323
4757
14142
11190
5029
1478
966
22027
24093
24118
5679
487
3717
6470
18277
29012
14419
12264
21154
16500
23976
22531
8512
21005
14794
29977
2252
25924
4052
31783
12123
14505
20908
20172
2593
24180
13110
20910
10815
9742
32199
16922
19421
16084
14301
3818
23417
30743
29965
14508
25982
16999
25148
32000
9241
22033
25106
20802
8008
8934
19884
28777
4916
27966
11665
47
4288
15421
32488
4467
3170
32085
22760
32731
20274
268
1679
29885
32320
13568
26775
4416
11307
16168
13222
958
10479
24156
24261
3181
1023
13336
22035
13631
29844
23421
17850
16646
7236
29080
4387
5596
22486
29415
19046
9922
4693
4633
15877
8327
20067
27670
26329
24044
22992
15679
24140
26373
24427
31735
7369
32738
19224
31842
7793
2671
13347
364
16400
16281
16852
24334
26703
946
15940
4557
20779
23063
19310
28547
1445
15376
28297
21857
26555
22263
26006
30517
21144
30109
31541
13289
11528
6377
19644
4940
46
962
13962
20758
26233
15919
23193
6438
26324
21437
30035
22797
4125
20770
29863
19152
26841
17695
1371
7402
1830
18603
2724
23441
25840
21069
13300
32570
17512
22730
9491
17503
14514
2304
25713
12416
9950
4882
955
26728
21274
21189
13996
15281
20006
22314
19494
2442
22280
3454
15745
25272
1280
4942
18467
3291
19902
29662
17744
19187
15315
21708
13380
3874
26982
22001
10879
31156
4904
10376
7777
18780
22410
8594
16374
8384
30253
19321
21523
17720
9113
15091
17826
15059
17715
11049
24890
24988
10601
9497
28403
30747
4144
13880
7800
10014
6064
31324
31069
31417
24893
31962
20403
27787
650
13547
21210
25411
5913
8533
21143
19299
1526
18247
20582
11588
20389
6276
23826
25690
30809
1219
29826
23482
25191
14934
19414
29657
11513
23051
17843
30103
27399
8784
218
13948
18051
21914
13568
21057
25556
24583
20954
7570
6534
66
5239
13842
20544
30631
1746
21408
7926
1447
7592
16089
30559
12910
26759
4317
30378
11460
2088
8278
11885
16177
24318
16311
31198
8293
12303
12482
13125
8918
8195
29005
23985
1963
19578
17733
5866
30937
28067
8691
26024
28300
13835
24190
14338
968
25778
19890
9769
32336
15716
9471
19798
3527
23366
21701
22273
1557
4528
13775
84
6412
20282
12317
13791
21324
14106
16102
6029
24675
25773
30173
30935
23097
3411
27572
12599
10156
29824
11742
20704
11895
26128
8602
3500
23640
10971
30253
31830
19314
11146
3182
27113
1520
13737
30600
27000
11499
5885
31484
27152
1677
791
10725
26859
14199
30505
2944
5094
11105
4121
26859
28725
28928
1748
10285
22870
3373
18149
22647
27715
2371
21318
21418
13036
16585
28021
6424
9188
12881
13003
17807
19035
22431
9226
19604
10828
18702
19253
22252
13559
12336
29604
27233
24978
19893
10327
16066
15932
5774
27787
25644
3378
11346
25227
7816
16965
13536
21705
6741
29836
21830
21805
24232
6230
21473
26285
8304
5474
9670
25886
23295
3411
27489
8009
20934
26206
8284
22338
24416
28230
706
7413
13779
10634
30053
14082
29714
8925
24957
3531
13510
20182
23441
19658
31309
22505
3995
11817
7171
26262
14439
9356
6337
14816
9788
22322
29348
9217
6334
9276
30736
16220
28691
7500
7668
28595
31045
12882
20303
922
23015
32419
22003
2603
24316
27724
16521
12540
13076
8613
27093
15950
16312
27945
1339
31623
15880
9092
21634
9187
15011
9198
27353
11110
4295
30392
8471
29205
8378
14884
8007
14181
17768
20858
8036
25076
19789
2648
19809
28535
31381
11338
26732
8435
20098
9882
2420
14129
9231
20586
13033
21356
24019
28415
3523
20556
11047
30304
30661
10008
10379
14368
18179
13607
24390
29816
26274
30103
26701
409
12511
834
13926
32063
10834
30446
19341
15498
628
30148
23959
28170
32096
1028
11797
8728
10966
28662
6523
11629
3717
26916
8578
6637
7562
6086
30410
6596
13620
18558
17860
12468
28426
69
19151
1965
30223
3237
29089
7839
16708
25642
1001
20620
22383
27411
11058
24033
27
28748
18955
28934
1504
30369
28773
20788
28132
7724
28476
14215
18594
16911
20346
31316
32746
7785
12312
700
17961
4738
20358
16513
2795
21321
17485
4121
6302
8705
10483
18177
16281
23351
16158
23124
12893
29175
19965
21404
30490
11071
16356
2024
4725
11700
17206
17695
20360
14740
29320
27027
18730
7404
18435
6617
6257
14347
24586
2265
19574
9782
20253
1569
3928
24221
3838
18047
7300
24974
18194
6862
27699
17897
29705
2320
14388
15060
12994
31677
15851
20911
12904
31579
24986
9291
4578
9807
5855
11094
11370
23283
12926
22810
6523
18408
2401
19560
25585
22190
221
12238
15468
9329
29751
6416
10997
32038
4967
31958
996
3287
7963
2723
9216
15163
9727
1286
14313
25994
10044
27156
4787
27279
15934
21
22484
15615
15291
6782
31808
28681
20465
11040
25298
29230
10799
29598
6126
27219
12694
27428
28773
27413
15137
11350
3992
28764
24803
32647
6369
23347
24208
21804
4142
24535
5951
17552
11759
6669
10350
25289
10803
15289
11847
1514
17165
2477
7458
18554
573
6847
21578
24869
1548
3358
19972
8882
20856
9702
4301
14389
26513
3825
17892
29062
13859
9969
6408
13297
5013
6075
17795
25391
21521
9958
29799
22165
14822
29845
20504
11916
17706
7313
28938
7745
9891
28059
1996
32158
23016
11008
26694
14200
10947
3181
23103
26634
10714
28677
21282
16290
21646
29361
32001
32154
29732
25271
11994
6026
30754
16527
14873
24764
20476
16882
12639
17888
2032
2867
3202
28929
11567
4818
19925
27064
15677
25423
3241
1440
9370
12092
2323
15625
4258
27542
11504
14321
6322
25685
7719
10032
652
32578
17966
15858
9725
8457
29392
24426
13245
26767
29741
21701
25494
13445
23554
8029
19912
10046
16938
15152
29613
7357
12901
26000
15257
18195
10073
15388
25604
25832
14038
18414
12779
18007
21342
18710
24179
5119
18149
22087
2000
3158
19157
9425
10597
11073
24917
3279
24364
28642
21451
7586
30809
13489
31391
22174
7482
19919
12867
22530
3170
24983
8560
8238
13062
12149
13490
10512
9383
14587
29478
31200
13809
305
4226
269
16100
22061
24663
19063
18481
22756
3731
26078
10215
14144
16714
4506
20814
19571
1974
32141
23571
7050
14972
14935
1702
22597
12592
10440
14305
29222
28956
32155
17386
21960
14653
11617
30810
22642
3983
21691
13215
492
13195
28876
2975
10385
6637
31726
18333
5030
21946
17060
12641
6122
4738
1233
403
25198
994
14119
27497
26023
28238
30945
2946
7362
11533
4533
15889
6455
22917
3076
8253
3745
30649
16213
16584
20685
19472
24321
17391
30737
15960
24879
32402
8159
28170
20995
19605
29593
23504
26387
9862
32167
19524
26395
14976
27848
18427
14833
3151
17317
23746
13499
24788
9900
1063
30303
30891
15387
21308
26683
24076
21083
22423
14103
18927
16528
17821
22615
25716
13678
23553
28533
25729
26702
8327
10159
21165
24705
23054
22013
29533
18148
27597
30534
7212
30132
30173
24275
30865
15012
24311
10500
444
32557
11136
17986
11712
19238
17858
12852
6647
21908
7037
11062
13474
6083
13470
32263
10705
5782
10062
14785
6019
22043
3374
24591
19725
11106
24033
26010
6592
24720
21196
5828
28358
24367
14361
13465
22605
21704
20226
24066
4584
1460
9548
6460
14897
16943
1553
4489
27060
12718
26563
23846
12552
26739
31598
24444
16959
31582
16701
7066
18817
1542
17984
2787
14579
22280
28524
19460
3037
13983
30180
15914
17677
31605
30839
23665
11382
25017
18025
28063
4125
22642
18294
23570
3126
14611
9492
18935
7817
7503
6393
13757
2331
18222
1245
17097
18443
20321
14209
31340
7866
3539
752
6418
46
28800
2052
15292
22201
13450
23341
432
28373
13705
26222
30318
2387
18211
11432
22503
22709
19678
21019
3306
28120
1073
3626
24543
22486
13537
27230
20919
31530
15243
29358
6435
25621
8828
15102
8708
6209
15561
24037
8483
11173
30621
22707
4131
7336
21965
26803
9652
15241
18866
19885
7689
8446
24887
5551
26507
30747
30769
22029
1999
8054
25839
30119
19653
25993
21266
27754
7731
25687
16543
7194
866
16467
20819
9806
12568
20093
27703
25532
13253
26062
22388
24758
2561
24534
18023
757
17206
3236
3576
15510
30362
7654
29480
28770
9825
19793
18410
27474
25392
16963
18996
5970
17364
31399
31061
19270
1332
15130
21897
23627
26244
19019
15819
21567
5564
31656
24554
29059
16457
19767
28383
21503
7170
7361
4958
31591
31837
14390
19115
31421
18403
19789
10159
1304
25057
31851
10827
14243
23649
4806
8428
17640
1624
12234
18528
25935
10785
22972
7656
12513
4138
17821
6030
18002
6638
22097
14008
25407
2339
5888
10494
20916
18228
13501
27449
20209
16625
15205
8924
20334
10886
6602
8584
17436
16297
12561
18138
17646
21528
29529
13448
17560
18499
21918
2220
12695
13893
6364
4703
10353
27417
11895
13450
6974
11
15322
27385
4711
10348
350
9649
27310
1930
10350
28292
13422
8928
15594
3298
6180
17545
21960
7154
25647
25083
12545
18145
10196
23281
18091
8059
32645
9385
5986
17144
30307
13648
14829
16664
8449
17339
27679
31090
21867
12119
11002
25352
9319
9315
5659
29216
30714
20572
8786
4175
31534
15033
24464
23255
12051
5593
22022
6963
20740
7226
16011
11759
30251
19947
6718
19389
72
8772
28013
26822
20397
468
8630
7742
22157
7323
21356
21051
29047
28793
3645
4551
10526
5095
15633
20787
16731
6373
20788
1711
14709
7219
25784
21272
8607
21700
23573
11537
27074
14192
19219
16981
3453
745
8426
844
16747
18416
24487
3292
1444
16841
25297
25729
16774
4844
31053
15008
19637
14845
22143
10008
2400
21246
7858
5147
29638
30916
4794
19260
19193
23207
7895
22728
14050
23166
20701
14682
3974
18123
31122
1450
10631
1330
32088
4262
19438
16688
6156
11204
13095
29449
6189
1430
17741
21250
21825
22175
23465
3281
25972
20581
17781
18258
22147
711
26597
21627
28120
11153
8040
7570
13303
9294
17963
8093
20248
25181
990
3099
28949
15687
19132
25073
23687
28496
9669
4775
17708
1100
15438
2004
3981
10932
11964
7383
13277
6905
12429
24776
18467
2328
920
13487
30108
21615
14485
6643
23898
27087
22751
17685
12338
3026
23929
18589
32213
30063
5967
27733
32573
2763
27839
1206
24651
3154
4184
24224
19630
7
5346
4942
17414
17688
670
22664
31049
1462
20943
8474
16742
31523
28280
8582
21801
14349
10600
3318
27231
27930
14964
7796
26682
23492
14340
16989
15095
27495
10193
29715
2749
5272
3308
9203
22985
5817
5891
14727
19912
11210
22240
1532
10372
11906
7218
15062
13251
26271
24720
14562
9324
28538
25531
19308
14572
27870
23843
9139
5848
538
26285
10394
11220
16213
1204
28320
5555
31010
28494
27666
21984
15957
208
15744
21500
24596
28052
3693
29640
16433
10489
31306
16966
22967
7084
31142
32283
14274
3878
12191
32568
20116
29302
11164
16825
27366
23617
29502
6157
11132
28167
26771
18520
14588
31911
24717
6421
12288
8742
32179
4352
29034
7340
8983
28211
19704
7887
5000
6287
14872
29972
4360
4957
4861
9395
4225
12853
1522
26523
21939
5407
12526
10678
2929
12281
7017
27502
11277
24857
623
11632
19985
23347
10995
18864
10543
26236
11877
23981
26491
15631
30087
10742
5848
1680
21884
2797
20144
14096
801
28363
24041
21809
20641
27876
5396
27531
26948
25133
231
10574
32648
14075
10477
30248
8563
12813
9852
32105
10023
31949
10216
29797
28599
15571
13302
8217
24633
26283
16787
24082
22813
11736
30662
13451
5565
13848
10724
11734
10804
27114
25603
765
4980
6734
7088
22952
3475
19404
22757
6465
9318
21687
27445
6999
12881
12467
32586
15168
16733
11637
10385
2307
651
21706
13108
9077
20329
14299
21065
32161
27106
32687
32329
4973
28250
26353
6083
20859
11259
244
8785
13390
22345
29172
11212
25262
19197
31903
13244
18253
19216
2259
10002
28074
32278
1962
17434
9782
4301
22708
31403
13750
14326
5251
7329
5096
1123
24685
29324
32105
15698
12173
2218
23766
13561
5387
18451
20273
19298
2973
12340
18311
4985
22094
17534
5584
20068
24191
607
21783
12562
13099
29554
1243
10263
3439
12275
20916
3511
32329
25973
20794
1600
10656
13783
13602
30366
12932
628
14762
18729
15544
30618
21304
29889
10093
27710
24381
31261
25937
27117
23648
19296
5576
28934
28121
20973
17273
19751
11802
1661
27661
3557
5301
20335
13619
30656
29562
6495
29416
341
20191
24057
25333
12502
5542
3343
16825
28088
31673
3050
7208
6827
31833
16094
788
3023
18295
20769
940
11557
7778
11998
2370
27972
25507
25988
3153
16461
25125
24164
12990
20256
3994
10107
17758
9936
19993
16012
7865
31829
28940
4723
30477
22657
2377
11957
12694
16438
15487
17755
3853
11477
11220
2817
26991
26873
11724
6442
23807
9574
24429
19158
654
23100
20641
18263
7930
18545
20443
12128
27637
12157
6397
8287
24071
2903
27514
524
3030
28321
19383
21058
6822
19743
29624
25359
21532
19054
14072
16135
18759
24819
23960
10205
9953
29969
15036
25396
7889
10399
563
18866
2805
665
8534
19542
11551
16149
7986
25612
12381
23417
18409
8063
20350
13036
10069
17199
17617
16138
5871
12227
26416
20700
25327
672
6205
22023
19125
9402
26604
32323
24680
15274
4418
21775
3037
12546
13404
9124
13498
17373
29106
12071
22491
22714
19101
10018
3060
31626
27415
22581
14712
18439
16578
30473
2490
11336
813
6022
20819
14738
4434
9286
31171
30578
18531
27209
11867
27912
14278
3306
20570
21670
22110
30225
30294
11674
7436
5803
31453
8263
10869
2903
24157
26747
21510
31074
65
14844
18486
14326
29533
21348
9739
6542
29068
13103
11744
27053
12951
8979
28517
29392
10841
3472
6375
8353
29217
20935
19410
4717
24920
2447
6772
12760
6500
30150
4867
8656
2251
1253
31714
6591
10652
10199
9504
261
32523
26892
29506
24229
5723
31177
1858
28990
3841
10690
10199
830
28166
31978
20471
20306
16557
21386
1690
2337
21078
22672
25538
24121
31138
10794
26296
841
16600
28820
408
8594
28039
22319
32271
14488
11117
7122
8036
18461
24216
10340
9653
22095
24779
27307
5764
9793
11811
24159
28274
12952
17658
32131
8265
16519
15628
2805
1344
7933
23000
27459
8827
26140
7242
32704
26578
19182
6038
14295
19411
23379
3431
19616
26890
13886
5433
23217
128
5153
21251
20023
1409
13222
282
21829
5794
32416
20818
19563
2051
31553
26982
22923
25298
23949
32410
10472
32272
19726
21662
128
5272
13002
9142
7580
31837
9074
10776
4261
25331
14812
27797
2873
13137
30131
27260
21630
2261
29294
18620
22454
21384
2686
14408
276
4516
15052
7104
23758
16979
23138
12365
11380
30138
31336
15821
26240
7734
595
4656
21550
1765
23641
19489
16782
4969
17960
14569
29655
11496
6615
18833
23038
87
8989
25415
11143
29177
21697
3844
27036
27170
29265
19563
30300
24385
535
3059
13941
16669
6985
5192
28917
10591
25728
22255
24925
30033
22123
30761
12279
11493
5829
3611
17514
23289
32644
23339
9868
15065
9812
1965
24951
24326
30787
7871
7391
13622
15806
21105
24739
2971
6844
19242
13985
31592
24377
1607
7887
23698
15334
2052
2440
9939
12063
25760
19491
25589
15901
25788
17354
5965
20077
18693
6793
16006
13216
28946
25254
20384
17733
27023
31793
22583
4372
9628
30939
8713
32108
26480
29196
179
28672
7234
1327
11451
19661
12137
27217
20435
24911
6338
22762
9820
4084
10834
12026
23082
20433
24876
3672
31367
21651
15765
25671
13690
29369
26215
3915
13897
5121
7091
5947
19772
20512
15530
11158
17572
32182
25790
23578
1820
20353
25604
16275
31503
20945
5853
31986
14202
23612
24789
27294
30195
19346
20171
14351
26091
6164
9299
21912
17712
7136
22616
3716
25013
7600
17670
2405
26774
29636
3814
8873
9815
21277
1867
21870
7277
7916
3566
9880
4095
19530
13781
17952
30189
11817
12665
23214
24594
15755
18983
11115
20422
12786
26279
7184
4519
32279
25884
12100
1690
1246
19499
804
32268
6794
5983
31779
1406
9773
8908
4628
20800
30563
31219
29573
8828
9280
3558
29519
20087
903
5805
29803
19220
5917
9191
18439
25754
31421
8372
12761
182
10988
20179
1716
4804
14384
32008
6489
9546
14973
31937
27023
7365
6384
6904
18806
6057
31168
8283
27928
4003
28273
7339
6209
8225
12362
354
24209
5652
266
20376
10703
11508
983
23847
31360
7429
8823
29966
5816
24282
21186
22291
6961
18455
20567
23213
8858
25979
7823
14624
30513
13853
26287
17130
660
11253
1634
1118
28628
5535
25190
7567
13260
21852
20869
20847
28593
2394
13255
4152
25066
2357
2534
267
22817
23741
8450
20183
23962
4090
9878
15485
1219
2157
14507
17458
8973
16281
17995
17956
20475
1730
21561
2656
28792
14325
31199
6643
15214
30792
10888
13135
27796
28515
7887
24049
6536
6207
29271
24897
23837
3886
18877
8890
19702
284
5323
12106
27988
8212
16623
29692
5932
16646
28651
27092
1149
1735
1741
14586
30432
15961
10530
5916
11361
20589
29799
25869
5773
27686
4032
20402
1996
20256
25581
30750
19185
20145
3961
26364
22800
1646
27444
20269
8591
20465
13028
25523
6272
26586
9784
17614
32558
25620
13821
18532
6902
24410
4500
8614
20057
32249
10404
11249
18511
12247
29964
23794
15837
21428
8476
8718
25065
8112
24068
11521
3918
29453
32396
29637
22828
30007
10758
26549
30081
9729
15233
10226
13822
17202
8512
13062
787
10048
20587
23495
3405
1371
8451
1406
10465
9901
9755
27465
1929
3297
22086
30398
17550
7650
6220
27089
30502
15589
2081
24568
16129
29865
2071
27277
32543
5885
29266
19571
15076
30084
32380
6396
18798
6069
12219
14858
21286
4645
24288
8565
19861
25353
13538
10669
27002
30710
10634
27041
10009
16620
23151
32735
1237
29843
20005
6396
31745
27076
30642
13622
16372
10827
3649
29016
29531
8940
3355
22238
18388
5284
28626
30554
15288
11056
32447
22294
27191
23764
16303
27387
8619
30549
24282
11697
13350
32327
9237
4104
13901
16015
18504
18583
8298
15136
16161
18083
1468
22280
18698
19522
22034
24752
24921
29631
23960
25183
23751
9281
30448
23553
19492
14760
9092
18983
30537
25528
32283
7758
1101
121
15275
3172
7932
30173
11886
20872
13444
20132
32568
22546
6002
7805
4360
23763
8157
29038
17117
31134
7137
19061
971
14598
9296
30064
27981
5994
10659
12346
22493
5423
19767
28439
7618
15949
23222
16466
42
19213
30162
4900
25208
15889
20538
26072
20447
9108
31686
7981
32560
22003
11509
5884
18672
27500
410
4634
17326
12582
8146
13696
31379
22386
16697
13481
29243
13137
32350
16188
28611
14646
28276
29163
13860
5389
28490
20123
11711
891
10621
32709
10809
20584
9452
27420
17032
7867
364
22384
28494
23908
10173
10706
25446
3488
1725
32249
21181
15992
12508
7652
7012
24971
28112
7361
1251
23822
5258
6414
2511
32529
16744
27134
24479
13828
15532
15390
12475
12921
9517
24888
15574
22060
13132
22391
21374
5184
10282
19405
23793
9931
15640
7058
25907
15765
10063
6510
23901
2589
994
6520
1848
19677
16368
2207
16138
18383
20766
4938
6064
14896
21060
7995
31981
18820
22631
7353
20482
31706
5096
29422
12927
10065
4602
2958
29528
31451
12889
16825
21051
1089
9530
14371
3361
22376
1405
23154
27684
15058
25386
3559
16272
32103
21019
21825
1084
22902
20726
27614
8731
2295
7263
7204
30990
28435
17003
21791
12284
31462
2647
17259
31269
10115
1146
29013
18099
15672
22136
12861
3730
14356
6073
23871
13442
30631
21017
6930
11115
7177
31457
19247
22256
13342
30711
17462
23110
8471
1361
29582
18759
21308
3759
8268
28610
17385
20874
21847
8982
20695
23367
14025
20991
23709
14257
18072
18095
22647
25510
23669
20257
6981
22544
21748
16298
10711
16664
15342
977
21607
13718
30244
12640
19815
715
11812
20923
7550
24658
2161
21873
6349
8276
25310
26129
14710
12284
9019
2623
863
31786
22835
20486
21811
3692
14197
29040
19114
30250
10258
10068
5131
21024
38
7792
26351
3601
5819
17079
27719
10426
17130
21740
20384
5638
1347
32368
21414
4480
24688
22361
4071
29965
9492
4803
15322
26587
13561
17771
11040
31125
363
31354
24329
32217
18655
2718
20826
15339
22489
26975
23630
18091
20748
23729
25562
4292
16578
21189
9269
4391
32638
18981
18840
3000
10208
0
13635
21062
9162
22722
5056
4545
5313
14056
10347
32679
7062
13331
29234
31680
17221
28763
3482
31243
4893
27621
30722
18680
3105
7864
6188
2007
5551
17100
12281
24977
7519
1124
7028
24470
28206
3230
274
26902
732
6729
22329
17012
22418
7414
25342
8440
32456
1618
5171
9924
32102
17843
25249
23305
12841
8688
4242
29306
19529
25974
30355
31745
5465
4248
15479
17841
4718
1575
9119
3581
16515
26179
18041
21799
28700
2928
28999
25339
1066
24045
30754
21692
6191
28993
11838
18271
20898
8214
25199
29175
24725
6730
1260
17521
29589
6468
23124
24193
8914
11908
24558
29404
5760
24702
17717
27304
27772
2473
7828
23856
8499
11731
13678
12253
32704
14775
6497
29282
23892
24785
22220
19254
9179
3441
30350
2119
28636
5903
11025
10221
17825
13022
20104
28188
8601
21155
5748
23007
26618
26056
8301
3841
30634
12460
15391
2061
25696
11838
5779
9338
7175
12234
10928
26399
31587
12051
6913
30957
5622
1697
22712
17372
13605
1116
15347
14886
21143
2650
28991
7604
4574
12790
24666
23509
32089
9506
28734
20790
2648
8702
19546
2575
10370
23721
3875
21146
24692
13142
30155
11209
17835
26787
336
30776
16292
22567
10425
30049
28225
22858
157
21775
11631
17498
31716
2837
31750
19931
10705
9023
18929
11294
5441
13193
29070
15125
10541
16015
24663
4709
15990
6725
12995
16829
14050
12008
18279
10086
18785
8756
3425
5404
25494
17112
4598
14109
17554
18471
4474
29055
13539
14864
3952
10182
32717
5456
14835
8886
4567
32742
7253
2150
24714
8647
25861
6806
32629
30164
17078
12098
1652
9993
7357
6008
11570
19959
10939
26726
16365
8820
12157
23223
20857
30097
23328
13344
20104
1996
6265
28469
22056
3975
18868
5506
31629
953
14394
32727
21777
32484
15321
28899
31865
20039
23839
15876
25722
340
30470
31326
10108
3428
7127
22571
13213
22954
16712
13393
30713
18277
30695
58
30505
2650
12732
32224
25353
25986
23594
551
9662
8192
20759
12656
31736
18005
25421
27243
1141
3031
2591
21292
26823
24672
28751
15490
854
3651
27183
20356
9896
29828
5895
14700
27104
12616
12727
18857
7813
20618
21661
13871
21381
21264
13497
31250
2426
8605
6159
595
31787
16489
2893
7418
9558
22222
6830
24164
23725
24388
4638
28895
14622
5007
2207
628
5975
26935
15083
17668
27018
12857
31067
13463
13421
13820
11527
6128
23942
22150
14383
28517
11941
5616
13786
17901
12978
4119
23740
6267
20392
15509
2397
18314
16866
3312
13176
18169
23702
15120
21153
26
13215
23543
30251
6662
4735
2732
5193
7219
25764
16248
21619
8008
29418
10069
22796
47
6754
4004
19521
18796
24658
14878
13364
18094
1916
11533
21082
30372
2723
21436
4641
20242
8268
812
19159
1828
11202
14088
22727
23554
16220
6875
20901
932
5122
13185
22572
16872
6638
15580
21253
21474
1712
4040
2795
9587
1141
9296
29709
1309
26248
1058
9907
18965
1817
16704
19237
8346
12862
17657
31945
28806
16951
2840
26763
4643
20726
7515
10881
17727
8927
25382
11983
7811
11980
6521
6601
24320
26452
1824
31576
27147
10573
16681
20895
19787
29583
5019
7902
3856
19451
25189
5782
14054
30140
5781
9710
17515
23757
27594
23381
2141
23227
12780
29033
5111
14509
22298
279
12926
4769
19940
7940
8471
32760
9147
26668
30939
9525
23461
16842
32557
4866
24886
20599
20555
5748
10171
27285
6180
24207
18872
2542
19818
6925
15509
153
8935
30811
27796
29982
8980
7397
21766
27097
10728
2963
26815
21412
12526
3987
24263
944
8602
5466
14162
26804
8669
5349
3314
27466
3831
28997
1548
27029
6797
29018
31369
5672
15867
13791
8653
15907
30699
20646
23789
15007
2087
24869
28956
4429
7595
23090
18023
2137
11007
21771
32419
12693
21699
5529
30883
12499
11915
9206
5038
16786
14830
7980
18223
16350
23514
11584
25263
14449
15402
11375
2561
17438
17275
2487
16828
12912
11067
24729
8175
18318
21506
18462
29967
4449
22054
28952
308
6137
138
31146
2437
27949
14774
6666
25073
24450
30509
3718
16161
21583
16122
25285
25770
3358
26509
592
902
23636
2501
12880
23749
3349
22862
22682
31872
610
22317
13288
8463
20868
4761
26985
8827
23470
27661
2941
28214
10974
3739
32185
27402
5636
4995
23090
22864
28774
1028
15352
866
18499
11634
4832
21075
30902
31625
25735
6877
4830
19713
7827
13978
25148
30306
24124
15735
4188
26394
20748
29543
11192
9421
4834
15956
5593
4332
11581
14427
7359
11401
7095
12856
17283
20074
31184
14847
32315
32604
15853
31246
25886
28873
9633
1087
8937
16781
14122
23906
8833
1286
31807
23786
16345
16490
23049
13542
22
21086
10863
13875
5361
30916
31382
9456
12125
26836
4776
12595
25962
11630
10965
26618
12138
16302
29080
12389
16466
3522
18236
10530
15715
25592
21150
31272
6409
27675
21300
28328
5379
14080
21582
27456
12228
1116
9628
5235
281
15576
15601
14678
18957
21096
25926
22155
15370
31448
24322
17779
15168
30888
21881
27552
8266
26137
19890
32393
15631
13960
29293
12162
10471
25083
24932
21483
6144
28410
24018
23975
16895
20128
3122
14288
7146
16113
6985
23464
26949
10094
32358
12755
26747
9191
7401
5060
7808
12689
6914
374
1461
12888
8123
24412
9228
14966
15417
20634
19564
23621
22590
373
3927
26193
18419
30216
7882
18354
28389
12601
10596
3737
5197
18412
28875
13608
19604
13431
8012
12423
7190
32341
8385
30260
14119
2590
696
27546
851
9654
8145
29670
15850
9413
6760
4118
27581
8552
27252
17746
30242
13607
687
15744
6462
15910
20728
22035
1923
1183
7669
4387
26231
21647
4092
7363
2231
24496
21812
25743
2364
31656
14583
24964
11230
4224
10363
7189
10006
19287
27314
5242
15112
26968
3950
1356
14785
12009
22985
13391
25789
24357
10692
17807
17324
18317
10542
17582
22645
13306
16328
22652
21628
24279
4774
21704
13089
12684
4824
7798
23945
26941
24394
5586
15264
29621
32233
31524
22110
6301
12295
389
28490
17138
26113
1008
12605
32438
5663
4252
24169
32485
31419
16009
8089
16298
31654
345
22714
6355
18119
28514
9883
21635
23557
11777
27121
7718
4200
30769
926
23978
19578
29532
9779
21229
2548
18033
24755
1393
21654
10038
18074
23639
21079
20960
22813
29323
5822
7905
5556
31548
17808
11009
19926
19087
18603
17840
11267
22164
7474
6554
2568
17529
31722
17277
31871
22013
24804
19255
14229
19240
13917
13092
12560
3129
9954
4518
9104
12257
23224
26885
22292
12718
9338
12666
21185
27850
24836
18822
23519
12005
3728
16520
26149
30576
24351
12175
22838
14092
18971
5229
20331
9026
24890
25357
12755
29300
27813
16646
21880
5139
4698
8047
32228
14611
3278
9974
26852
16540
13527
10796
18316
23811
25290
4643
18555
1272
27360
31035
5985
1281
14559
26681
30142
17703
20214
27033
20716
5870
11240
26406
31071
8075
23661
1479
24364
12882
15317
29596
30664
12142
10222
23625
12562
15060
11304
30610
5524
24442
26615
26153
1542
29379
13433
20675
11284
19518
19801
32113
2658
9617
243
20270
19916
14000
11192
25524
17394
25171
724
17301
6900
1702
29199
22662
20090
17986
4337
7678
26104
23900
29482
16384
26672
22332
22577
7220
10232
14321
32298
22845
20029
28228
7181
2119
17736
8682
18181
1247
26944
12798
18198
1800
8688
30638
7939
7051
18891
8500
19311
30350
1581
14600
32066
21608
29924
11603
21326
23732
21231
27559
22323
15268
133
25838
16767
26009
1626
3489
18714
14576
29
11835
482
29214
4165
6124
3730
9727
16653
4497
10728
13931
30397
4324
19207
29963
22316
5104
26906
26730
19075
11977
8762
26447
31043
8569
18834
32331
27530
2621
8384
21390
11666
2034
16511
31998
7546
24778
29827
31883
17993
323
3749
22204
27696
26458
30016
30606
11791
19963
28891
22911
24635
11453
32008
8934
1151
24524
8331
11653
864
3110
4287
11361
2725
5131
9270
25554
13591
12206
22688
10198
24454
32305
28654
5290
20236
8912
26807
13724
3222
16989
21978
3611
6559
29932
22885
14608
25151
32719
18101
4721
4197
27589
12255
7954
9312
19310
25167
9919
30373
17922
5807
13449
1740
14915
22539
29021
15323
3504
26162
3291
31175
31740
5983
10340
12344
31422
32024
30837
18061
1386
20567
4148
2336
25984
26856
2889
31691
19203
17426
2543
13739
18733
24185
13131
10787
2913
25923
12796
804
22113
634
24307
28844
10689
18609
3717
4493
5532
491
13246
22896
6277
26040
19961
6169
6592
31393
21677
1517
21427
9926
5514
31153
17047
13254
14533
11156
27507
18911
24496
10608
3915
9815
4493
24653
7828
4378
27300
24359
236
21924
16787
14065
1288
17185
14054
7129
3310
30675
25319
11214
19044
31669
5559
32319
8104
28254
23966
24870
30817
19495
18336
26438
11990
3728
3665
11184
20830
11232
10986
28300
23575
14860
31899
28438
15067
14554
31267
9959
10096
18246
8607
19062
14335
18469
6815
13022
12744
14856
15999
5346
29715
18019
31477
10542
3946
19439
17126
10719
23813
26700
382
18758
10886
17643
17279
1513
19943
11051
2777
32715
13744
9154
124
13038
18797
9567
30826
15125
11871
5774
31760
1230
17522
9947
20182
4016
28527
17210
8437
9698
115
10662
25736
11485
21408
24585
30951
29554
30226
4700
8240
8462
26644
7183
29478
10813
20372
16555
18239
28269
11989
22454
15096
25333
29540
28631
23660
28501
29005
11578
7717
24255
7822
26422
3634
2775
8908
18733
889
9144
3909
31412
13647
14647
21254
4852
28998
26987
16222
23376
25414
22637
12434
9545
9184
21852
11986
14238
222
20644
7020
5815
13343
1920
15936
11331
31906
2238
18292
4641
19936
30403
6505
1148
2399
10958
28397
16187
30340
7553
12722
19096
27817
14493
5374
31502
25455
30221
18597
10361
23893
28710
22581
24697
24714
18221
2672
6167
29184
25
21759
8363
18114
16539
14436
25597
8071
3164
6193
11178
647
26502
25463
30665
18317
645
8578
10447
10830
21263
14019
176
22265
15969
30222
16199
9487
14540
20998
24056
29813
32369
17109
11924
24776
18761
13344
24956
16112
10344
3897
14090
6392
23682
13719
24620
7196
23982
32644
21074
11556
28266
4886
4747
5873
24543
10080
15338
1878
27495
2025
17711
20009
17741
27742
18851
4761
19668
30851
22852
29377
32122
30831
5154
16766
1405
11513
5385
22142
9631
15470
28512
9370
15910
7045
17489
2662
11560
660
13099
4358
25093
17155
10500
3395
18997
4353
21410
22238
31556
5495
15260
2595
15898
23610
18876
1986
24448
29317
15272
9947
27104
18854
19393
19800
11340
12791
4172
25215
12994
528
21968
20423
5039
15931
30910
1003
14001
21545
599
11326
30881
16099
3275
6206
20689
9986
12958
31595
23442
21283
3408
346
28154
31894
1853
26629
5860
23638
1218
5221
12599
1086
10401
21827
27500
22649
14247
18507
26698
15675
24460
5474
23796
19630
25882
29753
20518
10544
32145
12322
24252
16315
22347
7715
10612
3748
5532
14665
20468
17545
17404
22847
7439
19333
1128
14111
18500
5285
32005
13448
28807
14240
18695
6385
13381
15042
28881
14653
2722
5930
11613
15759
16901
19765
31455
31071
18390
7482
16037
2510
7558
14456
1090
11830
7888
32332
5611
3846
32063
6568
29729
26317
5361
4800
28817
16788
32410
10502
28728
18033
715
2393
6346
16217
21109
13433
27989
21302
10409
10687
7713
9785
14753
10763
4060
21618
4868
9981
24051
31390
20838
12904
23619
16704
20238
515
23537
7667
12285
23394
14230
16126
28460
31781
27296
21801
20756
21104
14325
12239
24435
6555
9177
24373
21070
12074
17681
20762
2610
13311
12616
7055
32704
19918
2227
27145
19561
7378
25841
16565
12405
14782
12085
2571
14922
20471
8614
8870
29419
10240
30726
22355
13247
13877
5010
2408
2452
445
5674
27991
18659
30650
14514
6018
14165
32450
24760
19281
28295
24211
14679
16514
23562
20482
21339
21185
687
18741
4261
20345
24833
23058
24274
21993
8466
11511
1303
32122
30075
32684
2415
13904
18334
10390
28921
6175
6958
31789
24475
4928
19186
9904
23276
14340
709
19991
13393
2120
6882
4169
24166
1865
14430
12687
12703
31674
22262
3912
25647
6164
8203
10975
14632
32046
13035
24827
10980
19213
16978
8437
5285
13309
11057
14479
8056
17888
26797
2019
30303
24007
2411
12697
1454
31167
2571
7005
18870
23790
14578
21136
28833
14814
1869
10558
21405
22296
27474
8017
2877
25077
14281
27652
8987
25521
3276
15258
12483
3265
17867
30031
20940
19046
2259
7567
21832
23171
23311
10342
5215
20908
24207
20536
15926
18303
7496
17586
6934
7479
1372
17920
2762
4734
31388
64
16968
7299
8523
15159
3220
13133
17957
12867
4834
2383
1952
10385
28667
24892
9330
3472
4833
30236
4947
17830
13494
10656
18436
27425
26074
27826
18832
7024
30292
5713
32210
9363
15731
7324
20023
9936
1204
25644
2502
32424
6631
6567
10333
2825
19598
18834
21309
9157
23174
10855
22216
21571
4073
19688
24970
11893
7730
9906
13431
18953
28322
11029
10355
17380
29667
26147
11544
20940
16108
19975
9395
15972
23332
16025
16783
24926
13770
21295
18551
26604
5268
4789
23670
375
24470
8704
14305
17556
16998
28767
30359
24628
26750
4723
21896
27930
22753
16193
2932
29587
13570
9094
7925
31073
24289
32586
24000
11256
19063
16824
22824
31469
32340
5933
3044
13995
1927
7567
3345
1896
25790
13024
29819
20567
11438
4627
21528
21279
29621
12830
27349
10125
13502
6992
29845
23429
16742
9957
15223
20287
32093
23768
20056
8624
26894
25592
154
16709
16258
14398
5923
29911
11137
7006
18088
28892
22523
29596
26411
19674
24487
3297
194
27938
24554
28686
5531
13498
13050
17552
19773
5019
5443
28725
25872
17692
14858
26941
2592
21167
4944
28341
30
11979
20729
6912
14760
31785
23341
1207
17865
21811
19455
25011
14020
10170
11340
24679
26125
30951
30694
11123
14745
9588
11506
19319
20055
29211
27279
23333
11263
79
25273
16795
26122
31531
9068
26351
19969
4264
31500
5899
6907
2834
31748
1723
10850
7869
25518
12036
15861
16372
26739
29368
23315
5426
13107
16967
12086
22933
2022
12760
7614
17295
24964
13720
23280
17375
1315
30802
14398
12479
20575
65
1480
12639
18175
5666
11556
32147
9174
8844
26970
17864
28902
30084
16435
22333
27340
11341
8372
20592
13144
10621
19173
31190
6011
21334
25815
5838
27750
3154
24804
17112
18416
6656
6457
12034
6200
28175
17554
21412
24204
1448
10309
27213
4490
21250
11138
17405
27269
25904
12249
20373
8747
16957
21244
25739
24676
10106
32199
9698
25469
9239
25725
4442
8837
16881
23637
3812
28407
12459
10805
5208
22938
9984
11965
12650
24230
28247
4999
6107
7464
19608
23981
29676
7591
16447
2444
10520
27656
17071
5064
18178
2223
1224
5009
19117
29927
22971
18980
32747
24196
17437
19348
5912
11975
22843
9418
17159
129
28334
8906
29501
16763
17967
7993
32349
790
11180
30236
20708
15919
14747
2275
29718
3653
14222
29350
313
10206
18183
20910
21760
3622
21134
18999
5962
19418
29442
9844
27405
13156
16173
14292
23180
27208
14746
23940
21457
17342
20651
21557
18775
11936
9446
13087
19207
14983
2448
14918
11109
30770
29565
22012
1292
14631
18982
31655
13400
29340
20220
17348
6498
18327
3836
25900
13873
32341
4740
30102
32046
25833
16229
4958
25561
26917
8505
23685
3515
26557
3063
22264
9115
30378
19652
11797
10997
11981
23820
26987
29096
14549
19410
193
25071
8546
20804
29018
21138
14442
16531
14456
10078
32733
19457
22303
21970
28036
20284
17179
8731
1071
5098
26949
10307
2063
17541
9473
1445
21089
361
20747
13988
2124
19499
21876
31900
14605
15661
22247
24601
10065
14191
27441
9031
16866
3752
30464
14506
3974
21398
6379
4623
4645
14994
17843
23491
25897
20583
31177
30722
6954
29028
9232
20146
7883
14000
11747
17746
6879
19934
17498
29485
11729
28353
18121
26067
27714
25474
32394
2505
30451
22255
1021
2944
10214
23830
29900
17540
6848
27155
24436
2294
5234
11046
2049
26940
3608
30217
27160
15351
26401
17024
7227
1077
689
25137
30793
2025
21571
27318
11588
10904
8083
1521
7767
24660
28603
7327
13080
19694
2460
3888
32010
25448
23935
28887
22118
6569
15356
30941
24091
1140
21020
7738
29971
28571
12474
4454
8376
18032
25391
2157
30391
24701
22830
4418
30211
1653
10220
24149
28958
17258
26244
16743
28052
22079
10651
18589
7368
22369
25151
12756
20978
26290
9237
10293
6505
30150
5812
9
21790
594
5708
25806
617
21729
18315
11658
3337
6089
8897
19295
21350
23134
14914
1632
16408
21605
16396
31907
7341
32204
3753
6039
423
20120
14679
27544
1989
15134
26471
13761
7812
16502
32483
27650
11236
5421
25203
4978
22895
21050
18049
20710
12920
10291
24988
26562
30625
29889
31770
6927
19360
19538
8962
9422
7490
19469
553
14220
29359
18443
10650
15927
31217
10692
16955
20016
688
4807
30126
32673
17727
6063
3446
8209
6877
10066
3419
29494
2868
29243
19727
30218
21286
26203
21777
22561
18633
4859
722
7993
16560
2293
14359
10515
22637
2852
6558
32641
19027
8985
8452
12993
11905
28175
1510
11785
19740
13857
16967
14947
26075
11195
13873
9147
4297
21327
11935
13366
7238
31561
21403
31174
3151
20036
16804
2556
7936
21886
21074
14365
31319
32649
22589
29047
26427
32580
21018
13301
15805
5898
22823
21234
26269
9257
20170
32331
5648
32406
3444
16312
9152
223
8396
25180
9237
19552
18698
30874
9907
7610
19872
29739
15940
17793
25376
1133
13687
6453
10330
12030
5448
28788
32452
22154
24707
621
16928
9185
10371
14232
9048
1357
24384
17317
10925
14370
2697
7090
9488
4246
15501
7360
208
29651
30112
30312
23926
14411
21308
11722
21230
24652
12358
19655
13287
25300
6803
4464
20347
30374
16811
12733
30227
5021
17101
1923
17797
7745
30259
14496
128
29080
8598
12152
29994
15167
13301
30630
14087
23992
28307
21227
12317
19718
7999
6762
19798
6519
20439
16408
18981
7362
3855
1134
24428
32081
13935
13409
22942
31712
20891
915
23073
16199
2775
22219
18422
4756
16586
4771
13211
18781
10626
17024
12848
15957
9913
11207
29658
8220
12119
8526
6501
92
29240
11025
3373
22801
5678
22055
25406
31784
15178
16628
1210
8524
8535
14239
10875
1533
6056
29894
27386
21474
6676
23153
24431
16736
16190
14149
9274
8299
23578
27643
14466
20380
172
1296
284
16772
12819
7357
29358
3649
1479
6441
10004
17230
543
6878
25090
26016
26646
12153
18667
23022
19022
7334
21026
10064
5461
22348
12096
18443
27944
31493
14021
31915
1013
21969
4354
21843
20005
23563
11318
25938
14234
6300
15351
21750
15925
28014
18387
17829
5532
14372
3384
15401
14394
12040
14481
1356
2439
2628
14770
18597
28041
19798
14198
15793
31131
17598
26278
14118
8813
3065
18461
30851
2892
12211
4650
2540
23203
16441
18742
32309
14274
26669
19367
24381
21983
23421
21764
13437
12378
12949
15449
22496
23622
1492
29149
3285
4900
23869
32722
3491
23281
18544
4781
766
28516
13016
19575
6615
20593
18469
26483
11128
6673
31997
27649
11215
2373
4078
32194
21002
21080
5800
1021
12133
11365
27497
12609
10304
13850
3768
11852
885
6075
20822
27692
1000
1642
23154
24996
16480
3237
24092
14289
11669
15376
6140
10765
3722
11381
24132
7444
16156
27657
24803
12646
3291
17649
26876
21740
4634
31748
11414
6109
18242
27859
2709
18659
15980
9958
17129
7290
15662
28745
32517
25497
10420
20808
16018
5525
30739
3446
31845
12610
8411
11764
8111
14683
12779
239
3444
20516
4234
12907
28223
13901
2995
25151
31763
12570
14767
23393
27812
7105
21482
20580
19399
10260
1279
16703
23080
4703
23829
28240
17467
19604
24686
31905
17781
25765
25661
12137
3003
10802
11704
23254
28443
22372
1903
29705
20922
16665
16604
25187
15373
21057
19515
30207
2380
22151
28316
10111
14372
22581
13878
1292
13229
5457
11006
28824
10395
20492
28024
4966
15032
32350
14285
10957
11922
7402
29983
4665
23408
10535
25369
11890
31115
1729
29130
7713
8315
21565
21939
21392
2544
29405
30
31665
27810
17859
29106
22114
907
27736
6981
25583
5459
31727
16625
3032
4108
31910
4970
8405
3359
11661
29582
26136
20870
21515
5182
31186
7740
6781
28269
18680
25842
16927
15222
28743
13572
11312
27059
11910
29867
32337
16203
19467
14964
26159
8011
7040
23281
16481
9465
30695
32430
9876
2405
25564
21606
10469
1856
11802
13175
13966
12529
16193
17044
31173
27878
29911
30394
10977
3112
11660
32357
7871
12083
27330
27907
5220
27908
11084
15017
1507
28787
25462
27653
129
32707
13894
30356
18456
8824
21506
13588
18873
22888
8690
61
8597
7445
3943
16300
14366
5690
15357
1824
14953
17572
21276
5096
29143
2115
16581
16028
16116
16513
9099
13580
15263
30162
8159
4214
18540
16781
30865
7164
2374
26618
4244
24404
5465
22700
14850
16834
24111
2321
30303
22851
4632
23879
3106
14859
32208
4913
5489
23090
12636
25547
27693
23979
27701
20154
5934
24181
5288
17448
7376
1301
15997
8398
24238
1347
1239
12370
25261
21220
15195
10708
11581
9016
14996
23236
4315
3669
19350
29686
5850
25812
30434
11512
25956
3530
14986
12707
18108
250
27542
3568
13765
12616
18085
3085
5064
31601
29656
14512
27506
27898
491
428
25884
30566
7333
8898
20560
25516
627
21689
26248
6632
32080
29360
11064
4433
25319
2484
3343
31851
24572
1678
11386
1406
4872
30174
27499
12102
14883
2670
10840
11756
30759
24000
22150
19509
29971
7913
11655
12538
23981
9122
23042
6360
1644
3997
19890
22568
13716
1557
31921
14641
22691
6569
24055
2717
10476
28266
21789
29226
898
16947
26983
22434
30807
20281
28162
31757
21669
15586
32650
4389
11405
4827
31440
25866
10239
25189
20697
30263
5849
6639
23594
949
4179
14058
6978
28046
8602
18905
29801
31109
20411
167
26280
20484
28867
11070
19481
17750
8228
28245
4449
17174
21083
6281
1658
26088
19408
19888
11446
9063
32510
31850
9728
3166
5587
20984
10597
32570
10842
8274
8404
24255
29335
27251
21538
8443
25523
2808
17745
19064
4185
10473
8722
10678
18015
28375
28296
26328
12201
14375
19791
15262
31306
10413
2237
26515
19437
25213
16744
13448
1140
19965
26088
8000
5086
10303
22494
30829
26478
19342
25141
4571
12809
26183
25767
19436
5089
5099
22659
5956
25936
3185
4782
16069
10502
24033
26344
3518
26983
25630
4177
9823
1327
29443
812
7281
12120
26290
3042
10308
9789
3625
24394
1512
26111
9239
39
21663
23080
18925
7667
2707
21134
14647
20699
20677
16251
7981
22282
23366
30986
22149
14122
4521
5588
29580
27688
7096
5324
22133
32312
9830
24168
14321
11546
29957
24834
25600
3995
4793
19581
5894
19550
14381
12587
12577
20444
14724
1518
13242
9130
4243
22942
15706
19195
22349
13227
30655
18533
18046
26628
11312
12520
3261
25143
29197
28716
4507
11225
11178
8714
31009
12840
17757
9550
31610
3823
27350
19387
25836
22698
9903
19280
21005
15851
8260
21706
31795
28668
27589
29546
10796
8390
8330
6648
6447
6129
10662
264
29203
9037
1214
14972
7871
26225
25372
7754
5090
19874
24831
29824
25316
10230
18229
133
10268
11448
2796
20897
10563
28687
32710
31935
14376
2779
28715
9074
11686
31200
4067
27703
4307
30758
31972
20474
15995
22687
17000
24795
9421
8971
4675
28209
26451
30745
10356
10703
32552
207
3322
12935
11109
27947
10217
10221
17884
17931
23484
11101
20489
5706
6637
29248
19525
12076
9667
19850
14141
3068
31084
19079
13731
6387
331
20696
18979
24924
8595
25017
10137
26870
14869
23685
29569
13466
7254
27771
3246
17949
10213
962
10816
3960
235
1963
26320
8486
5380
4663
3053
6094
25165
27865
12748
3362
13503
10364
1851
4103
19899
30408
21975
26614
10725
10401
5759
10146
22838
30193
10760
21211
7501
29352
2610
7090
16902
21761
1755
31454
25678
28934
25459
10078
6966
3414
26800
12640
14150
29990
16003
17506
3091
27526
8778
21655
30739
25573
19783
15244
7857
9176
8017
2059
2205
12823
25033
1344
7782
14024
14032
15642
12618
12545
2231
31220
1613
9608
3511
2933
6024
10973
13283
21172
32708
30330
2394
22944
17479
20313
29889
31136
28910
2487
20977
21878
14972
28696
18156
10857
6962
15755
25878
15523
7584
3375
27298
25304
18874
25334
14410
29992
26670
12713
20291
9031
4085
556
27504
30171
12840
8196
3542
32549
6166
28438
2896
32484
1939
20145
29571
32118
403
11727
25621
8769
20215
13464
7194
18769
20390
10024
25551
7234
16352
26002
7307
12897
26575
11557
3314
31758
26975
32494
15724
32101
8272
20349
30934
7197
18570
25580
17783
1199
24240
30
27189
27323
28407
19013
21512
10408
17977
1959
28592
652
14661
5793
19363
4171
30330
18924
5706
4866
5524
2335
19564
14758
22981
23157
11243
6376
23048
14801
16046
23132
946
24831
4574
26331
11081
25917
27989
4134
8090
19962
8019
32203
29446
2269
12403
24909
28445
24329
5086
13695
26222
20384
10175
3377
22684
29573
6647
13582
7349
20071
1297
11461
1472
12539
22904
15207
13717
4232
26343
8976
4594
30633
6690
14282
4042
29775
17124
23982
18656
9989
30232
12877
3989
22392
24651
25934
29950
12854
7266
1112
30010
5046
25224
15922
15875
1177
9067
24872
17282
19247
25512
6321
5992
13885
27523
11856
13882
1277
7900
20920
16108
4199
4447
11315
18610
6575
11002
17220
19219
25103
28820
28299
19519
28614
17660
25834
18850
9313
13855
9446
3769
2105
10879
15440
28197
28477
736
13092
4350
23281
1092
7601
20585
15799
7706
6650
19821
846
24755
15453
15106
664
14325
12146
3691
15520
15955
2870
2502
3291
15357
10089
21730
11950
9811
27956
6224
15409
13216
27663
20157
2611
22277
13794
16511
1406
14515
18026
23917
30043
32349
31199
26868
18265
30702
22228
11367
18507
1143
12126
9111
28304
17259
23928
22436
6551
26126
7846
23570
27297
13611
21209
8735
6857
7941
8851
5716
29250
24977
20555
15451
17633
9442
14611
15632
6107
6629
18552
6874
21711
29006
25514
60
11783
16082
4061
23719
6139
7319
22510
17299
31766
8937
13642
16846
2237
2094
12
7443
17038
32028
10853
12766
15077
6441
19265
25471
4005
27459
15399
21101
6197
706
20065
19678
25544
1179
23390
11668
27874
8406
13396
7418
9752
31810
13609
26735
17431
25191
32404
25570
26855
21436
7040
2463
5233
17434
5553
19560
32319
7537
15785
20424
15492
23226
10701
31396
23644
20268
12484
6163
20308
28083
25376
31344
21037
9374
18496
21677
12509
8599
25204
15849
3031
4569
15971
4933
652
12957
4522
11252
26418
17877
11462
5010
24516
16157
17460
16055
6218
15599
21718
28107
27226
8726
10137
12828
7647
25445
14421
18733
10009
23976
1013
16978
1509
18395
471
8825
10815
5530
19574
31307
517
24025
15686
8820
5117
6613
32735
4670
19482
20554
24670
1125
23803
231
22792
24103
23221
25599
9009
3226
29394
21121
20317
19522
26010
27178
10404
3811
9361
16889
26459
29588
14912
17124
30448
1301
24376
30921
21270
12898
24661
28583
16418
13704
14912
28942
25269
23736
3639
13780
31388
27034
21521
24586
17652
31459
28028
20782
18834
13354
32394
12450
6050
6136
12140
13917
13709
18462
15229
3553
18465
8267
29058
25965
13548
24285
2351
32115
17384
20472
29166
19532
1118
11989
32477
2603
30980
12637
5141
14672
20328
29175
14642
32382
9874
11166
13584
23982
10469
31798
5842
12037
32071
8480
20521
24580
21378
25100
17619
21759
4073
7694
29537
32464
23102
12021
6974
30924
5075
5848
1005
17142
30960
11249
18834
27763
29045
13998
21172
16958
21696
13830
21313
22045
9425
15882
210
29140
1196
9404
23601
19096
28159
28963
13337
2246
27141
16543
17724
30677
20906
5755
7050
29322
22768
18881
6321
24426
27025
1362
17376
20853
4326
3637
18129
8465
1287
17456
15366
4421
1332
4245
12883
21799
6516
14175
2460
2456
30075
15997
3296
30510
721
24430
28022
12402
22065
14094
919
24652
5168
10160
30749
23739
2335
8556
15242
20937
30769
17595
28236
6335
26081
4929
7744
3989
24974
8937
32116
1196
4712
1847
30257
2752
2960
25818
16441
18712
11131
25473
23373
7167
2712
29168
4850
6520
15666
4179
28533
20014
27799
5330
14381
18090
2938
7781
27392
14536
10646
10730
19752
24940
10900
32117
31031
27249
25647
24039
3673
27874
26518
17090
25818
25453
31249
31803
27624
8468
232
32657
5273
8230
25729
19870
28208
15726
11976
10156
22428
13226
26835
1673
27201
27455
31687
2014
507
29226
6389
17852
1632
12346
27977
19576
22854
11132
9189
8889
3718
28919
31753
6095
20735
30106
30262
19526
6365
883
23699
10427
5915
1826
10895
14063
31302
20876
6088
4378
28804
8660
18988
23426
2774
2951
29533
31819
26010
3350
23898
1425
14932
27274
10845
1460
16045
8307
19455
12787
29884
801
30114
7997
20613
24087
3600
32067
22207
10173
25696
2002
6363
7509
11290
8800
12865
23344
1179
20965
10973
17698
4026
2284
25306
21299
23467
31209
27565
5783
9252
25549
29270
2785
11967
3288
7906
1907
18080
24494
3381
25913
6999
24238
17158
11415
1799
24959
18219
24479
32712
20715
15895
13448
14411
21745
12193
21595
13245
10517
23047
29168
20717
2811
13874
19737
4272
30516
4411
30237
7045
10328
24367
25960
19061
3157
11023
15232
14141
9222
18459
15675
6063
264
10320
24624
26710
21961
31792
31595
10841
19425
32705
28773
14497
5286
6360
24627
30782
26618
10903
16637
26631
25960
16949
26546
21377
2928
253
23034
11523
14622
26522
31852
21271
28130
26257
28930
17698
15259
22543
14793
2888
7925
18149
29661
21898
12789
9937
16021
5681
27858
25087
8955
7024
26887
24527
3967
27717
23206
26841
15340
27808
13295
3119
2458
3271
10017
27105
13286
2041
31376
1735
25823
30289
25336
3450
578
13806
22545
8356
18089
28497
5987
8826
31487
14598
18780
5510
25655
7815
31904
31402
14653
3677
27552
20578
13613
29576
16494
5961
6596
32289
19152
32735
13844
24382
23699
9609
17787
31766
16417
31449
15061
23654
32086
19216
19441
22547
24720
29921
20802
18448
30725
17016
19927
16002
31578
699
13197
2594
20849
18384
14212
2275
10370
28383
19151
3542
21613
21785
2928
24138
26446
24057
16771
2615
14418
11977
15545
9181
19658
17257
9736
6824
22398
16460
6561
15703
16964
9667
7459
10077
30161
18558
17934
7559
21454
13135
9338
7648
5935
22066
17929
9938
3776
9867
25882
31117
26112
5294
6207
23469
28723
31396
5618
7190
10675
26669
24707
24355
25479
28673
28245
30209
19766
23131
8778
17749
20701
24760
10364
32549
30080
22236
2862
13301
15262
25879
5122
32560
10248
14278
19820
21194
28915
18460
14438
9764
331
8739
2661
3120
17994
19453
1932
29909
31562
12912
19744
7573
26583
16034
8253
30061
17417
31008
5319
30716
14096
24101
8354
17384
9233
18202
28454
28798
14641
3417
2253
26264
29935
18998
9007
16580
5558
22592
11569
30370
10162
31172
27513
22414
9444
18579
14629
6271
23409
21253
16572
31023
3648
2622
16740
17533
963
26032
13398
12303
30485
24545
26256
24379
8006
12399
23241
3368
16627
26449
1962
8752
32281
19807
17979
14473
22570
11797
1180
21541
6241
28308
4341
20950
4691
5609
4271
20918
29896
10898
30693
8390
7368
2366
5397
26069
7929
6357
1308
5540
31528
32696
9057
29255
11813
15946
19024
6606
5588
21167
30730
26661
23425
18900
11098
12345
22644
25007
3308
4188
10437
8392
14521
26091
24690
1784
15302
9262
5807
15216
6670
4735
15229
23550
28860
13743
27518
20876
2206
26789
13832
19946
27863
26696
2424
22221
22996
22176
14793
535
6273
31031
21861
18264
6588
14022
15418
2709
26122
6157
11537
17481
13704
20483
15643
27306
17445
3887
28109
45
13839
9814
21742
27468
8299
15446
2799
31623
2633
6994
21370
16297
31191
22799
13389
4428
25044
24222
28233
31135
840
4924
3270
21351
6003
11894
32554
20036
22019
30097
28858
14134
11146
26664
21168
10847
13358
8215
19597
4619
20131
26776
1712
5869
23382
20652
808
26027
31723
15549
30919
28062
26346
15233
25719
31955
9141
8737
17617
23893
17086
13211
13292
22446
26102
22373
21363
16043
11657
9043
16123
26720
23752
15546
30867
14444
19302
21718
924
8062
30440
17513
8667
13336
18519
2725
26316
18579
25144
13132
5433
8804
2750
26646
31500
13981
1597
12627
16226
4023
30178
10705
22240
16526
3746
10752
4682
2221
15472
11860
31569
3532
1459
31979
29613
20119
17143
20080
19052
12977
32482
32319
15242
23545
4714
1481
3521
7436
20806
18234
17058
14603
23202
27482
3301
20638
25111
22193
254
8248
1242
31215
13297
29597
32564
395
15462
29346
22066
10409
18944
11060
18845
13121
18155
31900
8748
21374
14260
18433
12281
32356
19806
2607
3378
29622
23986
17047
30993
32023
13782
19350
24334
10351
31521
2042
24147
400
3630
2498
25968
3866
9263
5669
13904
5787
2692
10966
26219
27643
18573
26759
12094
20504
5052
1708
8952
8877
18926
13441
6519
27512
26107
2894
26994
32412
8843
30185
16888
16452
16172
12669
14361
19337
7074
19339
23779
150
7550
16686
28560
15881
5107
9123
32765
18845
3556
26120
5470
11270
22081
14436
11569
1053
2708
5096
9840
5437
32727
23669
27915
5357
27017
15198
31125
31679
30465
5998
31037
23928
23297
20013
12801
3184
29070
4703
30494
3132
30719
5070
16843
6027
2901
21577
16934
15694
24778
19949
31855
22812
27821
20131
18036
27348
27500
11498
14668
4484
243
14807
27464
11657
25140
5209
1575
28152
15623
16834
3465
19773
21045
12163
27047
16642
30159
567
2624
8531
27077
21988
13783
2815
18099
21373
22811
16705
26366
16299
27303
21151
2080
26316
14059
1299
5696
2621
10346
19817
22022
13012
24615
21992
24749
3249
12889
22580
9818
12343
23398
20083
27308
31829
271
16303
28564
26122
21480
11131
16999
24872
25868
22746
24369
18008
1038
3164
7757
23134
14643
27018
8242
23198
12254
900
11152
13023
9547
24809
12700
16464
12160
30455
27815
17864
28801
24564
19702
30034
2500
20684
10190
13033
25572
4603
23758
29824
7833
32685
25986
25414
15592
21796
820
8743
24983
18267
32517
23958
12260
13033
12349
2186
9335
24871
15584
27334
31380
10389
18562
25694
29077
27770
1371
2679
1688
16331
23454
334
30325
12110
6919
14204
7155
30463
27315
26232
32315
9907
27445
31837
9100
31227
16102
21229
31793
26443
27772
22486
31152
10844
20447
2613
9797
19918
3384
29017
20622
30738
14922
28873
8072
32647
12805
7560
8890
2531
18008
30871
12976
15061
17480
12988
13739
13801
32319
23938
7319
30635
20646
11649
11325
18959
21685
12767
26298
22544
13706
9495
10544
9368
23417
15097
20923
26784
24996
4083
423
7320
2507
7566
20448
12553
8805
22587
32681
14969
4847
23120
3985
5263
644
16462
13475
16503
19630
6757
5598
648
14460
5946
23525
804
9684
19431
26871
30432
9483
15683
19744
4581
11443
3685
19121
19095
25012
30819
32495
12148
9631
28511
776
21566
24382
6341
6475
6748
12656
30414
14999
22654
5171
27977
6164
9600
1027
922
25890
19089
15203
2051
32143
8340
10937
30754
15373
23750
8798
21179
5347
4257
25334
14008
18658
24833
2045
29550
17563
14470
163
28194
32719
31033
2778
204
28967
29042
25773
13850
27173
6137
10195
1720
28507
21355
900
31695
24795
20703
18571
23244
1774
11722
31645
15970
22281
31008
25065
16594
1276
20412
15344
7018
13421
6146
8855
24395
24197
8387
14970
11120
16361
10080
12676
1004
25324
2355
15037
11891
6659
9258
31842
14364
32377
10933
9275
2149
18275
28387
5673
9592
3287
26824
26879
3501
19289
31777
9618
19023
15254
16699
31764
8099
21077
21776
25501
32294
31914
29875
22539
6423
27756
26607
10764
17973
2282
32555
5497
2762
22490
10385
4582
31208
29330
24688
4471
18419
23419
222
8693
14175
18370
13473
9248
17083
12624
4432
3399
10223
17661
7349
26391
14530
256
16758
433
5279
6058
30452
3071
12184
27221
8308
1607
19115
12439
26493
17152
16708
8123
5504
27109
20484
9841
12479
12617
14529
4292
24679
16810
26574
10317
23551
30600
32380
9382
27142
30583
26336
34
12760
18548
21719
1211
25810
26741
22600
9548
694
3908
25769
30465
15697
5004
29125
24331
16219
9780
6588
18584
23198
22509
22603
30466
24923
7431
20301
18502
12009
17289
13442
31673
9119
3968
19600
20726
6132
29079
5959
4891
2789
3048
4393
25653
3991
30994
11818
23800
15934
2444
29108
21684
11325
27449
18414
25988
12175
28476
1086
201
29029
25101
10509
10198
5136
10700
23754
7405
28706
7894
12337
8299
11472
21143
6605
3647
14235
14495
19131
28576
24368
26103
16562
21760
5516
23221
14656
3131
7523
2510
27222
1813
9923
4908
9223
1507
7925
25600
16269
23176
14244
12634
32653
22435
26944
247
17820
16391
29861
13401
16641
19052
10232
18973
31420
3428
27346
18826
25288
26512
21921
3174
17054
14355
22603
23309
14586
31559
13332
3780
8929
8111
19649
11850
5603
10029
5373
14512
20382
26741
6653
4715
16003
1218
29280
18600
2013
26056
5209
7903
12046
22505
22287
6827
16924
5291
9028
473
12141
20842
5941
32446
10447
9802
8642
24270
14268
24944
22735
8043
26331
6770
3818
15611
9417
6667
27694
30781
17434
27156
3687
1501
15515
8623
29815
23622
4570
16838
14584
5047
745
13748
24610
3225
26462
19521
15599
20496
23966
15572
12670
24272
11868
3300
20149
25138
2396
27056
5931
29574
32637
18992
26949
28075
24054
27979
21663
31966
20192
2122
24237
24784
25333
14733
31394
5371
26775
4988
14480
21301
13332
21441
28625
9350
15656
6837
26791
29751
13763
14103
18719
22827
32269
23044
18747
2419
6567
18211
29263
11292
2612
21793
28076
32075
13081
21085
9852
30861
10880
8676
17133
32104
7075
9375
14482
8758
7751
17099
6
10547
10118
10666
11218
19412
30674
4472
26256
20570
10807
8097
7249
7592
18656
14641
21309
16721
2781
22924
30585
7158
7972
16735
7758
10191
10453
4566
1159
3463
20674
10256
19482
31565
4142
19664
15627
29224
6357
3189
3470
32138
32301
19244
30060
2345
1004
26980
4263
18698
13770
3202
21857
26590
11400
24534
8442
28562
9265
25038
8313
8226
18336
4458
6189
10414
21826
4080
20116
30415
285
2785
7803
4139
14353
555
29799
10823
10334
16032
15156
29853
13159
3239
31740
18671
11446
3890
13626
13786
2623
16112
11567
6062
27113
27075
17285
13181
4170
18036
1587
2162
17586
28838
3488
19300
11884
24840
25611
16555
5952
13775
31786
26675
14140
24420
31505
12239
28085
1369
22870
8143
2952
14242
8051
13780
4773
16386
16747
25059
3791
10179
23985
22969
27549
17834
25413
13918
27589
26666
25376
4093
9625
28632
4306
3059
10450
28191
13930
4390
12685
7221
8086
5784
3219
15949
16395
16444
4317
18191
6439
15880
21080
20293
8917
8523
29157
13783
15282
7233
11940
31737
25710
24548
7282
12707
19060
3078
9136
1601
26061
26013
11847
20909
11841
18270
9704
10586
11200
141
10137
21970
26113
5651
4205
15458
30569
6609
18322
4371
18222
3124
27025
25821
11964
31753
14546
25624
3672
22675
30559
22835
5379
10715
3561
18344
16289
9032
9232
13103
21338
17519
3551
26419
22337
31788
12950
21122
20787
498
20653
19272
18946
22879
17173
20286
23763
13332
11201
5151
21957
9667
10085
31836
9172
24201
28286
17424
8700
24447
