3762
6302
26894
3925
28459
19293
10393
19614
14804
271
28346
19407
12738
31237
7634
15323
2023
10750
1779
25751
29586
32410
26250
16591
13365
27154
5185
32404
24683
1573
27171
22995
9785
25430
9985
1324
24724
22612
20501
5376
9764
26042
21990
8396
13640
504
107
3766
24922
24977
26227
15718
25908
3976
29765
23
16115
27156
17795
8430
30971
22427
22100
23946
1083
18398
20417
4572
1970
21874
29536
1337
18737
7023
27184
3501
4963
4972
31429
32147
15628
4010
27301
3938
13710
9615
3825
17354
15025
7254
20552
26112
7075
13318
9704
10838
11582
22688
19478
6926
21386
5533
14785
18288
17539
23959
6498
26906
26652
31303
18726
29592
31107
14511
9807
16948
19879
9624
10199
22543
25336
28223
3159
26225
7789
14668
7976
3422
22988
3075
22728
2666
10022
4030
24191
18894
28064
19355
9538
3514
17274
9842
15319
8173
10569
17674
58
16772
2695
6284
17472
19727
10062
12599
9594
16106
19297
10582
7260
6091
30316
15471
1694
19863
22925
24254
12515
15994
19986
26849
9113
23094
10629
11221
14112
30139
4838
289
13102
31993
15671
11089
32114
30450
11070
6822
7031
4115
24710
27148
3020
7876
9127
10316
14946
22078
13767
16771
5173
7068
9057
7379
32302
12597
4677
16984
13128
11306
12512
7518
19955
26683
10942
11985
182
28127
17997
17396
16919
32403
4068
1366
28607
15218
13827
29187
11482
6662
31453
6903
32701
7006
24339
13016
29387
31072
27075
17892
15513
15969
12737
11816
13136
31475
3108
6130
3923
3582
1029
10890
16674
13075
32643
10525
24191
19196
13834
8186
27343
4760
23510
29185
32450
15334
9906
23127
4918
7519
4102
13919
29529
27529
30736
11238
6670
12489
3698
32670
32403
30584
9197
12238
5216
23098
18796
10055
594
28299
24644
7322
21768
15771
32698
29064
12430
16220
21446
9914
17720
3033
22806
14259
3025
14025
6742
29442
3317
2404
21167
8892
14268
3701
6541
6441
2969
9393
31654
30142
6529
2887
9528
13899
8271
7352
401
26742
18535
11241
29653
3944
17049
14199
3324
4550
20041
26442
25370
17379
27341
2157
28131
25140
14359
31516
3182
4100
19092
18207
6201
11880
30291
19031
10606
8054
21866
13719
28772
18866
3478
19381
18537
28617
6433
5856
26559
12418
5897
2099
20708
17137
26206
13707
26902
17134
4332
10646
22551
8645
18714
31277
5422
3887
32530
6372
17774
28289
20770
4575
20282
11300
23394
11495
18185
1861
10904
9404
6503
9165
22104
26797
5693
30868
1648
7271
16721
28113
26499
18955
3088
16342
21235
31363
23692
31226
11780
10261
1473
7638
17471
16184
5404
19124
8469
8615
6462
31044
11461
24501
17917
8081
4224
7136
6571
20788
9674
19624
26523
12231
29987
20642
27618
16285
2023
2248
19547
29872
4467
27923
10990
3035
13193
20300
11537
1098
25078
16415
7310
19758
10609
19057
1415
31669
24007
30963
30136
7481
29493
23031
16637
31160
1813
30083
28436
23172
23486
27044
13987
10555
19365
8453
10621
31482
30664
22464
30241
23502
13644
25204
25220
28267
32356
27544
25616
13345
27254
6927
30956
4363
29049
23548
9854
24714
32418
13527
16686
11761
5695
26049
24941
25986
4835
16660
10742
4506
15811
29247
17236
30760
18016
9937
12453
11363
23910
19923
24989
26813
30420
24923
9678
17682
30558
28254
25894
7462
20752
20166
16825
15182
21299
18884
1728
7021
12660
3688
2274
23074
1603
15471
23475
9280
21626
28508
123
14975
19519
32714
29240
23921
22315
28416
13030
13751
12204
12486
15869
3188
1959
18295
1084
26626
610
26200
21669
24804
1442
3624
22217
17148
9744
22520
31301
20222
13025
25149
32653
12325
9398
5156
32232
31269
29633
11045
2748
17248
6442
18139
26124
12124
16305
26387
20543
32117
26516
4131
27939
28623
435
2429
22577
7823
17906
27267
19987
2891
18655
27037
3939
2238
5269
8585
24758
19137
18656
16627
19417
12919
1697
22598
1626
10951
10868
14785
8522
10511
6801
8141
26178
9750
11248
3470
1444
9027
25265
7608
31267
4109
4538
13220
17798
9139
7586
17059
27304
32557
26318
8082
18628
11106
7897
4270
15343
18331
3385
4010
9958
31800
1824
29183
18954
1442
7841
27524
2985
27520
19732
7998
5503
14382
7355
12921
27517
17514
5542
5655
24521
27473
29139
31273
2053
14987
23706
8124
6100
29378
16712
31989
17562
27736
27915
26465
5764
13401
2062
14470
19145
30126
10724
8382
11055
660
3370
7237
32464
4685
9832
16016
30750
1813
8761
18400
17445
20568
3756
14616
7952
15650
13289
22987
4591
21207
24600
25754
15799
31780
10878
19901
22410
9269
29161
22495
14905
4649
6735
27439
12552
6339
19890
25268
24497
28258
17478
17376
27563
16691
22486
5225
19115
23461
26212
16980
23148
27933
18448
21075
9644
19180
23611
18512
31351
15742
29163
32330
13735
11731
3953
23904
26540
18227
23882
11563
13961
24862
14404
27985
8479
17795
12001
27991
1966
10034
28160
5815
7577
23698
24762
7475
10345
12951
1931
2408
12309
27631
19122
20902
1153
16508
19418
29951
15428
28935
31481
19614
4270
17203
29305
1883
15114
31151
24214
908
14112
7344
29703
31517
3838
9887
14816
13795
5112
26894
10935
13869
10478
15857
28933
5020
461
22795
17104
30773
31832
19878
8327
29621
30249
7303
31534
6436
17394
24097
1466
6829
11785
23817
13759
22445
5668
13482
14152
4362
10849
18490
22534
14278
18825
9709
11694
2516
31893
10856
31644
28970
10609
30840
7100
22807
25345
6404
28330
28119
31330
22336
5912
31333
13682
11556
1137
22672
20114
21533
4283
10065
8618
19970
13762
15196
10862
31305
7539
32245
14304
2939
4486
11781
30998
28901
3680
14189
18238
2193
32055
5274
20703
11636
22903
28249
2658
30185
17764
28141
2000
13918
20993
30048
9181
7245
32305
12822
6182
30063
12573
15784
27319
30508
13269
16623
21712
6741
28218
19806
1769
24341
27419
24725
28147
3365
26526
17972
24033
17472
29154
19437
17767
28887
23266
31710
20225
30981
32669
20765
4920
13765
11636
6804
16417
3171
9683
15
23078
15408
1299
23955
31240
13434
4255
26866
11301
1723
12374
21916
21751
18705
5937
27320
16094
31982
24358
16243
13599
19985
7244
4504
20524
15797
11071
27234
22310
3592
16070
1422
23200
478
28851
11955
27814
17575
23051
2262
6653
3742
30311
29753
2221
22852
22170
1653
24509
14349
26260
18632
23614
10585
19079
12464
14219
29605
5960
1721
17102
25347
27127
12179
23494
31431
8930
2919
7880
28548
18343
24427
31236
32055
20633
32181
1546
28097
25957
8013
18317
25499
19702
9349
15974
15557
5269
12173
26075
8703
12885
19778
2594
5692
9902
8263
5921
6740
24936
16983
17528
14585
28090
20441
17089
3820
10676
20917
19990
9072
3290
31079
18900
9472
16914
25426
18847
24125
6336
21334
11175
30506
4399
8100
10281
22171
2099
15825
31288
14315
17932
9770
1469
18670
29838
328
7869
25638
16511
21476
21978
15162
10817
7404
28189
1443
18864
6613
24562
1961
2382
9524
3444
1422
7326
25480
3051
30473
13773
12890
9875
3830
16023
3465
32416
27467
6249
24287
27774
334
10179
27623
1629
6661
12001
22019
28653
29422
15258
24761
22374
22257
11400
29262
17356
17299
4457
662
6257
28268
27333
27658
29115
16091
3282
21275
16167
4088
10644
6086
16014
20170
17992
1385
15528
18619
8195
13525
16078
15944
17303
21668
31236
3581
23734
19405
15158
2977
90
27253
9410
22446
30307
7432
25911
19204
18050
21897
19292
19165
3159
7974
23413
6404
22230
4112
18881
29762
5871
3465
32327
7449
24942
5695
1491
4789
2080
1752
5179
7200
20023
3278
31718
29109
15343
15229
16015
6871
21874
30586
6983
21475
14585
11303
15801
4194
26677
32644
29362
28036
16621
30792
1505
10442
26856
18993
11483
28418
12557
15512
9057
6008
13257
24392
23782
8043
12977
400
28492
31166
30569
8087
6895
1776
15300
14832
5092
18766
23852
19310
28803
10599
24389
20794
24866
24257
461
6434
5412
20682
28103
18996
28979
1041
15832
23436
31433
26550
26097
28010
7413
5920
15918
14472
10844
25581
13566
1962
16510
15407
27781
28534
28730
16597
18238
14470
20372
8295
10213
12220
22711
2551
26772
20693
14902
19540
19756
32577
31895
30080
29942
16690
8466
1636
3978
12532
7574
3779
22768
6268
23053
17773
8454
27459
4833
28853
25121
4693
17599
13092
10999
16036
1435
4207
24509
13731
28404
16039
5772
19472
32089
6064
4873
785
2348
16116
9541
31619
15526
20312
28642
13199
11035
9584
22904
17022
28031
6638
11574
1742
26666
16481
11981
31365
7640
32284
9609
8645
13300
3443
8897
18337
3094
16686
1906
32047
5834
7223
3367
3806
17299
4502
22044
25610
12847
159
18594
31950
2333
16746
14789
538
5469
21892
11053
7173
6007
4324
8258
612
25022
20257
20116
31643
11222
2274
11641
15795
16244
23957
10488
26029
25189
25956
31717
30998
8658
24420
30030
9692
25282
4112
11542
13408
23520
25591
27616
24524
23679
10929
18990
2215
1243
32279
19146
30119
21409
10676
29798
5830
11442
9846
11903
32407
15652
32425
25991
1499
24714
11814
14914
19792
27510
21192
16497
4553
32572
16672
4270
1667
19192
20842
12695
10679
24018
30911
7214
18284
28288
652
24448
7823
15373
32322
10117
23621
27609
13647
11080
24960
2274
15694
17991
1745
2113
31354
16669
21117
30456
9833
3422
21714
13546
12023
30915
7867
24875
384
7047
1683
23418
5714
1552
12087
32524
20577
29138
1375
31372
1341
31089
10030
26975
16706
7205
27143
4652
7182
4195
29347
28316
12601
10682
4960
24670
4416
22011
25820
14191
16065
30108
19651
28056
3054
4958
26341
15160
27708
16174
1164
26947
3675
4169
13836
1163
21099
4772
4763
22078
28781
9099
12899
17840
25335
392
3798
1883
27180
4998
15682
15653
15084
11062
14245
27617
11848
18098
10178
27159
1337
5473
26740
11272
5265
17434
12611
4333
27953
21644
8245
5504
21629
989
5606
4029
8461
1169
6107
22506
20389
4014
11540
725
25704
4381
26848
4445
27720
29524
6134
14643
12993
20018
17344
10978
32711
32042
32762
30989
29181
24740
13948
1272
18727
20128
25940
5195
13538
30365
792
29714
31635
15545
32123
19719
3485
20505
1565
3348
22743
139
8616
2580
28733
5994
11544
16858
23525
14275
19802
23412
9525
2485
32025
19888
29524
13598
11477
20192
19422
28532
10549
29147
19420
8432
15262
5188
27891
25842
14596
527
10971
27041
29440
29248
7443
29393
16163
16630
22739
1067
2187
2729
12099
30343
8115
3248
7146
31901
15503
28422
30569
23261
26329
23373
17001
22171
14502
1299
7378
8303
12092
1877
15677
15836
32295
15169
31917
13871
6282
27712
19065
1706
25780
3380
7309
8674
19955
21246
12243
32358
10413
22596
11499
30881
7340
11889
1314
3074
2490
32765
7074
10074
6766
10222
3814
8325
31045
25247
13937
2892
23540
31680
10432
30602
22781
7582
23933
23182
15233
9636
16373
10177
18773
8738
17868
23688
12120
23886
24047
876
2051
6537
19403
29305
12353
25315
17085
18659
24193
6624
21961
28656
12298
7037
3982
8977
8335
10862
18041
17234
8196
32170
314
31221
15024
6185
32628
28250
1922
19948
15033
4899
20648
6719
29621
20117
10846
11067
8105
576
27652
18062
18972
13794
16244
27519
16077
27017
14994
22060
4075
21240
14117
18454
19592
2636
23781
14816
31564
27103
4564
23124
11622
9581
17618
32423
15816
23669
18028
26622
4244
11234
9206
560
26321
747
14553
32718
6755
16184
27181
30561
22074
21574
16523
26098
7881
524
21532
15056
16058
24287
16118
20621
27616
14483
2473
30538
14445
4323
17940
29748
9317
14610
19582
6735
25426
20691
20194
24691
10810
11367
13961
6292
6606
26117
32734
11334
6372
7806
2175
639
13095
12577
912
29343
20493
24284
2132
26799
22026
13477
28414
7910
3588
12568
28612
4210
23302
28002
14390
2421
6712
19805
27342
30797
16143
31484
15560
25624
32705
12522
9779
11383
9724
6254
22601
30355
22487
16018
28156
27486
27913
25732
2769
11036
9304
12092
23537
6689
19797
31327
12158
27356
14919
21092
5667
2324
3685
23029
17135
19058
15432
7832
7523
2112
18591
8334
14793
1648
9509
4603
11208
19424
14288
4424
26422
20444
25163
25286
9005
8421
7591
28052
29537
26800
32334
32706
2992
29042
13368
7606
25083
4187
23393
24783
8757
6496
12410
10569
10425
16446
32222
10081
30433
2748
21705
32697
21972
14384
26308
3837
7071
16964
4964
4295
18056
23290
32308
11712
25246
3054
16624
13577
28053
23260
3572
1241
11473
5985
22259
26215
10689
13830
19436
24842
18542
23674
18010
18590
11348
799
29868
2859
24432
20424
23028
449
28570
3522
30179
18598
30229
26385
10485
25268
15717
17147
10473
11260
31072
28107
6516
24495
17800
28111
7478
13631
23960
10659
29421
22721
17501
17329
29417
17046
19655
20217
192
12874
14656
16654
17730
20668
25916
17761
17583
15743
11538
21954
9512
2945
2058
15396
14692
28906
2231
24993
9124
11847
14215
3774
9449
28904
31640
239
27748
13446
1485
31070
31534
26666
29218
10472
28729
23113
4924
7528
20615
12340
7237
5177
8089
27824
7414
22006
23595
18912
1013
32644
13598
27244
7010
23635
2742
9692
13228
13792
4101
29765
28842
15487
8359
15656
27879
27991
7856
3479
10045
6574
27875
31129
28325
29543
22821
11472
16461
17096
2865
28249
19435
10625
19340
7156
4690
5866
14012
24677
21058
20877
12469
10522
14213
14820
11412
7949
55
10852
7311
9964
3174
6330
7724
11384
3035
23636
14002
15659
15926
15907
13277
13853
31041
13727
1238
2344
27006
30476
8034
23882
16642
14076
17754
3660
18566
18198
15963
20385
1724
28693
22974
30353
29151
11540
19659
12183
24462
11272
16681
8967
9946
14222
10137
19699
10398
28135
8933
3152
12815
26944
7954
11605
28051
15671
26845
29476
21975
28060
22886
25772
24347
17012
27174
24782
19153
7492
17702
15806
22887
13196
9587
30637
20065
21137
7117
12965
31402
4191
2975
5044
16684
3599
29748
13644
18846
12102
23079
15082
21917
27390
25883
18422
27647
6537
1453
24042
20068
25554
14247
26039
27917
14311
13430
26725
19698
26292
10719
15097
5134
20241
18669
8603
12286
14848
16686
11768
19146
19503
31775
23782
515
12485
11492
14150
5134
24923
2108
31279
30655
12103
14517
2633
4650
29217
25372
13942
32437
32640
20280
3512
7538
20485
2232
19535
23468
30107
3177
9249
27328
18172
21932
25695
22830
25720
24616
17510
16880
31218
29116
21987
1547
25131
16567
25147
17507
3907
19020
14122
979
23676
27968
9898
17277
11586
7398
15894
25951
32104
16461
30863
10024
18101
4536
28831
7497
24479
4686
21788
25678
14166
26131
9551
31855
4868
11287
30806
866
12371
9966
21447
16500
28977
18783
21910
14040
29904
31584
13625
12863
16880
11075
24585
425
26208
32554
13548
21626
12226
15040
9009
28112
24976
11563
12475
8724
3164
15164
11106
21199
27228
23017
2454
23743
25893
3326
15941
11307
10423
15887
1023
27507
26554
32689
25433
32747
13575
4330
30863
18665
5738
13541
15469
21789
13478
13034
21615
545
19642
4750
11815
14929
18019
26663
27103
17629
5090
17795
22656
23581
16127
8922
4274
32292
18254
21504
24389
11159
13745
24031
5840
2240
2334
16421
663
5342
24739
1850
178
27583
1703
14965
1900
17809
16754
31375
6634
10486
3312
25688
28685
854
8625
2984
21912
7033
27957
8857
1174
4693
24423
8435
32502
26148
12647
32744
11129
11194
2444
24066
14798
29206
8362
8025
4603
1079
19600
24073
21246
32049
5077
16099
9396
25215
11989
32355
24827
14491
6646
18914
22547
17868
7472
14605
13387
30527
27852
31638
16601
7258
18283
3882
6153
27725
13643
4514
31898
2538
19654
893
25188
31158
8219
3726
27199
15936
14449
9458
21793
3761
16921
3141
12934
23461
19988
10517
19989
5689
19669
7831
8320
28005
9799
5785
18348
30093
4882
17848
18962
28242
6939
32723
10597
6830
23881
28864
2164
24384
1167
19773
26707
6884
3623
4137
16565
28039
17691
6132
30621
24890
5898
14420
31798
10628
9769
5177
2302
27901
15496
21508
20778
19736
1175
3059
7495
8257
10984
26336
6941
4648
19766
26924
25816
7772
23207
24566
874
6427
18766
20624
28715
14953
17652
31795
22978
24415
15128
19441
12361
30150
26676
14572
15532
17892
19010
1222
18258
3734
7295
22104
4608
10143
16495
3751
10490
7744
14369
27155
20331
9
5556
16850
2822
18414
1050
413
4846
8605
19740
9641
9683
30479
158
21721
2910
31837
8485
27442
17616
11734
31126
2191
12518
29774
65
30614
9983
25528
27421
234
19840
18424
22869
32418
12152
29682
13828
17403
21888
1767
14397
11593
26086
7169
9295
27700
4106
6188
12871
25632
18183
2600
15798
10989
3990
20700
8884
481
25904
31726
27684
23266
31347
6800
14138
15849
22727
27805
28731
8883
9025
10724
19588
4794
200
21444
9678
10083
29046
17657
6832
14457
4928
29621
6245
20186
6618
6642
12752
12144
32213
14343
26557
4707
9995
9594
18026
23181
5692
9238
31814
24879
20985
10557
19960
10722
6849
20863
2979
4816
10859
12907
27497
21795
707
32420
27950
27070
3960
12344
11166
9771
7990
11566
15985
9685
30735
6750
4589
21368
2847
20614
22445
9941
2928
10137
29858
27306
27675
3162
4183
7905
2480
5162
10617
19208
728
798
21398
21761
1081
30805
549
12283
2970
13449
1223
30625
26184
12003
6348
19344
28344
27668
13305
32527
19821
19361
27784
28922
16668
16254
8817
8192
12815
8671
19944
20239
5319
7499
5927
19979
24549
23282
7021
15046
6475
27456
839
20013
15998
7346
19982
2495
3150
13545
30385
22852
27066
16381
21940
31931
31246
27155
25721
20116
6734
5938
17855
14879
19927
11602
14184
30277
24132
17590
20863
22646
12943
12924
13945
21474
8568
8563
6331
30956
17195
11564
14685
2267
1565
13140
17454
29139
2871
20288
11512
18181
3382
13258
29189
2338
22354
22364
26593
21269
3869
9802
29282
16113
21935
12133
20198
5928
1024
32461
21468
10239
1685
6918
18822
17726
7263
22606
16380
22572
31968
30254
1653
2490
10639
15184
10178
23807
28286
912
4123
19940
22074
29781
16414
18465
5362
19234
12565
2664
11996
31336
20088
18911
24021
2207
10419
10708
31304
26004
17704
23469
27472
10757
12152
31517
25121
30059
12286
31390
25764
24087
19357
13339
27489
10112
28860
29164
5794
13020
30094
1032
16085
24045
19351
13686
25651
17438
3180
13829
16799
5582
17338
19517
1745
31212
6793
25493
32179
11716
18370
19175
7947
22296
27119
14112
23131
15475
11843
24124
5381
22458
26842
15986
9395
30468
577
26027
18678
24491
24121
19769
26670
10148
8120
7622
5033
14603
28209
28554
5903
13314
8213
23234
5885
8892
28314
27741
752
13269
5819
21240
24165
28389
2944
22540
9534
5972
7551
31078
20328
12656
15267
14040
14267
23996
12588
26671
27169
32395
1271
12132
7419
23502
24064
23319
22976
14635
4389
19768
6375
4687
15405
14856
21768
29060
4616
21312
22846
5254
15448
13199
20175
21394
30257
7754
19983
32449
17437
26464
30337
9620
28004
6028
21056
31952
6794
8398
2205
22156
15640
14107
9226
24712
9376
8532
28471
7360
25851
5749
11642
18497
29141
31503
12916
9276
4972
4856
7410
21849
6292
31552
14609
19789
27135
104
19878
29359
25275
9423
22748
31495
4604
27501
31
11049
18972
15043
14137
29121
8416
27666
25275
4142
17661
23244
31135
17812
19674
2120
27179
12332
25240
10169
17945
22751
29008
9825
31220
7444
14235
1026
5061
27334
25432
3990
23791
729
6825
23615
19288
13742
5695
641
3529
19957
12504
431
14232
7618
4101
21923
20356
25059
18993
5298
17888
28530
11743
10720
5620
24486
3635
32591
5792
11758
14516
11518
15938
31809
30800
32688
24026
29103
18849
27689
5996
26429
9326
17056
5030
22255
32373
13938
15043
16678
27495
3604
29871
31788
32309
3915
13420
8718
20362
31647
21172
4266
19864
12557
31712
12296
14616
17148
13576
29422
29580
8050
15468
17838
712
5256
18706
24387
28080
18971
28081
10396
22083
965
8910
11832
29913
16139
15397
20467
22696
472
19786
8992
4493
27947
16784
15063
9994
26636
11050
19088
139
30404
3472
22257
8941
4685
10021
26853
26432
5128
32278
30446
3788
2478
13445
30908
22611
1417
26599
22782
31382
16100
8106
14712
10266
5824
3867
15702
44
21704
11912
19904
4387
12423
28577
3246
20453
31449
4388
27134
10413
31647
21946
3780
3339
22455
8732
4833
9004
4908
18041
12503
31323
937
30492
27611
26824
18228
14410
23596
30344
4888
16745
5540
31198
28451
7016
23692
18617
12562
32346
7349
9085
19530
12900
22212
15622
18889
30682
30670
1003
31835
15013
20261
4351
17681
5352
5745
24350
31727
25827
16386
12326
20709
31255
32612
17219
14593
7594
16436
16496
15330
31246
32563
32058
13680
9694
14745
32455
24522
22024
26284
23832
14720
31537
12176
27531
7171
20053
22881
19108
5721
4270
5503
18188
24597
728
11305
10714
30855
22322
13646
24082
17968
9095
21407
3947
19064
5614
9705
9814
15780
28910
25250
17723
9986
4838
20930
11014
17766
3244
6356
7906
23514
2933
3404
18756
13970
6645
283
7724
31774
31943
15745
15528
7907
11790
8226
26521
716
15453
3677
31673
11069
4308
13017
1757
1353
24716
14688
25720
8740
19766
31985
865
30171
30974
23568
14550
28226
4534
10081
17600
30254
5936
24181
27448
14565
24811
12004
18251
14803
9970
27036
15098
5247
4610
25208
8325
30909
5867
28181
8426
14116
8504
29153
21416
29122
20754
14964
3016
17679
20578
3108
30238
32032
822
8659
27853
11037
5990
3596
9225
12021
14199
12879
5153
2384
25791
16552
17596
2502
15562
31622
23906
11598
11773
10187
7999
16633
24441
25888
11300
7392
20547
24715
16079
2906
29089
5443
14444
12403
16583
4035
10076
1434
9138
26397
11060
15770
3413
24721
23049
9420
11507
29022
2795
20874
11468
4824
10671
14566
17403
7355
30706
31644
8095
6591
24410
32582
26425
19052
14623
10191
24661
18992
11978
17706
30061
2735
6205
2372
9226
6490
31476
6711
5676
25411
3722
5312
27372
27439
27263
4851
29280
9709
16696
2861
24767
28903
19527
6987
15557
22263
19949
5145
3417
6012
19421
22797
2670
9132
26435
26678
21799
1580
30213
7791
31550
26846
16713
3032
18854
11514
3383
27783
12911
18784
19968
6522
18923
25388
11807
1488
7951
21643
18911
7225
29467
5582
17437
4268
5246
15549
6223
31320
24819
1582
19909
18908
13041
7638
28719
28602
15938
6238
29024
18185
8177
21433
22609
6251
9578
12726
24937
18751
3805
24785
29691
2840
20707
10063
4369
8045
6500
25738
8040
914
7096
15497
14523
6374
26636
8659
23620
7503
21000
12677
10881
2019
10927
5539
3636
7656
20870
25004
30381
21503
24824
7537
1867
20380
31225
29222
24641
7353
29418
11706
25750
27596
28092
4196
8560
27638
6489
6271
14993
5501
8767
16535
34
30844
5742
25540
4527
25561
16517
15414
12916
30840
15912
12306
13015
31918
21924
24701
4917
1017
20182
12021
17377
16110
21321
11496
9834
1906
6558
10623
13341
32045
24625
20923
28107
17980
31481
5828
30925
18470
30896
20094
3396
27922
9012
16988
6565
18743
24366
8313
16246
13459
12017
741
3410
11488
23717
316
6707
5060
4004
126
26097
7496
20772
13594
8965
651
17431
2892
19859
19640
5199
27049
13224
19509
24806
505
21184
4125
9693
9284
11915
29169
26883
18480
1264
2442
11800
16522
851
7506
30259
19746
24851
25268
20065
32476
855
8913
12687
8708
3595
6005
16810
8930
1573
5193
7172
8334
26925
20554
19706
8710
24060
25465
9940
8574
25284
19668
32748
25079
7248
5254
7187
17171
10893
24155
17712
1832
9802
118
22314
16275
11324
29254
17160
21327
6469
10166
19799
21446
23541
11428
3020
5094
32594
5269
26155
13688
21204
4775
7783
8365
21428
19911
9227
6650
15207
17699
14040
27174
22373
22754
7344
19618
3630
19219
28339
6168
13711
19684
16807
21830
7713
27669
11677
14349
30740
29868
30929
11973
29994
6889
27091
31700
19462
380
1252
3455
167
28662
14499
2048
5680
19838
15849
13784
3562
13253
12017
21094
22411
11836
6588
25273
5817
31108
4531
4259
25034
22309
1167
15374
24014
18820
22134
13971
23503
19471
2406
23881
23383
23483
29655
1243
5683
25520
19100
27614
31095
25154
523
10081
12226
23076
19037
15813
8387
25560
11096
25551
2556
29546
811
4091
5318
9822
27801
22547
3478
11751
20569
19713
8318
10586
9661
18658
16119
1249
9875
25435
4829
12404
31305
48
8891
17157
7252
11282
2889
24059
465
15289
29235
25826
17005
24883
5660
23905
18563
11132
8163
2924
19589
9294
6437
7610
8093
58
11267
32378
2452
5368
4133
7234
15858
2556
18686
16200
11367
30537
6482
16084
12393
26250
20470
10997
25631
27231
20952
15988
6782
16373
1343
11526
17586
11993
595
8645
18111
6926
11487
481
32616
32093
6998
18323
1872
13804
28436
2387
27487
27922
487
331
26215
30314
3278
10507
24071
27174
11264
15742
9936
26790
25648
16157
21415
15434
3344
16994
5226
19844
17684
9344
26583
7473
21112
30801
9385
14633
5508
16272
7683
24340
28687
17480
26386
16768
17986
9868
31215
9009
31902
29289
17858
15544
5952
21017
26669
8264
24164
12409
5608
4036
11305
24510
30376
31004
18324
6243
30790
3290
28886
25701
23837
8952
722
19123
2484
25077
19930
20192
21917
23592
4025
6428
25500
5971
11511
23138
17676
12923
3928
16627
27775
7671
19878
4354
13221
6600
176
13745
30831
28200
27027
24124
5491
4709
19768
31604
14739
13808
10526
12656
25305
24497
9562
4479
166
6046
26588
12384
268
20108
11507
27830
19832
30789
18708
31158
31380
3034
30679
547
12139
24123
7234
30588
1999
2820
22090
24948
30199
24474
4503
16802
26477
31863
29064
24442
12584
8386
15991
4220
1780
21539
14398
20651
539
25301
29177
16193
31550
24573
6926
21409
15236
8762
22891
24205
18679
28285
6415
11161
21034
17691
29900
22239
32031
1312
7243
10997
7529
23015
23376
6940
5518
9959
9791
11706
26543
26064
20448
27403
14699
10967
19551
9235
20224
17229
9623
9687
16819
8823
1167
11468
30067
4250
29765
11408
4537
20565
16811
16344
434
11827
7408
21674
16288
11905
24576
26828
28542
19805
7758
27260
3298
1296
25041
4449
12328
3742
14668
17346
11981
4251
31699
23542
6937
12351
25995
25115
26369
14525
29105
3595
11851
19665
5598
9612
27635
22168
17033
2759
7886
10661
19661
3836
8557
2897
9580
23923
14660
5458
277
4790
8459
9872
21986
21501
4709
22068
21029
31466
4800
7425
12388
10614
1916
10471
3234
23084
21839
3797
7904
16533
3816
20176
32484
3571
30418
24130
21817
28209
22684
11412
7543
20763
32055
22014
24005
21451
16031
30878
30619
24163
32445
24520
30157
18946
1421
31134
31685
8944
2684
19168
14863
23324
27924
21765
3100
201
24794
8842
9023
19844
4215
28042
25340
8537
31767
5263
21122
15942
5903
20904
18294
22512
26818
26555
11762
19349
13509
14877
4558
5186
28225
608
19742
20294
31385
6252
32763
25830
1869
209
13703
10578
30495
13660
23083
2520
10868
23529
26403
6744
9980
24439
26429
5880
25237
8066
14557
11800
13677
10637
12613
9865
14183
12542
1299
13817
3265
14638
6667
7090
26099
9665
9751
21381
14042
9523
16268
29952
26901
10676
17071
4840
3504
25654
12408
12003
20991
30148
27286
5492
15309
19221
28850
13868
28855
22113
760
19487
3282
7027
19924
27286
19604
16896
761
16899
3569
8759
936
12602
27844
32665
47
30429
32369
26123
12464
5912
28872
23849
2851
18831
4141
26078
6814
917
30966
30257
23508
29343
30741
26466
17117
31480
24311
2614
20021
3766
20140
21903
19206
28908
15943
25407
11946
14625
16520
12062
10603
11009
19640
19547
22158
13907
3797
1295
11665
13099
751
6168
6320
11873
24530
2340
21678
23105
5349
14092
32209
30596
24402
11364
28207
19072
14951
24144
20776
28827
12093
19864
4148
10757
18327
15871
31967
27559
10252
30673
23569
19798
5481
18364
13971
10317
26961
12512
4815
31194
14886
1321
31703
24151
14893
22493
31145
14428
4588
32369
24242
22579
14807
5025
3728
14220
5932
12480
8732
7538
24604
20812
3240
15998
2859
5317
9861
11595
19929
21183
16585
12073
28290
13623
9806
18710
28035
19747
11774
6378
18846
21836
16974
20177
25504
5984
521
23294
17728
10051
24143
9118
20299
26791
23005
22283
4862
4828
19855
11843
23219
9961
22050
13208
9665
3035
20287
25001
7069
17757
32693
11920
14917
30857
23303
22365
17374
13054
31782
32708
12187
10291
15743
31250
8674
22795
4664
19301
12202
22953
1207
16413
28968
10629
32357
9358
10154
20927
15537
30199
31427
15796
5975
8120
4264
464
31714
6335
1498
1187
17007
30020
2053
15926
16309
16566
6184
415
14402
13301
14327
1235
6407
7105
1662
6844
6423
883
4102
21387
10412
30698
21820
30544
20843
30409
19856
3783
27625
24032
26844
28277
20077
28391
21574
30708
22776
15218
1639
1420
642
3361
22189
13315
19335
7703
9213
32437
14786
13742
20125
25063
16697
32105
2386
30552
15993
8747
17861
16665
26147
5542
16427
5791
19879
1045
28197
26647
29008
21038
21733
19449
23425
14162
2707
2784
20798
18440
26351
7577
10221
1193
10039
20857
10334
16477
2379
1780
8970
29765
8719
15980
6552
21242
29457
26439
8614
12343
876
9540
25797
4306
32748
15
25029
30449
9842
12563
21300
15994
154
911
24353
7627
12700
31468
29733
7852
23408
13134
30629
9089
24374
12393
10577
19653
31956
3734
24560
21171
5601
18981
864
10054
6082
4341
26584
29796
20754
21059
28273
19030
13896
192
3813
4732
22931
15078
11926
6719
6665
19851
26834
19014
19969
17591
11349
24045
27837
32435
21007
12019
31565
30050
4392
26994
16559
12756
29762
15381
1339
7705
13310
22661
24895
10579
6849
22564
24294
29199
21944
22782
29534
27350
22297
26365
4921
11518
11692
1372
26132
28102
30091
27741
23927
18851
17958
20287
13053
22996
16777
15978
4533
18492
10466
31214
28359
21873
6717
18475
21851
1297
23443
9425
10678
25685
22275
23564
10150
7912
11359
26104
8225
22009
31722
5723
14889
28047
20064
29843
15090
17436
15927
20429
6471
2134
17957
25464
24618
8514
22754
8186
9403
23697
9775
27553
4955
22320
12567
28636
22544
21531
7029
18091
26155
30066
19126
7252
25385
3022
18912
6488
14552
28629
3283
10405
4795
6668
30928
28173
19118
27885
22071
247
2253
25914
3989
16212
6803
9360
25053
19669
17727
2623
25078
4699
6012
20057
31606
20912
32320
21257
19630
8564
8437
8230
998
25946
18647
15624
8681
5780
22429
23707
17861
28811
4443
4017
26060
21972
15783
29085
6622
351
25595
765
23275
22514
10074
9943
23475
28118
1334
30184
24272
5329
31634
23608
11767
1620
23140
13554
5755
32244
17469
22643
3858
22558
8747
20641
27356
2311
3807
10110
15777
32739
32011
1021
21851
19031
7438
2324
27892
3120
17875
11026
31824
8021
25846
28467
18830
28666
14889
18801
8075
26903
25047
3230
19880
1305
29447
8368
21710
22231
13442
29532
26031
7879
11576
22246
5198
16498
5088
17207
25793
11301
25055
11568
5429
4330
3435
26686
18740
27318
12016
17966
31267
16612
5554
26947
20751
10466
4021
31878
19881
24875
26842
18014
24206
6261
25930
18784
20172
13611
15127
26472
11426
12573
20257
15081
3464
23927
14647
6785
21359
8943
21375
31441
22346
4675
22808
8843
7373
22755
22525
25804
29557
28138
31277
21933
10440
2899
27145
11541
12254
18282
22013
19409
25120
25216
22370
5862
15696
7395
16547
7461
17098
10510
5791
15105
23561
3612
14671
12446
26732
3715
32681
24106
22586
26366
19140
6768
30949
31179
21564
22442
22155
14871
15320
2711
22210
27575
6250
1998
28821
2840
4087
19282
9674
29049
15128
24166
8551
2391
22432
20387
8052
10025
3711
28999
513
23118
20711
20944
14187
19012
4269
8906
21980
29722
22513
485
4113
23592
1025
22602
26464
2045
10107
17455
16121
21657
22450
16553
13420
31965
26963
32706
24939
25663
24649
10956
27345
31170
5853
31989
228
18214
24610
27675
13527
91
10640
21473
18324
10044
24559
22274
21944
6010
7031
27365
1246
3798
22325
16754
5664
1428
14256
1317
475
27436
9421
7008
179
6978
15088
24838
9687
7896
22372
5445
28294
3523
17405
26291
27347
9307
17915
22173
25509
24951
5170
26267
8705
16537
30824
17512
15244
25701
8191
26609
2123
17752
24532
22444
9646
14518
28518
1835
10957
25540
24379
1009
29169
28472
20095
25732
6998
3822
9199
11716
11567
12764
19957
8826
29931
28232
19988
12596
3511
32312
4999
29777
12356
24619
26917
30808
12234
28678
31368
15502
18509
3153
13422
8647
8735
7075
1119
15228
11942
1627
15249
14110
16991
30865
6408
19882
4131
77
16129
29566
27049
23542
6033
14955
26957
3341
27786
6667
26895
795
13982
4692
27359
29415
26567
23662
22040
11757
13542
7618
11850
3596
8874
20820
10044
18815
22963
23378
14897
17166
1527
31469
8299
10885
17765
3687
22254
358
27081
23917
3974
22491
4592
23976
13067
21998
24076
9615
22756
25852
17241
383
22474
3431
17153
24333
21454
23692
2110
667
28062
26357
12734
15145
30468
15055
19019
2158
20655
22174
13483
26407
21814
30767
3781
14256
30042
22478
20486
29393
27020
9146
9987
8410
7343
20438
23136
18162
13342
3489
12528
16044
22769
104
9501
11227
9852
443
26507
1192
25113
2589
29944
24545
24616
4607
17255
32148
14931
32496
19069
15837
15127
28942
27435
31228
8831
1216
31373
29610
10291
23719
29714
20142
24242
2001
5854
18603
23516
6192
29292
9020
19123
32075
9848
29762
19042
30516
23068
20605
15999
13754
11833
1114
29837
30687
12056
20236
17093
16269
2385
21470
1046
28036
1516
13768
5482
22935
4551
4416
14379
15128
21559
18514
32261
30097
6386
21747
8686
7604
4397
5523
29284
19093
12289
18417
12534
1815
9747
9779
2822
30628
16500
23094
4045
2082
11974
15139
18336
13858
29857
2371
20593
19290
2613
7188
9112
7253
28720
13980
26836
8041
15074
30205
31372
28650
22686
3658
32603
4509
5988
18841
15564
2159
11710
32089
1890
6247
19176
27110
29660
16858
29235
14427
11702
19934
9643
2728
5875
32512
9208
20964
5402
14906
15746
24292
12159
15391
1241
24844
25283
11865
24147
18277
19870
12629
13047
14320
6876
11837
19097
4410
19622
1319
4423
10801
19715
27532
19428
17462
26527
3835
19
25459
4298
20494
4951
367
7619
10654
25976
19935
21047
6195
27176
29120
26373
5566
1510
2210
28228
32139
12835
17479
14471
27761
11427
28268
8031
29004
13863
15591
22818
8621
9289
11250
14827
26319
19111
21191
1506
5837
32579
26221
14526
11795
15914
24273
26248
15634
12372
29208
6561
24121
6604
23092
20998
18464
29456
6325
2515
20486
12731
11490
25350
28797
1121
28681
25222
10340
1467
3091
23652
17942
11012
16475
30048
29409
29090
26817
23983
4794
4105
31482
10491
19502
11741
28202
26540
19612
26454
16564
25958
7330
8169
4176
12498
6357
26661
30815
20642
25269
31451
10876
18895
24032
5505
30036
23333
3461
12248
11703
4610
26140
22221
11759
7259
26452
11933
24400
31743
4685
24637
528
32544
4104
30201
10073
8719
7196
27483
4509
15943
1962
29774
28458
10925
26770
16259
8958
12566
18663
14356
4060
32010
27297
2664
6559
26568
29586
28758
20687
17801
5532
2189
31858
6153
1824
15667
30244
19012
24505
32204
3178
22909
11563
20574
24388
3973
21654
32210
27393
12858
5104
23966
13655
19534
14257
1185
20659
29514
22736
23374
10702
11986
14063
24333
21377
25898
723
4830
17626
28921
11542
25408
15727
17485
3360
337
17394
15584
29779
31030
29446
3482
390
1981
2129
24918
18613
29505
27091
6889
8950
27599
5494
22112
15023
13958
12006
3978
10247
10308
8098
4535
12698
13183
32084
5310
1393
3440
10846
11077
32305
11895
25781
26172
18578
12731
14066
20907
32019
22545
32678
11950
493
12831
750
3773
18757
13761
14920
13361
16293
17067
22181
23556
32429
23120
10432
21721
6150
3843
25517
1852
3224
28252
28085
21290
17405
27358
13153
26324
6197
2262
12501
29344
18843
21126
9567
24177
28439
22403
9552
25640
13974
15196
32267
13163
2487
6012
8283
677
27335
13394
1290
12621
7664
23983
16303
24428
29357
22127
13255
7769
16769
12123
8199
7879
29161
1358
29681
2
7311
27287
9126
9334
7616
32671
28155
12145
11296
32460
18638
4138
18333
16292
26523
15873
5281
30006
4170
2568
30604
11189
12875
10691
1121
18791
29669
24364
5823
5821
10699
25082
9748
4548
27889
28195
10765
4284
17053
7072
9041
30725
2753
25456
7278
1859
10376
30175
14099
442
6447
17928
6529
13818
27926
28313
20540
10433
22295
21462
30726
26397
17942
9953
17421
17361
15577
11832
13412
1018
23578
30591
4272
16114
21211
22144
31524
30069
10490
21872
12207
9218
6149
31347
17267
21636
26191
1635
30842
29490
30788
4301
31140
27316
3065
9533
4836
19335
21256
17852
14764
674
24218
30358
31142
25434
4549
14177
6565
2179
3609
3386
3291
20696
20085
594
1100
31389
25631
16042
13442
8834
2580
7706
9091
10699
669
26520
4864
18350
29475
2487
23247
18940
12868
110
18332
18692
15399
18459
20955
21173
16652
455
16640
20738
551
11436
3827
12171
28846
6388
8126
1145
17201
30660
8585
16553
29994
11385
10441
11022
25813
17202
23732
11088
833
12430
18424
10169
19111
16055
8620
31314
28412
19359
8839
16713
31938
15497
14928
3734
23075
19148
14741
15070
24128
3539
17312
24472
29383
26217
7335
15470
29635
12083
10307
3046
16825
22142
11299
2881
14832
17724
11010
14756
2320
14152
27606
4725
3055
26866
331
18184
12967
15799
25967
15227
6636
17488
32175
19166
20124
15343
6914
5783
28568
32453
19044
25861
8659
30151
2438
21348
2728
31154
13252
24305
17521
17740
15191
2382
341
23789
716
7207
20577
3903
27316
20502
14554
29506
26526
23236
8146
1939
13378
10322
11258
22253
29695
17399
7095
17904
22920
13290
16760
28193
9690
19586
6726
10803
4977
16027
12957
14213
443
25917
19834
4331
29901
5752
437
26289
15701
31634
16785
22493
23759
13413
146
20661
31228
18946
27534
12929
31120
13466
26375
10386
3883
30879
18360
20099
23179
7974
31086
3007
25856
3472
2073
18499
4896
105
16163
24230
24251
11664
21248
28502
27922
20888
18695
31012
21827
11375
4480
23299
11016
12605
2046
8972
8609
28047
19951
20166
23311
27573
13169
24741
14211
5224
8807
28368
14614
21425
16332
3879
20410
1286
14152
17541
8561
27317
25857
20802
8893
13446
20916
4861
4951
22939
13572
19352
13091
18844
29202
31619
17252
14609
16973
12606
10285
3343
652
29209
15896
10775
22106
8255
14393
10811
5520
498
6741
16002
14378
19992
9040
16270
13395
25079
15333
12668
706
1085
15770
16140
15689
22851
9714
28674
2987
27794
2532
7884
21167
29607
23948
29028
22898
11763
25633
22904
22785
1574
23591
24521
10791
22701
15333
16081
1412
889
4634
4264
2527
8963
24300
5160
31934
8333
31009
19792
31027
30122
21393
1254
248
18688
14043
27488
9150
18509
17240
25349
12483
25512
20301
13648
9891
19978
30053
14229
21872
26380
26462
8934
26372
29170
22786
9016
16790
15849
5977
25026
30860
9101
8221
3750
16272
31662
19822
11731
5094
29524
27079
11050
4093
24832
16433
31200
7492
32565
31926
17187
30782
12343
28953
26624
15065
12051
4548
23172
24828
20959
16130
4641
31583
16707
11886
8020
1183
18745
2220
8837
3218
10000
3926
10799
11736
30903
24377
15424
434
12600
8898
3779
1559
13955
18611
13244
10757
3181
4890
15443
29718
12536
4740
5941
30547
3541
24942
11832
2636
8999
13308
1854
29801
20362
4078
27739
1403
22868
16591
24378
19350
7451
23663
23484
23331
1399
27540
11747
23857
12296
2797
24303
22540
25531
6215
32198
26129
15434
16387
18073
20160
12034
32456
28101
13843
19657
27509
4599
22030
25951
23898
6548
30360
28644
17063
32600
6025
23707
15140
21053
260
13293
19235
27806
11783
9905
15028
9884
17728
29610
29975
1985
5155
18001
31863
15331
16441
29397
17877
20299
8891
13153
4418
30231
607
19101
4689
25309
8050
12151
31948
28817
17959
9763
18854
9129
23343
27232
18481
18046
5769
20222
20369
9462
24732
30365
9329
11104
1411
2487
26356
27807
12968
3553
7406
21387
29332
16973
11349
916
6917
9620
23026
11433
24897
2226
8284
22104
2219
21330
29479
26166
24468
23885
16985
25985
32339
365
21021
18948
31896
19830
15036
17979
4349
29543
9416
25784
20190
24573
5531
29381
30315
6777
24576
32331
2811
20899
3375
27378
9124
14863
20991
25226
10760
8607
25687
9386
31601
23625
17637
31126
8225
28186
20755
19558
3299
5755
12599
12389
8934
8372
30474
21944
25035
7598
92
12608
32765
27389
29190
23489
23873
11037
24351
27715
910
4860
28787
20920
10782
12473
8240
28640
28357
4012
24035
874
14722
23974
11939
4444
32340
30074
7564
26036
20814
29372
4208
25935
238
13000
21704
14091
10923
26374
30961
2089
32205
7277
17813
28661
8321
23622
27495
13992
27437
18995
14611
909
28161
25455
28020
13923
29903
17239
31240
28675
32028
4394
18850
3650
21111
31501
24415
7961
17673
25170
25051
3843
11886
7417
26277
5799
14531
28791
4592
11191
7168
10679
24203
31000
17800
30303
8723
8771
7679
25428
8551
21995
24924
9344
18780
29664
15679
2515
24498
18995
10628
17799
16455
11675
12056
26537
31371
28951
4363
13013
25396
213
3047
11841
28211
9299
8001
6396
25830
11204
5517
8824
19599
3253
15927
3143
4357
12784
3567
6434
18345
672
6468
27951
7836
25783
7540
17284
19503
16013
2946
7399
4763
15305
18826
19415
11251
22917
7762
465
12886
32173
31521
16844
22633
7592
6100
23558
1540
14395
5422
22274
11564
9898
6512
27089
27458
2336
6953
27538
19065
21072
20048
23605
14222
13917
26512
27268
32691
247
10723
7011
27340
5832
29282
30294
17885
9742
13916
23365
29123
19081
10149
25980
18979
10391
29488
32758
30881
17310
19936
3803
2130
5034
17308
21063
19827
7767
31906
26189
30043
5874
27933
1084
21166
18907
8953
26912
14804
22317
9718
1420
425
161
7675
23191
31862
3760
13230
10277
32033
4344
24385
20584
15520
32225
6542
5286
13235
30080
9063
3900
15571
11196
22311
3811
4709
15791
14477
14130
32052
30287
14027
2660
18206
17997
21721
16476
17934
29501
11279
3814
4906
16888
31987
18240
16973
8254
16976
27865
11703
4512
31368
10584
10755
25501
6954
16864
13914
27916
25287
29074
31975
23738
32002
19796
14218
23379
11495
5329
19665
1158
29054
5313
14628
31588
22687
32363
6207
7689
29703
22632
25318
7295
9388
27817
13523
30431
12366
22460
12020
9913
21839
7498
18899
30646
20676
26085
11350
21372
2764
18944
23208
1234
23841
20031
20855
13829
10220
29938
24928
11914
10462
2268
24231
5092
18556
1336
31020
12745
20922
16126
20634
3456
18380
13154
6370
18573
20025
8093
25320
5776
22321
17905
23931
19051
3104
999
8843
16035
9347
7644
25750
7433
7931
25531
4196
18841
4255
4876
14068
29858
32407
6702
21430
6183
30183
8416
17147
25733
21896
31239
31913
24663
32445
25259
26419
16279
24484
12866
22216
13830
3083
24625
3275
18637
22662
656
19332
25444
11198
10797
21013
13235
31244
16340
21679
4471
8007
18126
17669
29928
2778
10408
32513
16537
29209
28214
11702
25247
31957
2518
31895
4341
8237
5881
26854
9503
7080
13024
18287
23310
19585
21156
21109
30532
19266
14969
21485
6200
1940
31283
16362
14076
22102
4874
21337
6941
9708
10906
2798
17867
19674
28462
1630
6201
9873
4413
11215
14663
29320
30261
8076
32351
10639
2168
25598
23452
15713
18596
13784
7986
30328
1048
30865
31754
25637
21684
18199
10156
4831
19935
31938
3938
31964
31439
19078
26778
26846
4613
11374
8333
11088
534
21317
28446
32145
15281
22166
4357
24464
23774
17112
27948
14233
8580
22498
10585
9326
15662
2981
29198
13722
526
9497
31150
32258
31043
888
29408
13501
20567
26027
2616
22565
16396
17921
8981
1838
20568
7719
23493
1271
7598
10069
7408
6815
895
27333
14387
19290
20481
13929
23051
3780
25903
18909
21237
1397
27409
20379
31699
23509
30525
30318
14738
20273
19870
16169
25610
2319
7796
21144
5157
17599
26012
29623
7492
29491
20242
25122
13790
20753
17588
16589
4970
8965
2376
21749
32128
3164
1217
12630
7227
13263
9662
8607
1505
10908
31828
27171
20422
18908
29197
12241
9837
31248
17200
7270
12529
6397
7491
4833
17315
29114
1743
2103
9717
31495
29795
21577
28567
20448
11995
3859
16607
5714
28386
20006
23150
18574
20918
22104
22545
5180
2860
5562
4837
17425
30963
31178
28351
26532
31516
30186
5834
11645
13786
19985
28018
9071
8327
31169
13185
20777
1512
13113
10888
24839
22962
1771
13953
19246
1869
30512
17074
14039
7639
2107
28117
1515
32108
18507
16757
16081
27045
10277
30875
18563
9566
14274
6570
11496
31677
6981
26504
21854
23152
19504
28158
30101
24885
31446
11618
6308
2720
9236
10611
1110
21017
12092
24452
26309
31524
10322
26589
555
24037
27259
18014
19188
23779
20146
11877
11288
26636
12989
15858
26023
12537
27743
29705
14758
29812
31952
26200
23321
32055
6250
31258
21345
17399
22181
9275
20936
20641
7749
29885
6491
16612
8658
29018
248
6127
73
875
14759
15228
24081
32008
20269
16909
2608
31089
5855
30325
959
7340
181
13467
29595
30320
32415
891
28254
3138
30236
4205
4750
20190
28680
28586
22292
32472
31413
17932
7663
17539
29246
16405
24361
32530
8984
31283
10
3837
31466
15938
10893
8103
15263
14931
14608
13373
25785
5292
2639
31713
18152
272
20883
12552
30171
15168
14119
2080
3158
2753
23820
29047
30341
13280
7149
12888
13968
31220
3157
6519
22383
5859
12320
21134
512
19431
20528
7497
26710
28562
25185
27488
31572
7440
3006
10754
7803
26797
4853
14970
19969
15766
22280
24077
27427
18660
7750
6433
8892
5590
20858
20901
8725
16222
30562
11436
3583
23264
1122
28507
28703
54
21114
26374
3722
4855
21878
7318
24978
12537
24420
22318
7135
27156
2379
12814
30913
9513
5146
18871
17604
22115
21983
17487
21637
27325
1849
14664
24005
3269
1296
15421
26300
9887
23171
3868
16303
17740
10018
16266
15045
16685
13662
13187
5655
20418
21821
26945
19462
25272
20307
28256
15825
30755
1005
21055
27751
16392
2703
6057
13177
15134
26017
27061
15060
14037
7781
6122
4590
19096
23852
7591
10686
14927
20938
14530
8401
25129
71
21360
5531
3992
17879
17765
29451
27549
10764
12348
27490
23109
20555
31512
5444
29556
7549
12684
24335
30945
26118
18872
19565
28002
14331
5557
12837
12650
5519
25652
25655
18639
13263
5217
2599
11729
4496
8462
3481
21849
31397
26381
22302
18558
19285
10973
19790
30541
2060
8586
18967
10442
7504
206
31316
11314
23543
23164
23457
12163
1431
18206
19566
24382
32063
9181
25171
13164
28772
26530
31395
3551
3102
21371
14660
3514
4757
576
27070
15412
25781
7030
30353
30360
21546
11635
27340
14736
20872
29379
12763
12708
19145
1739
2465
13566
19965
19884
23239
2672
17469
4971
27475
8632
22753
9806
8060
8450
24819
28809
15548
27566
22243
21785
25384
1620
15995
21489
12541
31749
1302
14676
17531
10452
12813
23682
4086
3477
31603
12694
13354
4325
4866
12975
21711
20843
16212
25678
7021
27997
5463
30975
23666
25413
26107
22588
4738
28677
13357
3214
9230
3608
18185
23797
10024
31260
11339
5514
6037
24717
16135
17251
13092
6356
1691
26551
28735
4480
481
26178
17088
20947
12969
13035
8966
13440
32102
677
2887
16307
12583
915
24359
15954
19401
24687
29066
32386
20075
4908
7335
22894
13859
19162
8287
26692
27887
26827
15052
2687
18159
22772
12060
8556
24529
18837
11936
9447
27788
1565
22560
30054
21841
31048
16754
3898
11198
6794
16202
785
20822
19120
24404
22462
25134
25541
18560
14653
14312
50
30110
6385
6373
15658
32298
9009
26551
31813
24937
11779
26325
26731
1973
1319
25747
16884
28180
14168
25425
13837
12304
18638
4594
17758
25539
28423
10384
32234
31794
14791
32109
3126
9692
19806
26157
26541
20882
4649
14659
7747
24968
32091
938
857
11437
22269
18133
17888
19512
8500
21224
12738
26499
1219
4392
8317
29213
26320
21168
23825
4123
3051
30567
32541
5294
27724
302
325
20219
7516
26462
5846
6438
29816
15985
1197
23984
18161
2047
341
1796
27479
16109
24687
3404
24567
29665
3415
5769
15010
3576
6404
23779
17840
956
24368
20285
28229
8272
1721
8205
26579
10478
24904
13931
10464
30356
28208
13672
9482
22521
1177
3488
26696
20422
26845
19731
30578
771
20786
8496
6660
27599
7562
16179
28959
9301
18103
9905
32720
24059
18643
29297
2197
22748
3295
11134
25629
28537
5546
21114
13648
2731
29684
4917
7823
4573
17876
22143
23613
11127
17751
9786
26750
24989
10858
6067
3134
32538
25594
12338
374
14487
27737
30671
2730
30225
15588
11912
9143
20618
9443
22417
12235
6142
1968
3819
18613
30104
17948
23864
4959
32294
22286
32206
15768
18635
21357
19210
2327
24051
31040
17638
1981
4748
27156
26062
27931
9076
10398
14768
6452
9517
6562
27475
16516
7128
3092
15337
21825
20321
3196
6375
5600
12279
1951
17428
25819
24255
91
16864
19890
11977
23763
504
23344
12867
3788
30231
8943
10220
6999
2847
10782
23756
17841
14440
1922
22051
24935
6488
26299
22431
4029
17716
20681
6609
27729
22837
24014
17634
27900
26847
13333
898
30969
18574
30804
16930
31561
26194
4910
28259
29781
9468
28668
19150
20182
28025
6349
10949
31730
27231
21419
10937
6823
8646
9505
14494
11885
24921
23546
156
10519
12461
2634
4616
19451
15825
4019
20626
9298
30758
6369
1472
9954
19824
14423
9883
11994
15662
31854
8616
25597
13863
9882
18713
19458
29254
26608
11589
2875
17575
18149
31574
6262
3570
4697
13377
26657
19176
1492
20476
21169
28987
783
8427
14916
3747
1206
2971
13188
24110
11884
26290
13775
18392
7696
5926
5782
32347
25150
15534
21507
12104
14873
630
29407
31063
584
26647
29618
7419
29503
5830
9004
6970
5312
5835
18883
14012
2721
31030
32414
2850
7887
18893
8626
11929
11411
23880
16683
4526
20756
20417
28173
4452
1310
18278
17435
28547
1057
20337
10488
9524
9341
24410
1676
17355
1276
25162
1193
22500
13216
21204
1518
689
12704
16096
27628
15762
30893
18407
26248
31718
25977
29542
21152
7970
11130
24460
27634
28960
13804
12342
22073
6329
6677
18462
16792
15509
32460
8783
11836
18498
7484
24541
4926
1924
16102
24018
27846
3052
23781
26475
30070
4268
17526
22661
3846
20650
25783
17490
7723
723
10671
29776
23998
28850
2191
21372
27930
23361
8503
6595
7622
8703
6396
19385
17492
24642
4777
25229
4232
29903
26563
12349
12477
10152
1810
21510
17541
25125
7260
21279
25232
11590
25972
10662
13775
27208
22644
26587
30168
31094
32582
12172
16013
17218
11369
9680
2808
22420
27889
11512
22394
5986
23504
31427
12069
7297
14933
24273
10342
21435
29170
19802
5351
32033
25410
544
26803
1698
9802
20386
7324
29917
8192
28307
4058
20020
4361
24970
11508
15394
455
16635
21988
22222
12179
870
23414
20192
24391
5582
1009
27027
14592
22637
25849
779
4386
21414
5300
2794
17052
14651
30252
12062
32365
1472
9460
10492
13415
22096
17423
24723
31026
18046
13325
23098
3477
27278
29815
8812
27377
14822
13421
11222
30990
32191
22158
21421
20762
6176
27672
69
12783
14093
27472
3552
2453
18428
9509
32196
14344
16264
15888
7056
28475
2409
11838
3279
21596
13476
3313
32462
18010
12287
11044
26283
28069
10936
16750
1967
31029
28022
13608
13277
11469
16256
14546
31435
9345
11309
19379
15025
29046
15516
23744
18368
29673
31140
5311
7605
5746
18958
2988
20397
20106
258
27996
10811
1612
12480
20832
15288
21368
5521
18988
14042
8125
11516
28537
25480
9784
19772
26599
4589
27192
20722
13799
17356
2884
11032
19416
19
6751
30518
11120
1202
21642
23000
5214
19117
26251
17727
1581
4208
7661
30295
6508
24164
11080
15849
29708
14783
22978
27154
23817
31136
24534
25588
13133
29275
11604
21931
19409
27409
23209
27778
31493
4485
7521
2919
19826
24618
26090
413
13213
10881
2715
6577
9519
17313
9204
5295
32596
29463
32296
26005
8801
11249
17368
16648
4793
14870
17954
21830
8433
23001
1498
15964
23858
28109
25111
2713
23007
18138
4082
25410
376
12944
16266
11655
959
17340
4684
14262
7705
2361
18033
18095
17206
9993
15303
6040
26100
1444
13749
10706
27521
2960
32377
25899
2240
5426
20405
28757
3823
7908
9258
19351
27526
21832
22211
962
24418
32731
13013
4455
12578
31181
22949
14407
24274
11536
8491
31499
4807
17327
20501
30517
24521
865
23311
15703
2168
1886
1858
31106
21992
19569
5658
2
16783
17230
24141
4680
30305
23847
30233
28712
27961
18042
21197
2373
10363
17453
394
25289
21239
26332
23883
1369
17937
2162
26147
1864
15135
18422
7622
1802
11283
30632
3403
10732
10074
12621
22576
29443
6916
1223
159
1634
23332
29928
16623
11408
26490
13960
7790
10810
13391
26069
6494
16420
31393
9707
7741
26469
21376
24229
7242
7636
8888
3250
25924
22206
5296
22507
14965
25562
13202
25571
10991
27262
22444
3776
10006
14610
30487
4682
27998
4294
6294
15170
13398
14208
28096
10997
13798
26136
22626
22289
32724
26312
24351
15286
11661
30686
21849
29648
28451
18100
14933
11173
402
5858
5017
8618
31815
27058
18073
10651
6115
14805
13715
26058
21052
8020
9144
10936
5028
28617
9356
16610
14703
11982
6799
30941
10671
25270
2333
17829
21570
8571
15763
20787
17679
27128
5043
16205
11148
7512
22858
4770
31620
11471
5391
26646
2839
20360
13519
31835
20994
21726
26311
12225
11808
26318
8786
31823
20785
20652
9156
4626
15323
7702
24469
3509
27118
9767
12482
32082
5100
22252
18032
10120
10697
21788
5330
18638
27375
17411
19790
15110
16261
18880
8667
15190
14065
9136
22446
16947
20379
24362
27925
8638
27636
2669
22179
24148
6328
29142
6029
30048
2160
15703
14676
1652
26682
548
26276
4761
29132
7343
11645
17891
24247
26327
11408
32584
8425
7772
12268
2737
1142
3991
217
16722
7832
22632
27908
1079
11764
22383
18653
17696
20510
7039
28990
4495
12384
26447
4173
21535
5047
7539
10659
16407
26143
10379
12718
6975
11536
13243
13395
23027
841
18267
20184
16757
460
7663
258
1160
14890
17753
6522
3642
9728
24653
16757
28417
12226
7174
27540
8201
14519
11831
10761
4301
16453
28485
12284
13029
4207
25779
557
30750
5020
20446
6874
30416
14234
5354
1251
10348
482
3580
12844
30293
14622
7849
4419
2289
18408
7087
9795
3327
15573
23267
11000
25387
2994
32619
31299
28127
29709
22061
19136
29021
12536
22151
31911
14859
22025
6977
32496
32013
32165
26560
4027
10009
11390
3452
23534
3463
3675
17844
16928
13736
28696
21344
15542
9817
6893
359
14155
30680
29939
20754
21334
5590
2787
27840
24582
26573
26401
13020
2417
21395
23034
27917
750
20016
5930
1964
12479
28397
19618
23931
5364
14509
5768
27540
907
3456
29822
415
25052
118
9255
16968
30005
31153
1255
2033
1217
24766
26859
419
21166
16678
30570
7243
12430
7487
1066
3107
13054
25416
69
2670
18566
14517
26669
7016
14273
4040
21230
28797
18622
15201
1715
15033
7589
29975
13964
384
32414
2439
19822
20863
7406
7916
27260
22498
4451
18929
29316
15815
6643
25795
23245
22515
23200
23657
4368
32452
9631
26712
9412
8807
3768
24642
5534
28491
19952
9264
27481
5846
13670
19152
31411
4182
15995
2576
31672
26170
29237
3563
21826
25474
12518
12675
16833
13684
7432
20081
12600
21905
11628
5721
3208
20423
10900
10945
15857
14568
7005
26403
8918
26971
25824
4416
19136
20498
8603
25528
10150
29115
29644
9944
4972
26683
22302
19379
20137
30296
13703
15732
23725
949
17265
23794
24771
5380
26392
23173
24755
5239
12083
25113
4235
32375
7382
19840
2975
18073
17559
20749
7887
2254
2800
22110
2056
23258
32740
31097
20238
20999
7653
23579
7032
4378
28662
17228
11260
29318
25357
13111
21228
8928
18107
32057
7169
16275
16654
29752
32600
19925
14775
15158
17850
7641
104
25125
544
28230
12928
17661
17526
25577
9194
24845
27040
10662
20290
5262
11451
19637
4410
31870
23973
10507
13117
25772
24767
31253
2386
32271
23537
25516
10050
20315
13551
1862
28925
5078
17595
31081
2618
31848
25708
11110
26974
1778
14125
7491
4511
24545
21896
27641
14441
515
15845
4064
23040
2201
11853
24423
360
26541
19316
10760
18306
32422
14583
32635
19831
14617
1762
30506
13913
12770
6261
3046
25608
3188
26664
24536
31571
30829
19692
31930
29536
4974
9396
25671
13390
7465
2100
1263
2328
12731
27624
26320
26813
32317
21081
9442
23198
9109
29596
1649
31271
15250
32283
19665
23985
13369
21656
2381
25767
30041
28014
3936
12520
1126
14106
22312
20333
6787
9723
25623
21548
24801
20310
1004
27964
18248
13725
31201
12601
10483
10737
27174
11498
13217
26341
6543
29729
17641
18565
21898
14819
12750
17815
6227
13257
11411
3616
15723
19622
15569
29482
23110
27242
32198
31685
3907
19271
5872
19276
25826
15890
8922
15593
2354
14827
30775
22619
392
6432
2349
1015
9334
31567
19699
6125
28667
4811
26526
14029
4088
24897
1080
3914
10467
10140
5395
27453
15039
3365
28252
12269
12364
16879
28403
13197
28283
8306
11130
3078
30756
4726
20397
15095
31227
15667
10737
23290
21185
14518
5423
12842
27575
22150
13538
19938
30040
15240
14191
3015
23623
20768
4790
13320
2695
20889
28390
2276
18666
29639
13205
28525
21708
31210
27408
5516
32256
10198
28655
14662
24843
25681
6381
30013
4496
2493
22263
13946
18700
10743
31107
16233
28100
18814
3363
23589
1531
21976
2138
11254
27495
23345
15022
9241
21222
15686
12798
12223
31854
30593
2582
4439
8002
10341
23169
26896
26220
27693
13982
1178
4455
19120
29687
23597
3356
15496
10957
24781
6416
2931
9464
32716
19675
4601
12014
32656
4572
7760
32545
6551
25899
31868
10126
30135
30159
27578
17810
27307
29489
799
25600
10187
8145
18813
17266
11291
31800
1158
31964
11911
7726
820
12903
23405
2092
26472
17020
2908
5396
13009
12574
22300
19488
6927
15230
11502
12568
26904
18889
19220
25801
26587
13125
17300
10674
9764
2204
27962
8448
4032
22648
26076
21437
8673
8783
2529
23620
16068
27521
1284
17400
25744
10912
24662
26933
19330
32014
12674
391
12103
23246
20309
3098
18345
15508
12158
18546
13422
26654
20882
1372
24701
22215
23379
23589
8259
27226
18993
11273
3925
25636
24081
27118
29015
21069
8526
6227
6684
26472
12797
31619
8462
28744
12406
24078
25553
23573
30480
31097
7203
2720
32555
22325
3335
21748
6004
15822
2850
1070
20324
32357
25701
10894
15370
13920
27372
4813
31243
22880
10022
14769
4327
6003
30007
1504
7037
29580
4506
12786
22994
7728
22795
7369
4110
26737
16292
29733
22215
25376
17222
28019
16514
32319
23866
230
30839
15541
14104
23241
16021
20549
9960
30484
25798
12737
13960
6973
12660
2427
14926
8784
19276
31741
15085
20290
4674
12026
13981
6531
2517
6788
32118
10194
14484
31358
11549
27989
8417
29781
4003
7401
14069
17643
25002
26295
30756
2772
17354
13320
1890
197
23347
21850
29447
15433
26003
22194
1999
17590
17466
28213
21797
5728
17020
14578
18081
26124
6998
14851
30415
14504
597
20436
7986
9017
13236
5058
18824
18196
20420
22504
9808
24145
1425
14133
11402
27773
20675
27586
26302
26511
20162
24419
4415
27933
28446
10877
28081
22480
813
29975
28617
18710
28918
28211
10068
31510
3405
19806
2939
28393
24896
4742
2885
19207
24242
30732
1885
32255
18502
19226
6422
31084
20607
7735
19116
6436
13349
2584
9421
2738
21482
28857
13655
18695
4429
30381
29540
108
29375
9907
9348
28347
21252
29577
10057
5071
8157
3077
18185
17977
27620
13665
31967
52
22455
8151
16883
30940
5720
26989
22267
23962
4308
17171
9474
16355
27939
27627
7016
2850
31824
30440
12075
5874
21466
3738
24420
10641
5721
11080
25365
32401
12132
28480
25633
9681
1715
7531
27548
20140
28289
24100
25413
21360
20788
17994
20561
6418
25152
21652
11115
5920
22089
22821
31224
7158
26248
31585
3231
8501
9071
20990
1801
17521
23184
16734
5349
14378
5051
5148
28720
16638
26982
485
7347
4892
16466
6281
31949
9212
8812
15185
9074
17486
16626
11412
1908
5680
25046
21893
31745
13219
15463
16463
4718
6464
2350
30820
18738
10535
18710
17681
11318
23097
2001
29271
19020
26503
7542
7158
9212
5129
13167
11978
30599
22164
4242
5210
3622
518
28814
15535
28307
15812
27273
31330
6346
25190
11015
25849
12049
3760
1294
13684
12342
2244
7816
20770
10008
16279
15336
30393
29544
162
28432
16806
4017
13786
11634
30626
30870
16353
4470
21638
6492
16510
19228
18528
25000
26955
995
23494
26761
8877
14825
11882
16568
7945
22099
17391
25119
11829
751
4859
19609
25901
792
2702
18425
28168
5083
402
25933
5162
5976
17587
9572
24762
3946
13936
26765
23383
11146
13682
2978
17158
28144
15645
22085
21359
11260
29798
7786
27210
28117
7908
17686
8468
29008
9257
28773
12038
21523
8530
9938
10055
10490
14557
12211
26465
31929
5307
23811
18930
3523
20134
8804
29092
15211
12981
7524
16478
28745
4142
29440
20156
3040
3227
9831
30653
3965
11552
19712
19644
4706
2571
17325
1442
16676
24749
18770
16729
27730
30569
8849
10884
27223
2058
10968
21613
20642
9305
30366
25662
18436
18672
27369
23157
89
4681
28180
4242
1898
18458
5583
16146
1810
13029
30311
8097
11936
28618
30536
32652
19325
13985
20672
22133
21775
17989
5893
13642
28636
27442
30330
8568
11251
21587
1326
12379
648
10773
19877
30457
22238
7104
30428
8689
32362
22279
11655
18862
5173
7646
12957
22240
7042
28299
13078
2861
13745
29184
19700
547
28515
9320
25984
15986
26847
27648
13526
5976
23988
4648
10915
6748
20384
21178
4142
13631
22705
30106
