14219
8152
17
11829
10450
5525
13931
26550
31963
21774
3456
18741
11878
8087
27816
23224
11053
23184
22545
12999
1643
2012
22368
21117
13467
8853
12187
2014
13442
13309
29766
19051
18799
13496
13260
17908
10946
3641
17185
1966
19627
20603
27814
389
9780
28657
1613
22451
6274
8127
13053
11410
23383
7210
21304
24238
4828
31053
26875
27935
29342
18958
29413
30230
4566
13137
668
949
21741
16236
4717
6948
4159
1498
24114
16865
18464
31539
17273
27991
12828
32091
27874
4275
23427
28666
19657
15603
6438
32045
11045
1855
9307
20092
19120
10621
2375
21003
26953
4384
19036
24596
8086
20544
23840
21652
25581
9456
25648
28997
13429
2764
19077
7117
11400
2769
9207
19509
2396
15730
30463
16284
25059
13031
21441
17197
5615
13769
23626
11086
14490
7132
8726
19226
31205
6444
31957
18
21407
18779
15982
9743
32137
25401
26693
1916
27831
19093
17850
7617
25145
29779
4082
13826
19707
20671
32473
19978
746
12321
27495
15746
5464
21906
26403
32615
17570
11277
27878
12219
22288
20937
3810
4474
22268
28102
17890
12495
31799
934
17875
30088
17576
14783
31620
14792
54
17774
6058
14587
21481
29102
19239
27407
30795
29673
6284
8162
14101
782
24284
28406
27655
25827
403
20332
3352
26013
20966
27696
32207
28078
7501
2161
12785
10718
1343
2132
25436
31133
1084
29161
24371
6039
17425
31326
11835
12426
10584
29554
7301
23636
14398
11565
25678
11601
13961
8142
35
18915
11993
29190
26697
17490
14637
12131
16219
9431
11434
17167
12853
23027
7832
2746
3857
773
21166
5589
22512
18716
143
25857
21564
14858
4756
15815
26027
22970
16844
26249
9318
24003
13121
24248
1643
18236
31357
26440
5679
20179
9549
28513
31880
22297
13509
14680
25035
22816
10116
19421
27185
32584
31034
886
20864
25174
15207
22572
27111
7366
11109
11139
553
10339
27048
12976
30462
14868
13893
20743
29622
4089
22193
30387
9759
26038
2251
22441
27049
783
10013
3807
11720
6326
25183
440
7066
24416
13373
6083
16074
11550
28507
6822
13748
29931
4245
21077
11465
25729
13707
12680
10549
5234
23645
9835
26304
32371
20659
25495
19698
11771
27137
13633
16251
24333
32521
14001
19922
32593
12961
31734
1563
17770
32182
985
28494
21124
6801
1551
28310
4652
13657
29107
7159
19557
1497
12275
18996
7672
13956
32521
17904
19211
15542
31085
4115
8181
1597
7496
5999
21585
8216
26668
13732
9297
14974
23299
29504
5206
11811
31302
22315
4797
26294
7792
17731
27643
22190
10417
12355
17644
22598
28646
8937
3944
8134
31177
25688
11544
8965
21605
15291
13447
6700
9166
5931
3196
32188
14350
6611
20872
9683
16226
21841
14811
28331
26791
12896
27483
1635
2575
19636
30712
18434
8216
17958
29753
18361
14527
21777
23579
29800
7920
4604
14876
29284
23106
18553
17555
4984
22241
20300
25922
4137
18891
11216
24366
26174
9536
1175
1711
128
12659
10065
16323
3007
7558
9711
13991
7445
7349
20232
1705
3439
25554
1403
17208
11848
6897
15190
5949
15288
5988
5110
28334
12206
29162
29040
24159
23161
19747
28976
15900
25742
24647
7136
10486
7557
6680
19596
22490
15460
28693
4867
2664
29984
11761
5504
29185
1889
22851
13705
21282
10886
32127
31768
20721
31465
29733
4345
5910
19556
32056
16755
21964
1556
15346
23082
17464
27484
27574
22596
7417
30253
24902
13771
18688
9861
11318
21842
11426
27446
27809
20700
19179
2025
12570
12281
13110
7266
28901
18738
27898
12550
30312
21159
21991
27802
19932
26103
9778
22349
3144
31584
3885
20217
688
8232
10266
4262
12681
27707
7489
31568
4209
31509
21824
28650
32285
27618
163
29346
27795
11492
18356
29031
7577
5654
2708
21416
877
5903
26507
14175
6582
31784
31645
32591
19131
3809
4446
5769
13523
5505
12807
3381
25628
30205
19656
29327
21616
27
26720
4144
20373
8919
4844
27279
31668
4358
1020
10951
11789
6457
9452
21915
21992
13540
29554
29623
5071
4800
29299
3896
20730
8301
7451
10863
27403
22364
4140
5090
18428
20716
23958
15252
26197
26067
15945
28039
15778
23744
5703
5502
804
27711
32509
28679
9927
5084
19411
19641
7252
4235
15618
17851
17640
28743
21669
4230
3237
2298
532
19435
4263
22173
5997
28503
24889
1184
15731
16214
13385
9868
22940
27478
7194
25575
6757
14510
5689
7000
7657
24286
1714
16651
26290
31000
29571
31831
4815
12544
5201
18590
2342
1713
2650
7541
4364
23040
21675
25093
2067
6404
21651
12209
10787
14294
30295
10234
8141
21909
21031
24991
18139
12973
22865
12552
26924
23641
25525
20452
21951
12647
12665
10258
4109
9276
13566
17853
2460
24087
14610
13516
6609
10138
14183
19833
10246
14982
29507
13375
15324
24774
11386
4346
26578
1199
32410
16714
16919
5766
16485
2616
24477
27458
30596
3356
1391
30868
13433
958
1092
4645
27350
1979
29268
3103
6572
26922
14186
26350
22599
22656
7995
26696
6936
26545
26102
17770
17651
9880
29468
17061
22651
24217
13970
27674
24026
12677
23541
19394
20661
8125
18477
16561
10846
14747
5445
23451
23628
13
121
25751
20169
14467
32401
28195
14315
14348
27246
6504
24261
27067
483
28608
7902
5200
9414
30070
16355
8980
2630
22989
30104
30213
24702
26691
7188
32051
2635
7958
1070
9066
28507
3848
25651
19473
4743
26719
16602
26706
25187
22833
25209
26492
30739
8414
10872
1701
14432
31966
23814
17299
2827
21181
13068
30429
7264
15203
18527
22861
23823
21401
14906
30857
13368
30153
2539
24306
6085
16645
6092
29389
32508
4427
19061
20641
25428
19720
13872
9439
17288
11226
22702
18632
23787
23194
15608
9868
3835
8346
7079
10415
7480
27179
19288
14513
17207
23651
5467
4334
20210
22045
17067
26051
13666
576
29987
10738
21840
24389
8430
29256
23656
24563
14912
15485
655
2413
27459
7515
3958
12911
26197
6690
24175
18389
10352
12588
21632
14941
16361
21965
31926
31149
27486
25469
16060
8344
9450
19513
25516
13981
28058
1574
23845
10928
27941
31864
670
27454
14807
1938
14586
16235
23759
12398
14428
17822
26218
17216
25660
15167
9983
30038
27067
29119
24525
8771
6195
5337
49
25660
10259
9752
17181
3010
25578
20890
16581
14978
26561
19
18587
9593
27310
18964
6014
16987
18086
12430
15918
25654
12947
16018
19460
2898
25254
30810
4576
27741
751
15245
4450
29380
16427
29887
27741
16996
21213
20023
26760
31842
16544
15350
23415
19287
18363
2293
4810
31409
10486
18861
3237
7510
17324
22492
5216
1930
14370
15239
6015
8210
1047
9531
18148
19609
19868
23961
22595
32084
20518
19986
31703
7138
8162
1774
23123
24950
14152
26259
12060
22583
755
17924
21173
3047
24496
20136
18810
11715
16085
23885
10898
12203
25812
5740
29471
6787
30223
4014
6583
9177
17902
12976
30232
18120
7215
15619
20759
25628
25726
376
12506
11702
31814
20122
13639
24883
4806
7803
6332
5576
20327
29620
10497
8560
12877
1959
19579
22858
25388
11783
26530
12604
25181
4507
14005
32477
20529
11838
28588
25490
16005
11307
16494
8695
16534
119
32068
25216
11543
30431
5005
11104
18049
2244
5300
4009
15787
9588
28000
22965
17050
20395
7402
13510
6042
13402
276
6633
23181
7846
2552
1056
30852
27956
27198
12223
32652
27812
6034
26903
17099
15195
12117
11858
1227
6790
5011
10398
7189
20571
21558
16526
17922
32674
14457
20924
7118
6261
31903
16820
24046
17988
6116
32269
2467
32540
7860
9689
27856
6184
5403
25152
11273
888
17789
12903
28396
6913
28551
11927
9908
7397
25445
1691
8971
15605
23861
16233
26912
28532
13500
29701
250
20766
13656
7587
11532
20585
12854
9996
16393
31755
10949
20290
1273
6844
4971
8039
28045
28733
5750
30683
31407
21401
24917
30885
4958
31403
21000
18708
15801
7904
6357
677
28249
24383
8765
17192
25060
934
23854
10783
13535
1366
12666
17767
11716
177
14984
12570
27989
29763
6730
28339
31023
28928
30830
14195
21666
8140
473
19972
7104
16449
31825
4957
21684
1196
17017
25317
27478
28504
15363
31195
2812
5392
9761
28149
19090
26847
16444
30535
24301
29978
12521
4455
18268
9632
14105
14287
10368
1889
31631
16770
18782
8477
5784
8179
26291
18798
7670
1314
20615
7689
20253
13576
1541
65
10658
1589
17290
15053
3568
21944
14076
13514
13373
29247
20061
22020
4028
17023
21664
113
29204
10966
20667
17150
786
30255
23293
10638
24730
17959
23714
20032
31460
20078
28069
4081
229
24431
17621
4611
28938
1075
28203
26972
8748
14210
15195
6833
22721
29772
8873
19972
15439
9544
32766
23403
16679
14299
27707
5396
23119
22075
7885
29318
1984
3284
3458
297
5329
24299
16026
15881
6900
3713
290
15575
7328
7034
32637
16433
19598
15870
24644
10018
21800
24608
26960
21485
13375
23229
22804
28678
32508
31143
27184
12642
8729
2819
13636
1264
29264
32240
25858
17000
8468
21610
28808
19779
27008
27757
20460
18186
2445
25693
24344
14036
23431
7845
25304
18955
9154
10399
25649
4718
26249
2228
22005
25948
23127
14276
14484
16463
19018
18887
12341
22183
31956
2485
16645
11433
29364
3236
9679
25543
4644
48
29902
7201
4692
14368
1727
3917
15128
16199
21561
18515
19677
28583
15681
7420
9442
21981
28442
19533
29093
25529
23642
26190
2971
13868
31555
24848
17955
29287
15951
32493
19645
32321
31501
27154
24695
6105
13100
10555
2473
4221
29653
20926
4578
11979
16191
6859
23074
31766
13437
13810
24906
268
27034
4325
3792
13717
11239
25728
5559
10238
6804
13574
959
8022
20350
10158
20697
15640
2632
20830
733
25099
4525
25270
14719
23143
16148
21840
13952
5433
26725
32326
13857
27400
7196
10741
11229
14265
25500
9473
14167
19376
32709
22170
26002
30776
21448
20477
4704
15141
29242
30013
32285
19896
104
9027
27548
6850
25579
30483
23138
24588
28284
6738
12562
32503
31753
14597
27689
16480
14088
1180
9451
4038
30475
26671
1182
29103
28052
20999
30709
14663
5419
13920
14031
16715
5807
12141
29730
11301
6378
24221
18993
28505
11879
29469
14086
11807
21896
31134
15644
10065
16083
22872
31836
14984
19853
8783
22346
18563
1674
4309
30849
29384
24899
27216
19549
32397
12073
5949
17143
24280
3385
7797
28246
10726
5073
26031
20707
32202
14530
23367
28702
6230
6054
27966
32656
9790
5236
29057
14336
3451
3153
25454
12010
14062
2217
6804
16941
6982
10367
24250
27652
5923
13313
32035
4919
19067
3680
17169
11155
1854
31198
392
14999
4917
25129
32340
5232
16688
8423
30286
25896
9568
28818
5338
23066
26882
390
1204
32681
317
25944
32237
10033
19790
17514
30000
26942
24546
4540
20554
6140
30659
12549
17385
13807
27575
17155
16036
17636
3494
3087
1340
296
18682
10484
25634
23799
75
1537
6713
20535
28220
19549
24796
20583
3488
14747
13603
1234
19682
5518
18018
2824
4259
14943
11763
24462
18852
25308
21558
16085
8679
13075
9941
4713
1297
12064
1101
15979
2067
5187
170
25409
29705
18486
26513
26508
30818
21181
8068
24154
18498
5502
21090
7582
10020
13843
32557
6365
10436
28254
22800
21545
10300
14108
6049
851
14957
189
7267
10589
8096
28276
4495
19502
30829
18314
26132
4233
16861
4855
19164
21056
23755
4403
5457
3237
9360
2122
11040
10050
22751
5679
23356
31434
24301
32082
18471
8783
7637
8052
18285
27828
31292
6842
23153
614
13616
15617
9323
4935
12886
16754
434
8427
26949
3158
9271
14599
1581
22827
22866
13350
32188
3831
23746
19614
6210
11996
23791
8643
14355
4333
5233
31578
24365
25408
7382
24913
14362
8004
24224
23469
9752
26965
17038
28355
8312
3726
2077
10155
23876
5343
25933
19698
3876
4447
21416
1935
14978
14563
11905
6168
26093
24271
1658
27702
10683
22060
20041
10327
25331
26875
17595
31138
3434
22985
16376
17456
2347
9092
15882
377
20252
27533
24217
25356
22751
23054
10744
3460
16375
19598
18790
32695
22572
5827
5261
31280
18736
17831
6223
31456
27522
6350
31426
8464
27795
9718
24697
3482
32296
23264
14086
4953
5375
20830
2236
19422
31413
10670
15802
25700
14055
24326
28197
14086
5016
19056
10676
1072
16594
18392
22642
24660
23440
12643
6335
10718
23516
9475
16024
7017
11829
18505
22553
20019
31795
32378
23360
16590
26734
17636
24820
13849
16795
10610
4422
111
28920
3967
9462
3358
10219
14056
8249
17435
4325
14693
10937
4084
1933
29209
10462
8709
7195
871
31308
18159
26113
28424
429
24390
27089
29786
22960
20618
5723
10491
23377
601
7445
32663
22876
15330
10689
12542
13612
30109
15689
15226
12473
29498
12270
27743
8658
14807
7841
10211
27302
13941
18353
25392
23433
10413
6823
1208
25077
9631
32623
7881
10447
18220
6328
14433
3564
23397
1436
6211
4308
10306
26244
17994
7878
6040
10566
14078
24572
24389
24721
21861
27183
31149
10891
24348
31838
619
27320
18085
10188
19264
23326
4099
2632
15695
14503
23428
32176
23181
3782
4831
24760
29555
26205
27774
23784
25846
23519
14621
19940
29368
24754
12180
11760
4480
11223
10993
11187
13800
7628
3786
19771
31573
7089
17874
17474
14124
9643
3753
22448
19523
11398
2809
1633
21142
27294
17598
18215
26428
17407
7653
2579
14489
29131
24089
24304
8916
31964
21210
25873
28811
19371
13775
26701
5062
18288
19805
20295
27434
23691
31608
16115
26480
23075
11961
5973
9493
29965
27057
11660
20050
29167
21630
26384
22862
15013
3227
6712
30355
25315
9981
22527
17342
24604
6235
775
5755
30883
30669
22494
29617
11793
20376
19073
1786
9958
28744
23838
11862
23411
31232
21534
28192
2551
4111
27491
24897
13832
27331
28878
31139
14132
15234
26629
9449
6889
5910
7027
10589
23954
23113
16016
20265
16131
15538
1378
10699
13847
1486
21828
5571
18327
6227
29414
16014
17502
18368
20885
16600
12987
11321
26556
15598
26391
26770
11435
28018
4056
5802
9112
5714
14469
19962
6115
24570
2090
30829
28319
29385
16126
26994
12621
26306
14147
27472
13802
23429
28014
14011
2093
19581
21384
2212
30730
30042
29652
19029
29050
23234
9906
32700
382
19267
24515
28679
11361
27789
22094
15474
31038
10462
3298
22877
22211
4285
31805
7586
15668
1259
25965
23589
12723
15511
3893
15277
3774
31697
29362
16626
13817
3649
6974
16119
3886
23065
15765
8601
30866
8008
18999
18024
3146
14065
32525
22455
24365
26395
15438
24047
7372
7850
8356
31529
9391
11662
12427
1275
3298
19770
3322
28817
11697
3415
32070
17664
6831
30906
20547
2008
11517
1684
22700
22520
712
11241
2245
10919
6164
8516
28990
24288
23736
12456
10075
6892
27562
8137
22098
10295
18301
2684
32757
16732
16424
16749
12432
1666
26121
272
10773
3051
11818
5338
19062
14026
11202
15024
12627
23637
767
23200
26837
22300
30978
26319
5594
1689
17708
30642
29522
27912
1944
30849
7400
24441
2280
30697
27878
31779
10053
28930
29010
23291
5281
8320
15453
11397
19007
14893
5119
15082
21878
4759
17627
332
25010
4357
7272
19798
9147
32176
20050
7959
2618
48
18718
15120
22393
25141
15886
8843
2154
27255
24644
26159
11499
25584
7977
1746
5448
9544
24592
22670
30977
11409
31511
7191
31438
9012
32590
16971
11745
24107
540
3595
107
11889
32222
2122
12129
5559
976
31331
10112
13145
17713
25264
30607
32144
14242
5976
14308
6889
22736
2920
2857
28662
21842
27174
7264
13635
5845
31906
15909
10635
32118
3469
3891
13356
18543
16206
18474
3033
29174
2131
5776
13711
610
18853
10517
28618
7824
13248
20763
24056
21893
28065
23925
2094
29012
12832
4719
794
20290
22400
25359
21561
809
30021
20379
26185
18970
7237
3419
8706
4166
21762
23456
32513
3615
22583
10758
8453
16570
13745
29685
21853
16760
23904
30062
1185
16613
16046
7428
27809
10464
29199
24360
13979
10749
8410
20138
15793
14375
8023
7805
6553
14986
27929
28859
16791
29360
3982
5864
23464
24297
31444
10107
3072
7153
31950
3226
22711
2509
24184
28710
30144
14326
12151
10487
3354
23737
28661
3433
22346
23518
3243
20247
6152
8328
24895
17382
21305
20060
13521
16454
19997
3557
25809
26292
12490
30775
12819
4227
23513
26067
25637
13277
18015
9419
14048
27397
30751
23079
17981
222
29693
4742
27754
9905
9910
17929
17949
14123
11727
21356
20777
10917
2763
13942
22863
8361
5793
32148
10070
8881
18797
17089
9821
1073
10854
11176
29553
984
31760
13581
2907
4627
30899
19817
2747
24788
13067
724
13403
8337
28481
18472
12733
3727
2074
5476
16886
14432
13423
26446
19135
6315
16605
25181
32714
28971
4541
7381
5202
1530
342
21556
10998
7696
28242
4557
30663
27910
3695
691
18592
18976
22903
1752
26550
22667
8306
15222
3183
1251
9498
1198
20088
31737
17807
23152
20242
32466
4172
23706
3244
14323
21594
29284
5303
30171
451
30971
1974
28370
28234
17772
9108
29153
21081
32196
18491
10530
4667
3445
10850
20794
10123
14588
10406
2595
16109
5313
30429
9519
24060
25407
5031
5193
9603
7780
15429
24190
1007
12347
21167
15805
27652
7880
27104
18907
25552
12084
27765
21722
32733
17450
4470
23659
7851
31616
4980
13489
30813
20250
24020
20552
22195
15627
9322
18822
2360
15102
6474
4353
27069
30933
13530
25937
1285
13967
17452
30743
15298
12655
12683
25662
28608
27738
15188
22912
4449
22402
3336
8492
8521
6977
28318
24615
31322
2631
32286
14897
30691
32504
10091
14954
19476
10256
20064
9493
6838
2185
24351
5787
11289
11966
14502
5075
19533
26320
9636
28544
10900
27721
22410
10524
19736
24319
6116
10452
27866
32572
9194
31955
19947
29979
26194
31683
26590
10037
873
28817
29309
25725
27490
13169
10939
25961
26350
21539
25578
26707
21005
14708
14638
27934
31011
23047
29490
21532
19534
29269
30233
25647
23799
23539
19384
31791
22951
27156
7682
29580
31772
28494
13763
28213
7581
20641
20882
10168
25994
18869
26880
31146
17975
18019
12310
8521
15354
30071
28415
2144
643
30900
513
5483
13420
22041
5554
18172
2321
3683
29544
7773
9378
31955
29169
7543
11895
25649
24196
23538
8611
19729
29176
30622
3019
6485
9780
25618
11833
28915
32743
23955
13612
27641
8313
823
31090
7630
13377
23625
57
26042
4344
19696
11555
10408
6253
15884
23192
22571
13179
31841
19552
27328
31032
4855
12401
10579
22128
9408
8709
30212
18770
2428
25328
28714
1384
12762
16177
6552
5069
5856
20167
24864
17306
14476
2502
13910
32417
28604
25257
2710
22110
5963
23274
25417
23850
20605
17872
24931
8114
26269
11657
25136
21160
5604
3704
7505
2232
14749
23760
25602
1214
9607
2146
26014
31798
11899
29363
7524
24051
9806
2898
19835
28949
20217
1640
11060
24629
2295
24977
8336
1250
16623
10986
18178
1873
24723
15980
32629
9808
18120
28024
19345
15228
2823
17586
19514
20404
4099
25619
2394
21453
10636
7482
26337
20871
22963
19459
27402
10432
26927
7515
14815
11496
24319
14419
27135
14005
6993
32115
5791
32280
6563
20560
21199
20591
7720
8032
25086
30460
21101
7694
22977
24982
5436
25866
4304
27038
449
27875
32593
16693
29163
5847
29786
25260
21
14314
17585
5180
19430
23093
22230
21496
1653
10369
12355
16383
2481
14356
26610
20214
32513
9419
8736
27830
22823
13161
31057
20289
9578
28207
30868
6139
30708
28589
2824
5399
30585
20439
1183
14159
19481
26459
10274
4056
30088
23858
20085
27285
19564
12917
4893
22667
13062
16499
10751
16021
14613
23808
17002
15448
14071
6416
7000
32634
9234
19844
11505
22287
11378
27203
2897
6996
18867
15245
26251
15776
25378
6540
19438
5271
14623
13868
3207
14497
8134
32045
27878
1179
19662
14967
549
3788
15536
31405
24615
11802
29452
23044
32030
24445
6729
13654
28240
8117
18045
29042
25114
3384
24460
19639
31541
26223
30355
28385
28984
14369
2695
11042
6750
20528
25
10357
17034
18563
20701
25647
29576
15939
13740
17110
4758
2378
20551
9015
30499
2008
6204
10163
24278
21128
3854
10714
25298
27779
32656
3131
21049
17396
19602
24185
5614
5820
4799
1954
416
3942
8646
27325
13828
11869
4280
14754
30817
21340
29105
27151
9042
31527
26811
247
5320
1401
10735
10269
15694
5949
8926
16866
13457
27904
21295
28507
30495
12711
6281
15527
12655
11613
29107
26496
15394
24784
31993
29711
11656
24733
13778
1029
9318
1288
13761
9191
12278
16881
31865
681
31024
15108
836
18303
4424
26671
8101
31216
2424
24153
31036
12332
14335
4177
5867
30623
20074
7172
18231
11206
9490
30708
26609
12098
24550
5349
20757
15147
20586
18393
26354
14502
14592
4159
6027
22714
21863
3688
18238
24159
19585
15930
28835
20184
28505
18984
31671
31811
26980
2658
4154
7791
17927
1096
26453
28141
28506
32293
24704
30058
2604
31514
23971
3388
21319
13144
10875
13626
25076
23698
29504
16593
29634
22195
3717
2388
9604
4300
7775
6804
15769
14928
19657
3505
27504
5251
10055
1583
8266
30768
24010
1356
25922
25498
26836
1937
21131
9398
23260
8360
3066
29591
24820
2413
26308
4394
13993
21575
7304
15907
4395
15289
12176
7735
17838
16180
25684
23436
12047
560
29759
7790
5819
8571
23990
11587
9421
29392
30039
18625
7030
25259
7294
6238
24994
25692
16654
15112
8408
10330
2670
20503
31330
3291
22481
3200
6063
31905
29627
12363
6645
12311
8385
28743
11546
1180
25488
10236
16853
24095
11824
26593
13073
18156
20618
13263
23186
16837
21032
1462
22746
565
6461
26767
5198
32545
741
16273
13205
5024
20653
3496
5953
8717
3926
20771
5809
27994
23254
18348
1077
7334
9120
11902
15476
7442
22821
21202
17675
21969
7579
1690
15991
25215
26365
19826
11573
18356
12627
21972
24103
21976
9779
4747
27194
11833
23944
2154
7494
7770
7058
9277
17462
17807
12334
11520
9832
14534
23384
9807
11863
6312
23278
14110
1399
19937
1462
26794
10080
24507
6051
20911
12335
6386
4948
476
27177
28356
23774
16772
24226
24135
29131
31126
28190
13311
25187
22479
13237
29104
28714
814
14268
18033
30121
29865
13729
19714
31601
18462
30999
1119
7774
6540
5747
13973
11033
17027
598
16853
4832
3033
19597
30663
7562
10143
565
1824
31941
1875
31523
9079
9379
25175
5763
24405
3413
162
10942
27787
16950
7606
11426
14024
25099
30674
20925
3178
29832
24424
12809
18837
14615
23249
11471
14722
21206
12864
5317
8730
30174
30709
26489
11716
31179
24755
5107
10107
30073
115
5270
15651
18443
16218
24648
15389
13106
6889
30419
31769
27308
1908
3210
27691
15626
1493
6447
30242
14775
16737
19988
11285
30774
18971
14209
29758
25771
16168
3414
9995
13725
32131
30449
21363
28410
9970
18002
7559
5723
5433
28285
27465
31882
3469
14624
21440
16450
18507
32630
1100
28213
8426
27243
4152
25171
559
32257
24206
20042
25247
29682
10799
2377
25914
10647
18466
3338
29286
9480
10285
17423
23850
30085
17314
3372
26780
29461
28284
6213
16797
8556
16042
89
16579
14866
32171
18111
2199
8642
22619
5040
21505
19729
16653
24582
2304
22608
14297
27715
25502
22194
27960
10453
19748
7346
29390
29593
13194
2479
28294
20125
30001
5337
996
29738
13525
8529
26519
27650
10685
23948
20814
1510
16436
12793
16333
23899
7741
739
17216
19118
24707
18840
16847
25910
9103
18635
27250
31449
11581
24631
18951
8401
19057
17285
13986
16816
13574
6256
1316
19618
5639
16423
15631
27123
30754
20466
16024
22737
15961
32025
3838
23122
29435
2
16155
19897
723
12953
8249
25077
14495
28148
15142
106
3268
27448
15755
21748
7487
11190
20857
5929
25055
11354
4933
30943
28849
26694
6550
24047
26300
28346
17340
16696
18671
4151
16963
27366
29016
26340
3528
23540
23703
15920
16396
4847
27537
7609
839
3581
28009
31597
3007
11807
1452
22766
20376
24499
17099
20539
28910
11325
30927
21390
3617
6502
13384
9344
27760
31045
22918
18035
12490
4062
17420
28721
6880
12776
31298
16593
30335
16596
18794
15323
14109
10250
24021
20652
29106
16246
11095
28955
10441
14147
14840
31580
7894
28902
10988
31525
8906
26975
2502
1552
2789
6331
15848
14145
20939
27358
12350
3656
2523
13695
31020
13640
6844
20340
10948
29273
32056
11568
2877
18476
26958
9866
21408
2542
10882
18880
18117
26222
3704
24507
13438
11905
8641
1428
15634
23206
12021
32600
26861
5094
13314
10248
26773
17406
16835
8932
4320
28864
31189
12777
26469
26295
7846
21913
21296
30474
27086
6650
17850
19618
7331
13537
28696
7311
32519
22896
22642
13736
16517
25822
25527
13170
28573
18550
10127
22596
31579
21731
6289
21160
29487
19114
26807
29187
30968
21496
10766
3705
6498
19358
2482
10251
32370
30042
14074
258
12383
2904
19184
14225
22692
17656
17412
8886
15187
15058
27137
30305
23212
19448
11839
29400
30958
26746
23579
9050
27757
25904
11684
28674
31205
15539
6295
1775
10510
25005
26510
24738
18288
1619
29556
25511
3449
32047
4412
27512
6605
5923
2002
13982
14045
8875
8786
25
7867
28770
12921
18434
12589
200
5977
3951
20480
16194
7248
2967
21918
28258
17466
5175
23011
10601
21734
20788
14637
7946
14023
27521
4530
26993
31980
17731
11031
10116
10546
32051
31806
15209
185
16708
17247
21064
1172
13447
25690
6482
25285
27723
331
17410
29544
18568
351
18338
5678
11134
31207
28690
1037
21657
11691
12741
26934
25240
5761
23820
23368
16622
11550
5783
32707
1128
25387
14648
30399
31505
924
1259
24030
29523
27965
16148
32639
32350
23437
10247
564
12750
12752
27085
11383
11399
31840
25638
4248
25316
7236
31178
13562
30226
20739
17140
3199
6838
5306
18721
21313
21206
32365
12309
9091
32502
7835
28704
22247
2689
2581
1439
2017
14187
1808
14789
18283
19733
4216
26780
23290
11889
9095
26694
5809
7014
2967
30089
10197
8566
8244
18827
25474
32670
10614
15577
28060
381
24205
7086
19463
5561
12958
3955
14875
9119
25550
16770
20562
25609
156
6959
21572
16773
22387
18185
17622
947
1151
22365
30382
18927
4545
13820
21738
6448
23902
16702
6673
304
14909
14919
5449
7374
32464
26761
20427
29104
30258
5770
9877
29484
26483
19432
11358
11369
10032
26778
26575
21953
26470
1400
16880
22890
14727
15870
14561
2902
30414
18253
10954
6231
720
30834
19732
28807
7253
10219
9178
12519
12389
615
3482
20550
25510
16078
14129
4965
17893
21377
3078
3160
25586
4323
30341
10543
11185
17688
1231
5590
22126
19725
17839
30010
19825
14008
29137
13741
15570
22689
13614
1164
18575
673
11467
9503
6108
11241
27811
11968
10938
16967
8673
30272
11723
32421
9555
9862
16485
25299
4636
19577
24805
17542
13481
23073
29510
2464
26086
25864
5618
31153
9905
9191
14551
18622
3983
28542
10942
16194
26781
19140
4312
9075
32202
13888
31898
18374
836
21175
5067
25269
7728
5895
32476
5056
26014
7507
4471
14770
28604
19296
24922
32293
16201
23103
16230
14920
9549
301
18163
6368
27400
18359
30567
6541
22568
17186
3079
22863
26943
17161
1549
17480
19059
12616
7418
5316
27256
10521
2349
17270
14779
2429
23733
19716
27104
1758
24164
28871
16751
32754
6948
19660
22474
6626
8590
31518
19811
26540
7097
5191
21547
8390
15184
15124
7246
11012
11240
5529
31005
31675
32656
22389
21067
5159
18857
16727
13661
7434
23544
14785
7004
26006
23033
25356
14029
18829
5750
21165
24035
17063
28505
19894
25842
10548
7103
11936
32039
26626
8269
22599
27511
10113
24007
23094
11221
13349
28126
10789
21672
9228
16970
5824
20092
32737
14873
22442
13303
29440
8519
24258
28175
18138
20110
20133
24699
11675
21375
14964
14951
8203
29394
4823
16236
21170
20731
25665
7359
1600
4862
19062
7849
14124
24451
15691
23095
28826
30253
6829
7986
18050
20776
4581
18001
15119
1281
21530
12206
4933
21179
11800
1399
24295
8223
28496
5862
14232
19027
16927
24435
31552
1710
22867
3656
1457
17867
5867
8693
11659
19676
4126
27749
2140
31041
4767
4880
14860
25178
3872
24435
21369
19865
3349
29629
1118
10459
3002
14284
9337
32504
29783
4695
22509
6808
450
17005
21221
19273
16678
27934
122
207
4100
13176
4311
12475
15223
25781
12954
14912
9404
8370
31614
15425
3825
32419
17463
4526
31261
3078
31646
26641
12145
14293
13582
9316
25294
32256
30222
2598
3463
26394
1840
22702
26215
12370
19513
21182
6902
12198
26497
25691
11768
18515
11421
23260
7991
912
9788
25410
16514
8571
13135
17095
23542
13908
32621
32186
3964
10217
23157
24713
403
8017
13173
7968
21328
17117
15050
32369
29602
19532
28553
15444
14299
20286
7198
10642
23916
17388
1587
10812
22768
10773
21972
4162
5741
22588
30672
1088
3798
19216
32610
28827
22228
2348
19216
8909
2757
28416
28884
5885
15366
30479
13690
8659
17261
21084
4937
27786
7450
25886
5093
30535
12656
31675
372
5545
12126
19444
13056
6561
23523
5725
30748
8324
31441
31761
26571
13918
13521
23715
5789
17290
7847
20568
30747
30847
17847
4755
28517
11245
26056
28816
21274
24329
11273
4181
26744
23588
11089
9190
6597
9091
26027
23737
27629
6763
3858
13161
30572
12411
28025
22446
26734
28479
31247
23693
18997
10241
10176
29900
8636
13282
29439
21417
7066
31274
7875
1484
20776
12509
17103
22137
26854
2959
3895
5386
5659
19576
26912
20125
15292
27595
17607
20490
13967
18756
24773
1048
4752
7168
18065
496
12180
5266
13382
24529
6444
25939
21414
7686
5580
9465
25183
15893
12589
16236
12174
23098
17903
26837
4738
20755
19075
18167
16066
22941
25928
17602
6481
4959
3060
17445
29488
26341
12854
8741
19749
19056
19354
16684
2235
16108
9388
3491
10890
6434
22368
12482
4536
27439
24241
26023
18624
8757
3465
9382
21362
11344
27873
6369
7740
15052
17705
5144
29351
29845
22250
29890
5412
11502
1706
12892
28681
29286
16
1025
28631
2568
5192
21819
29886
10963
22441
32025
32099
3434
17045
27521
28384
9228
22945
16584
7692
3781
8438
896
32254
8166
24312
26769
6092
1204
29221
24972
12184
26205
15935
25915
15054
5936
29869
9853
2983
8204
15391
11600
22002
16921
31601
1584
28947
16567
19410
31648
31564
1972
22053
3590
16955
450
8103
7611
5284
13096
2514
31587
24945
27831
2434
21114
18423
11008
22871
8752
32123
30148
11098
14455
11253
21420
7651
25434
11795
9786
30650
19600
19585
512
28540
13137
24680
22288
576
30824
32565
32179
7547
12426
5019
31582
8225
12518
2011
5089
30477
18941
25923
31458
22691
9396
3316
14730
25524
30119
28137
7294
9633
31425
23605
15889
19396
30474
28044
184
1035
8383
32517
3518
20710
13736
18462
11320
21604
10662
7937
1084
22169
9100
20998
8782
2882
15407
14968
20251
23212
13249
27804
3946
12753
4442
10479
24655
7620
24792
29360
929
13904
745
28574
28847
7132
17254
29955
15663
3218
10723
26097
4727
21697
14468
18124
752
7807
3346
10760
21447
25746
6221
23092
3813
3217
24452
25912
28962
27718
31844
27867
2229
15959
20238
24712
6127
18981
5740
1105
4138
17141
25284
26932
14588
8782
5773
15005
22448
417
27010
1325
27382
14128
8694
23226
20185
14888
30823
30615
23794
4624
22869
19733
23771
21863
31060
5449
22759
31625
28513
21520
11024
1491
18802
26961
22065
17415
20305
6274
32630
14322
26537
10606
7184
23628
21345
1589
10029
21215
13098
31380
29735
15852
2900
30822
28923
18634
14822
1387
27902
9168
4845
13897
14283
30581
5908
23248
11392
4790
30837
16258
32042
22712
25007
10323
21117
12719
13113
26797
5065
766
10998
15543
27433
29344
10761
18391
23038
31174
3306
23670
29083
2753
18873
28931
1090
20003
18643
26170
25168
15137
11172
678
30644
3900
30140
18276
23973
26913
19492
555
13461
2765
16114
16521
23136
1780
20763
2159
20682
23972
12937
31216
26664
19494
24685
15942
605
21541
8151
26646
520
15889
1668
10485
14844
6854
1526
42
28913
2153
11466
18101
19833
16019
4679
15505
15925
9650
8243
31543
12872
32172
12010
29027
13836
22469
10161
19482
18436
26562
8519
28908
31250
28750
10941
28023
13034
20126
14472
44
9159
26961
26581
7766
18013
1690
3100
6999
30478
19872
15096
21813
32608
30501
18998
2646
9391
29030
29739
15496
3871
31555
5707
17733
7381
31392
15864
32564
30055
4619
30616
10482
29072
14751
5098
25875
11049
24360
22426
31588
18772
20872
18707
16243
23803
31577
4244
16466
24953
12499
7814
9623
13718
5360
3085
23975
8377
22991
27101
309
14425
24662
29007
4101
14773
31516
19379
27382
11205
22662
25576
12095
23920
22576
30251
22265
5119
20366
21037
17118
32210
467
872
4432
15697
20241
21426
26269
8230
24226
23571
2689
22186
18632
6100
32492
16284
912
11736
29702
7193
5884
25648
15728
16328
23648
29161
11469
4438
19725
9000
30082
28450
9261
890
32185
19513
22510
613
16556
6532
11747
17987
9760
20288
28327
8528
29487
10927
31939
23809
14411
29709
21201
20375
24704
24774
11490
28661
17913
26086
24862
23470
28614
3793
11178
867
23773
11316
29135
29004
94
28475
16472
24084
21275
17669
2363
2026
7767
1621
25724
32725
25550
20362
22607
24903
1782
5329
27773
10230
7045
18073
3336
6119
32051
6727
18
27595
5313
19243
29435
15759
28218
26547
25290
23855
1145
32479
25550
2507
26091
16885
3205
16636
5782
28278
1980
6248
21338
5200
4600
21908
6775
3157
26133
14330
7504
13036
23853
10588
32623
15111
17851
18519
1736
11605
13824
315
8514
26552
23974
10522
25459
12537
6820
20255
25771
13499
21857
14369
7221
31661
26652
14456
9177
13316
5515
24592
933
24105
21186
11452
27374
12718
26711
14028
31377
20103
11972
3041
1150
3703
27148
11264
25720
2760
2210
23782
22038
10815
18822
18331
27662
19279
3505
5194
3250
24205
22707
30800
6075
1380
17563
27283
6470
2314
27927
29205
11804
15794
5596
17097
32054
9732
4168
7333
27265
27338
9286
8440
26334
31468
115
4606
365
26526
30079
12465
7691
20696
213
11491
29977
30214
27262
23434
16512
16130
31298
10075
14833
20799
2065
28570
20082
1351
27554
18736
11030
20583
3930
22014
1803
30376
10863
9841
20186
6402
26189
22870
5355
29645
29497
28144
27464
24952
20532
31816
2722
30077
18978
18373
27289
17300
30251
24572
12088
10024
11106
17353
4031
7943
16292
15007
6822
4445
3011
22556
31454
3043
31460
24033
8794
21588
10534
28576
32206
23841
21893
19830
5559
29285
11005
2172
16539
13083
9458
26009
19090
10895
4815
25242
13829
7698
32494
4484
31158
25330
31928
15912
24576
20649
8717
4601
27489
9045
12262
10779
25653
25192
11832
21436
29636
8097
32540
25255
28799
8763
11566
22038
16263
21092
31026
16328
28527
30960
27390
8532
28739
10063
27028
13245
3273
23484
7822
19782
2310
13752
10431
22920
2564
20151
25111
6081
10963
2841
15559
4975
25294
30555
31654
2846
8479
1423
18899
14718
16774
16137
30108
13496
15958
15964
21151
22530
17344
1413
1839
27506
2131
1125
18682
32271
3780
25461
19688
9774
13547
26293
28230
7164
13327
31973
20771
25175
30307
20216
1018
29154
26064
25542
25746
6744
6133
11265
19491
3616
31597
2666
18106
19490
27216
11332
23006
23514
17916
17929
7796
4010
21
2141
12768
16757
13514
24896
17005
15721
14938
23943
15087
20252
18903
16013
20903
9435
9515
6182
32358
32063
24152
2772
7157
21248
9220
28222
14517
31502
14132
32733
23171
26846
28248
27129
14814
3330
27016
14036
14412
509
23565
1061
5625
31573
3875
2759
10914
10986
509
20147
9649
4229
19210
2860
6570
26548
7799
12089
22213
10198
7669
32344
22749
19058
21948
10609
19592
19405
2767
29705
28552
6587
16002
14776
20578
25781
2874
26589
12620
1836
15989
16272
4684
30493
21514
29656
9887
30182
14001
30750
14680
29272
27077
4834
17737
20749
73
2221
17446
3835
1322
29511
30952
29258
14531
6441
14704
15715
18342
22837
31597
6218
24218
32421
10367
9261
16352
4418
32157
27965
15803
30166
31156
11964
15919
29411
8080
7511
11272
28053
3840
11191
31006
29430
14645
32083
5592
24929
13420
31624
495
17977
29389
16619
23156
17370
24722
20190
2325
5072
11627
16737
30876
31048
17697
29995
29368
14275
15226
21498
2816
25106
12126
15143
15157
5502
26935
12413
5319
30023
14494
22859
11163
31312
21811
26552
7692
27416
18124
29271
24112
4076
6355
27131
8284
30555
23785
8653
4842
24299
16591
7579
17209
5130
15239
6771
21494
24903
5558
1393
26778
23490
20813
21717
27188
9441
13416
30552
2409
29765
31607
19905
8633
32253
30363
25267
25092
2297
5715
21705
24140
18881
11095
9957
28348
21863
24004
27332
32745
16569
8058
31190
14425
16316
7618
12365
5954
22870
30261
24180
28819
843
13017
25667
27192
14955
20876
11056
24218
27401
23206
29255
18534
15790
19162
8317
7056
7183
21597
4418
12183
573
15178
3925
7946
28700
20806
29148
16459
3862
21600
4020
7059
24592
13626
32006
566
1437
2158
18203
11049
32370
10027
8817
30913
25627
17183
16142
19389
492
29082
14100
1927
22585
29168
19350
11191
24522
13087
25514
9945
8585
23729
447
18032
30334
24292
9009
26683
1021
19977
15899
20662
18462
3370
20845
19172
19054
3055
15166
30028
17636
7106
18787
24641
22807
8242
14400
24935
9645
7829
5086
16499
20503
28914
12094
8498
22140
8222
9709
20173
15858
10532
7129
19531
28916
12778
12131
20055
25105
28946
20917
580
18145
19743
31062
17998
32573
30425
25339
14115
31919
754
21665
13986
15912
18153
5848
20450
13297
32047
6242
7286
8164
29833
28668
3823
17884
20149
12412
18083
106
4688
17180
20653
3530
5111
15382
31285
10517
31405
23921
6130
17335
25468
15386
26348
29476
26719
15158
27271
26311
3680
20919
27581
31291
24318
20013
32171
14270
12497
3295
11087
24291
25457
21531
12944
17287
4755
19146
28798
6405
1141
15687
25308
32174
22397
9330
25308
23155
13085
8960
32041
27365
32761
27925
2858
352
27468
19988
29062
23426
14727
16566
10211
6882
11324
19801
28148
13823
32571
8859
20914
30071
16635
7208
27369
20858
2619
11216
28663
17277
22760
22749
2000
24627
4674
18851
32070
19897
28731
2904
14216
27153
24095
3110
7144
13777
2170
31615
15585
22300
9271
1201
31320
18642
12549
6074
30498
2564
15103
13405
1991
25003
24459
27509
32389
2713
6530
2698
30872
23471
6290
9634
4281
16465
10209
29529
6885
5399
26611
12084
19807
15557
24526
30259
31480
382
10588
20901
17038
5684
15632
25664
22483
19555
8396
28017
18767
20991
32259
5873
26537
2987
25371
16537
12834
24363
13333
15991
27746
540
3695
15649
16759
8418
9289
16457
6171
29155
21192
28562
31797
2291
30648
9634
16803
32526
19061
30073
17463
16973
15371
6657
26879
8723
8860
998
17610
27527
13314
31143
3047
10824
5046
32238
12080
24924
30704
28701
19016
20585
10768
6953
18208
6439
26173
9899
23232
22805
24140
7732
16196
2923
25571
737
20260
18256
32222
6960
26041
11854
27889
29970
10493
7939
25487
20034
8339
25
29963
22228
15879
14200
32766
529
14934
8633
6120
22914
27825
7646
12826
1611
32382
321
6611
1211
8352
1995
28585
13856
9720
5222
14378
17632
10027
21941
15812
3781
5030
8962
18914
2457
21472
9592
31064
22003
24799
8594
12289
29776
29950
29907
28582
20581
14829
7096
5666
5812
6137
21483
18116
2142
2702
11961
757
16696
7674
10182
13851
9248
31347
5119
14525
24978
8284
31953
3815
19574
14788
15256
26064
28988
9520
26971
5306
9003
7578
30390
9498
29686
9145
23
9721
18833
3203
12846
20122
1602
22769
21150
13405
30459
15106
16633
6115
31719
27650
1003
3443
8003
14348
14005
1180
3695
25294
27357
29468
10565
18828
21028
9985
7081
26215
17593
1038
13665
6368
30636
12384
29736
22424
30629
29778
29693
12121
15318
20893
14785
13146
25902
5572
3073
17087
32208
27567
19985
18272
19651
12437
4442
20939
4587
4128
20724
13964
15928
11212
2936
4268
31773
20881
12047
19831
7236
1473
3023
9602
14976
25651
16456
9965
12035
7329
21593
13542
8145
3663
30281
8302
18036
18157
3602
15968
15857
26815
6912
7855
27900
15355
3963
18671
24680
28531
7969
8727
10721
19571
13081
24453
5853
25069
30883
11074
21456
27347
15859
23944
20383
29637
4415
28545
29528
1004
22039
2898
544
19750
17653
23896
13677
10083
2325
2737
26997
23375
28806
28927
28134
49
25218
4968
20183
28946
4091
22754
10750
7459
4726
32685
25636
14169
27932
27168
21207
2394
9230
10409
11871
28060
24058
25872
24563
13515
17388
4859
44
31340
4966
2487
6585
11457
5810
27445
1109
19436
30583
31827
27638
9302
8075
21085
22599
2130
7176
31188
18521
19710
13986
31342
13973
3690
14647
23645
6390
32509
4008
4820
12661
17940
15336
28616
17092
12779
20562
1268
32062
16577
25664
5663
14367
17719
14041
161
19184
10746
29738
15396
6982
6305
20601
22696
12972
2009
28117
7626
28894
29887
16370
12101
11832
19341
25140
23225
25197
17273
5130
29355
9084
12762
20349
23245
4320
6285
11785
10624
32519
29591
4011
664
30470
2571
14395
3935
24203
17967
22268
14300
23571
22746
11378
341
19293
11296
17011
13842
22046
26929
27265
14948
1270
5503
30295
13030
23715
2847
24258
24579
23413
20594
19634
21176
27393
4868
14481
24219
6682
18868
5075
27933
13053
16918
12495
5644
460
7445
23757
8540
24382
32477
24672
22054
21396
30200
23030
15089
26063
23990
9901
11057
27424
16339
19816
26125
27296
31060
8227
31333
26945
9906
1923
13332
12804
6970
11441
28274
28269
26548
30057
28701
9013
13379
1614
13306
25918
29068
16257
17270
23244
9498
26481
1554
23793
21761
30709
10782
19785
22210
16792
2756
29672
1391
22835
14153
31121
8976
962
32656
21032
26948
5232
10720
11114
3372
28916
13798
13276
14980
12320
20734
19969
18963
1719
24494
976
14150
30336
16499
20069
6424
29592
11201
1527
8756
29708
21829
3594
27742
7591
12909
4582
4879
1545
2602
25927
24927
14585
12789
23894
5928
30973
7184
13784
2409
28199
6926
22182
8680
14129
32405
3421
540
4301
28003
3926
19785
1846
8335
22489
24045
26123
25617
13965
27227
23133
133
8755
23718
31495
29228
9108
25024
11069
4404
27832
29667
2920
3897
28761
25648
27697
28171
3479
10135
30684
21426
9198
27382
1496
24495
9060
12933
19604
25989
27911
2161
26004
12408
6038
32455
22467
13461
27775
2196
7179
20722
12553
28235
20515
1847
4051
24934
2984
19549
13949
29520
2928
22198
31653
29571
10011
3374
8469
30957
17642
31696
1594
6809
16341
29068
24281
7051
29655
11063
16893
3564
25741
12243
9524
12647
12799
16913
6138
4306
20414
2836
21366
8977
12847
25208
29284
29495
26150
22419
25939
5103
18102
24570
30480
25115
17736
20295
30050
23226
30699
31770
20983
2063
25067
13918
20383
18944
10917
29390
4024
32188
13977
20407
5097
18592
22209
22271
2068
2652
546
8550
26757
14929
19872
16140
22640
13374
5654
2356
15514
14364
4262
16711
28246
8518
13646
8476
6835
6365
14268
16502
8692
18283
612
29646
2880
18886
26575
2131
24731
27960
32310
304
1813
30428
22863
14861
26433
31307
5735
4824
31209
888
28337
2245
3328
6105
17374
24723
21720
21192
23277
17938
7574
8488
14661
1250
12514
24651
22529
15997
17379
25619
8587
16759
362
10328
28012
26117
1133
12682
28258
5053
22200
24728
18099
21660
18399
15888
14018
6477
12407
135
6624
4776
30085
21051
9572
17530
24631
6647
7678
13700
7634
19255
30536
24774
31724
397
4510
19453
13531
27459
2608
26474
24685
18242
20821
6869
23770
31282
31523
9170
17398
32483
32316
10563
16555
13804
21738
10270
22695
22674
13423
7536
32338
4843
20118
4514
32515
2371
20878
26875
8563
19646
6648
7527
2162
831
19263
17783
11736
18057
16936
3240
2495
32420
5546
232
14831
15235
6655
22870
15770
20963
6651
6730
6474
16246
15005
14997
30487
6721
15588
11786
5917
3906
4579
31037
9261
13399
29976
12938
16579
12635
250
5209
24632
1170
29137
1185
16441
26183
2762
13739
5752
4019
20811
17433
18081
26913
4740
30246
13456
25424
26439
47
1729
25
10777
29299
27912
20049
5001
13335
16258
23793
28864
12141
2507
26996
10330
4981
22129
19841
372
20132
20137
28618
24838
9957
577
15412
29044
4830
27606
26424
26719
14452
1351
137
24257
13457
105
6391
28473
4132
30717
32659
3747
1642
11487
23060
21228
109
9088
7289
7204
27082
13717
9200
21461
17078
27665
30967
13972
4931
13649
31937
23509
9184
19351
1499
28676
7967
24506
12303
21713
188
23580
25481
7115
30170
21467
22328
3888
4751
29260
4727
15619
163
32421
12781
14432
2965
18425
29617
1293
11743
3434
20146
24913
891
13978
6487
25097
17830
28770
866
5368
13284
455
26394
7519
3652
27945
13737
32461
1253
12734
707
2617
16569
16703
29576
8526
27017
32225
5292
17414
19770
21639
23509
7290
3150
18230
22596
31993
28590
31689
22200
1111
19366
8934
31887
23687
5169
19248
7727
18284
1655
29886
21668
28141
2964
30925
5770
9544
14491
6577
22574
7848
4058
20242
30448
13561
26464
8788
29676
19707
6333
12119
16857
31637
24073
7521
10800
26221
40
9304
3473
4789
14923
29237
868
5704
30394
1205
7356
24309
18642
19281
20096
1050
18505
9585
18124
22133
12730
4317
12693
8760
28765
7284
12428
22363
29973
29472
2629
3126
32433
4873
21657
3663
14187
1289
7753
30065
19381
10337
23523
27902
24118
26282
7146
10117
32015
25614
17969
12439
31842
32695
27272
4311
23061
14472
25242
30801
3795
18955
19222
25357
28756
5547
6157
27619
2271
11300
18588
16784
2061
2871
32202
29194
12495
25506
30899
17
26802
31567
17383
30471
19554
32716
3085
28929
28013
23803
27596
17182
7498
27659
12011
17432
27034
3750
20662
24856
11693
2668
14756
29903
23880
14497
56
5314
27814
24098
12581
18661
31164
16286
25269
24940
6850
17922
5995
24286
30190
18229
13288
8299
1667
18182
3083
19583
13066
17507
19292
10135
6367
26315
15531
19796
12528
8197
13556
32717
12738
5651
9606
298
21173
26978
6500
11119
21640
11075
8684
14997
29471
6303
30390
31967
9348
27877
19647
23915
18733
24904
10439
32008
12669
11304
12535
19783
7308
5325
16839
25045
5163
28507
18975
27655
18979
5378
12988
5303
23230
11382
21718
10319
6281
22175
17408
18723
17751
5009
28495
7172
23689
29630
23998
8977
21133
26986
2513
15057
28069
20064
8313
28031
7146
29156
10040
4261
27280
17128
19845
24813
619
27267
28018
4147
19890
27294
32652
31198
11012
5361
1539
29041
20904
28206
13067
24413
19225
20859
20097
8218
9666
26662
7890
22901
17670
18836
22809
14892
29315
22395
23687
22456
5272
10833
15624
7786
11812
8709
24867
1977
2961
28396
14114
2779
16658
9982
17780
31634
24104
15170
6735
19273
31339
24967
24218
24671
32647
18005
4105
30659
21637
6947
9866
17601
20044
21706
10464
17179
2407
11834
29837
28508
4360
17260
15606
22889
30541
22680
1474
17753
17091
8615
7299
20102
21801
7659
21912
16612
12150
23566
4178
7314
14109
14920
18005
30639
24719
30421
10817
12911
25345
9383
6546
12654
22896
22616
26053
4676
29923
8546
14525
3673
9201
9106
6244
32763
21378
25786
19861
15789
11482
8871
12858
16322
29907
17746
10929
17451
28777
16730
20085
25742
29308
32434
1018
21144
30418
6039
5080
11923
28252
966
30508
11323
8378
1003
25915
31181
18176
24924
25689
7522
17339
22023
25098
15483
7215
12458
5734
477
5859
2370
14018
5535
9056
6597
15244
23425
28469
3859
15735
27519
19518
26154
11736
30886
19494
10650
28240
6695
13611
9018
2988
10922
13345
22040
8201
12772
28602
21686
8252
3180
24836
18291
6257
17866
5427
14151
7185
22737
15521
28851
27882
18992
11027
4856
7562
20803
11582
8072
13035
815
22410
7610
2390
13357
12821
9921
129
806
26107
28127
13051
17281
20437
6358
15561
14649
7039
31904
21842
23346
19743
4703
16504
4045
23394
14487
23304
6074
16137
5275
18004
6925
7077
10309
30494
3220
26014
28650
11192
22376
10618
7309
3434
2755
22620
15955
276
30737
15819
29495
27412
30538
693
28159
27242
17790
25012
26991
20250
12722
28815
23484
20434
3050
8964
32324
17101
2695
27333
32123
24055
6611
6336
25897
16978
18907
25507
7379
22168
20093
14240
2166
13602
17857
13166
8572
12552
14445
30352
7144
13962
2259
9433
27604
2735
17390
17200
16157
11819
2221
20881
16221
26502
31119
18004
12313
14459
27760
20146
15676
17055
19619
30853
3524
24387
25408
10575
28348
28314
31167
1662
10858
8735
2758
13038
24521
17969
30016
1456
28218
20224
26031
7690
18806
11437
27075
30910
18887
10925
25131
27279
19576
24175
18091
9218
14473
26942
28783
8802
15272
4456
24223
12806
21341
30368
10547
26071
30341
26017
5641
10252
29441
3860
1076
18488
21423
9652
8600
10887
25241
10160
7860
31812
7021
22352
21694
4511
8750
9948
4597
20654
4648
7098
51
19889
14633
27862
22977
31898
4846
24647
24688
7117
6364
11311
19173
15396
14833
24290
7221
2614
3833
4683
6578
15577
7941
28300
21252
19685
18457
16357
28795
23099
8229
9175
15267
25094
25142
4489
5657
10817
15342
16746
21150
1658
3890
14360
9322
22997
31778
30849
6338
31315
18254
8520
20173
22868
28710
31082
24996
5467
2995
12321
14504
22802
14213
21512
12824
11150
14573
17792
23523
5587
7276
10323
11962
16795
26986
6296
32618
30035
15915
9943
6761
4455
26624
24429
15790
29375
19386
24881
25798
24202
12900
18263
6949
23354
20018
27285
18618
6863
2996
15749
11462
23129
847
18507
31469
23224
7918
1911
20110
22183
18421
12845
26704
6649
12663
11139
27133
7713
4776
9002
1172
20472
26005
10577
19609
25275
32274
14790
10416
21587
3316
606
3690
1754
25473
26776
351
4954
2853
4733
2173
14808
1383
30410
3487
4753
18458
14417
23393
25731
18904
20637
11571
17711
12972
19925
1453
26014
1295
10210
16163
12450
21270
28884
2680
7774
21481
25730
20535
24840
28023
7025
10207
20206
1640
25848
22911
11703
13395
3233
7555
17132
6706
3793
3790
19895
2835
172
777
19946
17680
12083
15674
15426
22656
14767
11928
6126
3951
11091
14750
27979
26956
22557
11102
14834
32482
253
24344
20980
25226
825
16395
10852
20638
5904
7563
11542
17456
24990
1364
31143
17404
24063
6174
14269
31644
25015
3185
24208
29947
16465
21435
5546
1548
21063
5536
4843
18108
25378
30097
6607
8997
19170
22176
32756
24068
13984
4498
23254
5997
25714
20790
15069
11197
22159
2294
6043
32465
16820
14764
20814
1909
15046
30903
27565
12063
26552
27981
26081
23006
14255
14354
21457
10893
26212
30954
7330
22348
20170
26380
638
8753
20722
12121
22421
19002
20267
3307
1122
2182
1645
20464
17200
28101
17912
18105
13532
13294
19000
15630
13020
22576
16108
1477
640
4394
11399
17043
19832
30046
21718
24097
919
26083
17124
27746
2519
4443
4635
25893
23196
8997
12459
27878
31549
29396
8496
8170
27328
18399
32655
5003
28133
1433
19744
464
23655
21348
18451
21312
21374
5410
21004
31480
29096
18413
10769
22780
32681
5896
32166
5835
10960
15637
5430
12854
13437
1416
8117
10865
15072
603
24964
875
32515
18948
19093
4955
19467
20900
14287
20123
25531
14209
25524
1466
5177
4534
19009
18893
23317
5417
1045
27397
14727
10430
23766
17799
7672
14538
10449
20599
1732
24267
7648
9046
16959
12630
13201
25999
28662
20560
20100
23628
10039
353
15125
2702
26323
28838
15163
6013
12834
27046
11184
28413
32584
7304
1107
20609
23223
17283
14282
16420
25589
15509
13931
3574
1952
27512
6237
26515
6831
30674
13050
10235
15098
15276
7544
22941
6397
30245
26825
7861
3800
5735
3775
29656
10395
13019
23668
205
449
153
23529
27551
7162
24355
237
25072
4910
19538
7489
19600
21182
21648
24569
24911
12301
21320
25637
1807
3647
6043
4785
16413
28480
16725
23434
3777
5640
27167
2562
2067
7710
28406
14454
2321
11355
28123
10030
16879
7409
19404
31364
2990
21164
22260
9289
15344
2935
22815
31844
27403
24097
11888
19644
24668
17761
13398
21593
6366
23576
9404
1478
7162
11991
12672
1209
4769
18081
29735
9973
21657
20722
1487
31856
24596
2303
21348
8881
28551
17984
535
26493
8633
21548
30732
32434
26651
30532
23891
20339
12119
17234
10522
7301
30251
9971
3873
3065
18040
20563
24942
21004
17558
20280
14913
843
18667
6210
586
20987
14268
19825
10010
15031
2882
28647
5592
25691
17409
24303
20021
14113
13141
18495
8609
28426
21582
28026
29376
11648
9917
25337
2327
20025
16527
11211
19724
862
2394
22266
13
31981
21558
528
17679
8028
19406
25818
3386
3455
25783
19052
15586
2475
18944
7013
7354
29212
30730
23925
27460
23700
31129
19484
8844
5445
31532
28340
17942
1265
10378
20401
19733
16976
2206
14632
31965
21170
19332
6798
18331
24037
16100
31683
836
22873
23679
8526
3275
28290
9991
17899
11159
8318
18740
3395
18740
29944
11028
5114
20809
9292
29091
16622
19914
5355
7323
15294
4974
9730
13965
11402
4708
3414
19249
10490
8002
19570
6139
29314
18494
261
10990
27108
2720
5254
25525
23542
31863
3865
2800
2981
16011
4534
29644
7482
19092
15240
23510
18140
29097
32403
32017
27222
7931
10138
1605
31771
12995
7488
28059
23431
2425
6765
20839
104
839
26611
23365
8637
8125
22898
22887
14782
454
4473
557
2844
28635
20717
5622
2953
9334
21935
21303
22395
714
3193
28874
4909
945
6665
4744
23783
28390
32642
27673
13440
13428
24079
1547
31777
31342
7625
22818
30283
13025
31707
13295
25884
19975
17379
7844
11982
23741
14492
12583
11136
14135
28603
3941
57
31731
9494
32745
11050
31467
18699
20653
9523
24847
20000
32304
15529
14322
31207
20680
3415
3524
15653
25658
14786
22912
22322
19848
18866
28518
18595
21258
20973
6572
22823
27328
18758
10609
13487
29415
11990
5106
25554
22730
25994
28672
9071
8667
26846
26546
24468
2818
16103
29271
21918
12853
19351
27310
8610
32329
26941
21850
15116
14600
27211
27536
9350
3971
26716
15891
21276
27818
1141
1122
4253
25113
31883
27695
23876
4917
14918
32020
5271
22136
16133
25730
22928
265
4386
15866
3579
4240
3703
11135
22815
10056
18465
21067
416
3670
19331
4033
7844
12889
31886
31395
25653
20034
25920
1157
3815
14438
7787
20353
12986
1489
13752
3117
28993
30685
13547
29642
23300
26628
11881
12990
36
9715
29431
22341
29757
31711
21700
6243
18832
19740
7082
2333
18274
748
3761
3048
24479
15253
14037
6754
10179
28598
16137
13632
22778
474
5499
4231
7046
27726
12826
20480
8546
304
9814
26597
21541
28873
23078
30177
6696
2589
6736
9784
30443
27071
23525
31041
2741
2794
22794
32029
13691
28366
27390
20387
24835
20008
17753
31898
13898
2325
30354
3115
16930
18728
20932
21909
19743
2490
9650
27171
27316
31361
25864
11356
922
28773
9188
26489
24433
22670
3732
31516
29098
25026
15778
28478
28068
20462
2829
1129
26133
11778
19674
5160
31660
20994
6347
21949
24309
26458
30063
23313
10620
29555
7259
23025
21045
2179
12726
5494
16667
6825
5371
31685
17944
11065
12026
19449
30501
15957
24864
22622
14770
20157
31225
14560
31560
13287
21235
451
23917
11859
31589
21140
22728
3609
5327
20831
7045
10180
17508
26146
9979
2914
24005
19074
28812
12764
11024
16829
2509
5252
30233
3296
5095
25325
14071
28474
574
19199
3011
22288
28752
1866
23964
32402
3807
10139
22254
6414
27730
18381
3828
24676
7257
10466
3708
5818
720
24659
4587
20592
17894
4515
11392
6742
11134
26170
12509
20509
26069
14193
707
14092
4965
7914
13853
12532
30218
24866
8000
7014
9572
26185
14449
12067
16508
13649
167
29652
25258
9541
14227
7164
24502
14556
6878
23850
2877
22606
2226
6259
3926
23910
11131
26399
5750
9688
4847
24483
19601
8150
24140
9936
31618
1246
23520
8521
18093
14038
16847
22842
18915
29530
25617
27719
8070
20821
3002
5571
4589
15566
21374
10531
31753
25861
11636
4274
7497
20671
30234
9350
25788
3294
14490
28082
30582
10548
2123
10685
30260
30617
4987
8787
17987
16699
21356
11579
24989
26166
32156
26761
29270
7013
6729
1813
15670
14967
25653
16683
8104
22597
21927
15748
9426
5474
1714
1653
30214
23796
16569
24423
10841
1475
27443
3719
14737
2448
13740
28351
5701
18088
8972
24036
13119
32697
23068
23345
30757
3555
24390
27124
26969
30994
7069
3207
1821
27276
21789
27522
10235
11718
31795
32047
21092
13180
29312
16702
22935
19200
11994
25786
16836
1491
25235
25148
12145
31090
1022
29279
26142
21362
25136
24691
6692
29647
9732
6006
6627
386
25698
31552
4636
11601
9664
25085
29084
5867
1768
16864
12315
2100
22268
26390
31843
31454
22200
17913
5557
7225
31992
15751
21608
17228
25722
24082
9683
3364
18148
2104
32621
4972
10505
30742
3379
28990
7272
4281
8010
2617
14837
31701
6886
18388
14877
29114
29290
16625
19972
15747
26833
32694
7697
20881
9292
22936
4524
56
21548
3512
17478
11447
28163
7539
19354
2158
17926
4916
13107
12363
1718
11149
20783
16006
19392
5255
22594
9358
25633
14134
19198
24899
32653
16272
13393
26469
19218
22143
18767
18508
16633
16948
22577
30426
12269
24767
10398
13999
15711
12508
12586
2971
26408
23824
17949
15705
18544
31989
9589
17274
9679
210
1070
11679
1203
31599
192
23531
20994
15912
7914
7096
23552
31551
12462
31881
9074
25207
20637
28992
18436
27614
20820
4498
5096
17642
17991
4023
27328
5063
2493
13926
8126
1264
25628
768
30473
22269
14439
12300
22115
22715
23045
17379
26890
3458
28612
30636
15067
27587
2077
2699
3773
27105
17082
21782
29757
19778
13109
12553
24694
28581
24867
2362
20020
28342
2385
9679
10585
31199
1101
2222
2431
12898
30248
28213
32734
20901
11131
17964
31856
2508
18344
14583
3668
21645
10338
3344
881
9280
8816
181
11099
11062
31661
27614
16762
11596
18004
15986
17001
4032
378
11962
12444
6979
8924
11286
3142
9295
28123
27119
633
3514
15301
5868
6031
22924
6486
5225
20682
15374
23935
16933
8503
25891
7525
12858
7640
29659
8621
22867
15617
18502
16631
3865
9475
10118
17320
29422
19976
26152
13549
2270
31550
3253
17661
8914
20280
10883
8350
27143
32657
19153
25066
7359
27602
16403
32339
21559
7061
14731
21989
26328
26603
22297
18379
15025
21500
12116
28693
7205
22765
31705
29368
27873
10503
24548
30678
16146
11797
32029
15680
12500
18189
19124
24890
7149
2291
25263
19070
28091
1787
14723
20867
15211
26094
29666
3838
26220
16078
20181
29610
25891
5309
19978
3396
993
25115
9327
7386
12818
239
2816
25158
12215
29320
31196
16630
12054
19044
30623
8686
16047
16464
29420
14095
3955
11729
23113
921
27441
31427
26160
19951
28497
15680
18786
24218
24516
4291
15231
12433
9787
26765
4564
30391
20887
24904
23156
6822
10657
21995
11658
6315
11004
15325
10477
23825
32600
2653
18933
1699
17895
12577
6542
12908
16405
25149
24202
13505
13940
13127
19004
25474
10741
22969
21314
21916
9566
1686
12962
15314
17144
9553
14105
14014
14984
490
25263
19986
2945
6746
1679
27940
6008
7985
20758
2218
16600
26494
554
20929
25047
23535
14797
6709
12201
7481
5361
19964
24051
27066
3214
9731
5762
1629
19187
30766
6461
11967
27482
18586
6232
20624
22462
37
9419
5691
14577
27696
16131
1225
11497
27555
24535
12546
14170
27954
3517
20438
8331
8927
21054
9724
13922
3776
9127
6873
9152
19715
5890
29347
21013
16175
28228
29638
2347
31916
22216
31623
16710
11398
27644
17895
23407
11374
21083
27850
13325
10498
32411
25176
17333
2894
32039
27300
16963
24466
19919
22667
42
6469
10174
4576
27144
22619
14765
7878
27262
5060
14935
18524
7742
19765
23853
2720
3685
12842
32586
23949
25868
20012
8361
6535
20505
12879
32150
31481
1627
13824
23650
2365
8919
13565
25435
25788
19036
28325
2811
16470
20318
27250
96
2564
18433
1476
3068
1723
19059
3808
20622
26004
17279
4408
30289
3627
7007
14061
5747
11844
7378
25490
31432
19125
21103
27699
1472
22400
20025
4245
22167
6975
3955
6592
32203
25029
31414
16827
21971
16898
6208
18583
21518
31527
3215
23214
26106
11531
32559
11309
11942
28621
25552
28112
14442
3772
22939
32493
28373
27251
5318
180
29927
17992
1638
11957
11136
1256
13957
8355
31769
6203
1141
22871
15282
10382
16739
18199
14859
14064
22831
6425
20759
16092
32124
3651
2222
6937
1795
8501
8834
12767
300
13705
8788
11323
5087
10841
9832
15540
16279
30210
9270
14639
8121
12072
23906
3088
10021
9979
8430
16546
2826
30904
11439
11961
20478
12914
17149
2454
11598
31506
18607
22026
14994
22941
32583
3039
7045
437
12137
26227
7700
18787
22418
10406
32437
11283
13062
22518
18170
32480
11530
13033
31334
14866
5204
26284
1407
31717
8896
18425
8996
10381
11588
4925
11297
19318
4134
30715
1281
7632
11116
29547
7716
22091
917
15976
14865
9759
23174
21129
28172
1872
21703
19085
4332
16432
32495
8700
3111
16421
18269
6155
17199
14764
16425
14784
1281
7582
15706
22360
15354
23475
9050
26854
20461
3140
31143
9788
28276
26453
5578
22030
11651
11474
29325
6229
15427
25113
1897
12274
5661
2233
13374
3988
27668
12921
5447
11739
14425
5789
21324
25790
12313
3172
17433
24618
1946
3797
28464
24555
15494
11707
19131
20688
23175
4079
17604
266
28179
27349
27816
29654
6538
4905
20681
6236
126
2812
25732
26582
32081
12537
611
12020
21766
29933
24211
1663
23889
13703
32152
16190
18672
11100
831
17686
3646
1325
28116
15732
7174
6509
4502
25840
20629
20734
26728
28714
26387
12092
2505
29688
20243
6972
24326
6340
8808
20053
26542
7471
11578
3040
8775
27642
15450
1597
27967
18727
9683
5399
29734
23131
16322
8424
32026
3719
14695
26559
10882
10439
2683
32577
1279
29323
27844
14317
24991
22772
5096
17829
30804
31105
6015
20842
16037
25066
17259
22632
23204
1868
17004
31794
16928
14471
22255
10318
23067
4068
5671
12532
10878
10236
22879
20243
31244
6101
22927
