6234
22224
27648
24805
12873
1430
28211
8705
15895
518
29078
9465
10250
7385
851
1121
6712
10853
28344
17757
4097
22544
3294
30901
17117
30218
14216
29228
21592
2364
25421
2574
22874
14715
9466
7433
10924
28674
9778
15933
7864
14879
19799
20374
4240
17452
7342
29786
22578
193
3261
4606
6155
20520
26104
21310
953
15377
23965
24941
1045
7047
31197
18441
23665
13091
316
13970
13598
9600
31034
5276
12082
18414
30771
7204
25991
12139
20100
28192
32519
2511
19183
21849
13863
5958
7745
11133
31154
22531
8753
5232
2760
16947
1932
996
15398
5168
12175
16681
13992
5880
13460
23878
26379
25821
26098
20296
30968
2174
15134
10970
830
2037
534
9494
18784
12370
19711
23451
13903
13641
25356
4576
29816
31015
14499
22728
18177
4362
12987
21622
2128
22866
14729
5218
29134
11859
24155
12716
4330
7500
6340
10161
3424
8605
24313
6877
9403
16948
7547
448
32536
9033
20982
25699
16686
24651
19817
9692
32651
16922
24968
3104
30496
9590
32095
31257
12032
9656
32055
4088
26469
24511
12733
9677
31220
24878
25185
21588
3906
6101
20221
18
19862
21868
29879
6817
25841
15239
6696
3657
7243
9158
26302
2000
17440
22604
2398
4754
12843
12403
12878
15060
10866
26046
25683
10837
22914
13584
24854
29478
17404
8219
13516
31932
20304
25370
9494
18244
18377
29379
1830
31030
1994
5751
16676
27437
9303
29373
31440
9718
17110
6126
16744
1766
31767
26930
8908
32369
28819
28586
992
7417
29169
28143
13874
25060
26063
18364
4317
241
17854
4583
4269
4556
24718
24214
17283
24032
16589
6575
763
16492
23690
2448
16973
19673
29278
18433
29553
12107
14254
18278
18311
31606
15402
14394
20085
23987
9881
25272
14802
25170
11993
18651
18179
18226
31009
9353
5283
2960
13962
5643
26409
12829
11982
5825
8388
26963
5967
1044
28810
3592
23387
22187
31954
15428
14766
23010
3294
25168
23352
30584
30142
2575
18209
27527
20080
19601
22539
29882
12108
9190
5783
21690
160
3888
7466
13545
7319
15612
26865
17235
18527
12243
15394
7138
18570
4363
30085
20945
5301
9699
308
11618
28264
6864
18079
29140
24382
6417
14290
16271
25158
23177
26107
26275
15528
12238
16166
15728
18828
11390
22860
20390
15671
28114
28300
31089
9079
12149
28344
17133
7490
8854
18963
4064
8602
15164
22873
30632
17843
26585
1792
22898
20568
26403
7614
173
7307
12319
24651
28095
3948
8318
20072
5878
9564
25901
15136
13761
23137
20776
6222
29728
29132
5775
7007
3673
24858
5627
8025
15597
25113
14354
26652
31434
28748
1369
10985
31682
13711
28746
32
26428
10750
1447
8782
11049
27412
30477
7782
31546
3600
13260
22863
20560
29085
1014
3743
31797
21169
22966
11431
9609
10422
19683
12719
16383
3304
29909
28290
21705
12542
5240
21038
12112
10508
19614
8965
16937
3240
18586
18663
22596
13132
6410
3268
26215
4091
12532
29020
4315
28711
14613
2377
14694
8659
11637
28224
10617
17653
31039
15764
11433
19486
1232
15867
12131
28764
27150
4757
13788
7264
17147
7978
16200
4828
18058
436
26956
21551
10161
17693
26549
1860
27327
12617
9322
27063
9456
23639
7071
2874
23102
24868
18508
22584
28027
24337
13534
14264
22173
9991
1068
16515
4953
14776
1708
18825
1523
31527
12263
22913
13908
16234
42
14800
10589
5294
13951
12460
17019
28285
24283
9857
25467
5692
4249
14995
16032
1272
28967
2790
3827
2658
20224
13147
10971
25879
26842
18459
9453
12325
13600
20280
28421
18891
15778
32146
13206
6017
25484
15096
22846
19256
8084
12688
25758
3555
4728
27769
11368
13110
31144
18862
5049
23214
23615
17198
16042
8657
1080
21338
29986
19383
6111
30878
10222
457
26501
7251
19475
4553
17272
24804
98
19731
28211
6960
12622
27938
32465
31536
12027
8533
18376
10202
27031
10739
5587
21061
18413
9326
23344
1037
19511
27876
6924
11513
31540
14571
10556
13275
14715
20366
4653
3768
4879
659
16158
9769
8499
19712
10892
2049
640
15069
14574
11568
6452
32314
2467
22248
973
21876
21545
18174
983
9909
9615
22418
18178
29882
4653
13810
18039
4313
12178
17596
12396
11842
27326
26947
4086
14981
3730
18484
10015
8020
3716
13690
12089
20874
27031
23390
29554
20845
14731
23795
31144
48
16976
30641
11646
28349
5569
26720
16815
2481
8079
5944
15266
18087
11643
20294
23871
14009
18377
1297
24834
8772
28145
28798
15437
4588
2967
32241
23555
26848
14781
23221
3922
29791
8248
8350
5328
5244
2912
25836
32202
25118
2572
11891
23512
30282
10174
5881
27829
13989
5914
7136
14414
19252
24733
25093
21785
8551
27019
28903
18088
8278
26409
10508
10878
29258
4653
31136
10017
1919
11891
6496
20849
13864
15089
18102
31799
7092
24045
21285
9729
9040
24941
32232
31022
21933
21488
25046
4677
22019
8539
31369
139
12374
14390
1215
13524
23800
3864
15872
21145
7503
7776
18306
5963
5592
8742
12361
19431
18796
14450
27282
29899
22978
12203
12402
13256
12598
6482
7099
4216
31176
29936
29983
6865
1384
1868
32408
7163
2929
12770
15623
18783
24435
24209
1307
11777
1333
21396
20340
15887
17914
947
6152
18618
11012
11962
19654
15428
343
26155
3962
28762
19135
18992
20209
27301
16404
4819
31581
20892
18621
14705
23034
412
2931
22124
15346
30778
31815
1825
7295
2520
3047
28698
27215
5494
23581
12164
44
10955
7576
21475
4316
22164
31471
11012
2630
2349
13539
32051
13271
19294
21477
2223
3108
13687
4824
20827
10705
23711
26391
6326
9137
10857
18874
4621
17454
21160
9749
9968
3052
23429
4482
24546
18345
27598
12385
17748
15720
21393
27740
19669
13518
746
24560
9859
24268
25369
6952
32453
24702
17879
9644
2108
1363
24299
25083
25078
23663
31736
13813
11749
17741
28313
7324
27536
12201
23727
1307
27401
4765
27386
8968
27679
24330
30183
5094
15828
28985
19625
32238
29202
17858
8843
3087
31129
30125
10885
27443
15420
15832
4365
11460
333
5528
18479
12910
15446
6307
23008
1831
4617
18478
13456
18797
10618
26450
9726
2767
7564
30388
30800
18607
8873
4965
25955
25158
13495
15623
21600
12265
24903
18226
5520
8074
527
31254
4209
31361
31642
9825
6153
14477
21566
12387
22906
1045
14159
22127
6359
21428
14482
13957
12342
15605
27636
22319
1286
25691
9596
14249
26531
11941
30079
11076
4392
5967
13587
1036
13189
20572
14021
20649
20433
3923
28559
12675
18145
11144
11268
2346
22553
29084
9678
3060
642
20551
3418
29416
31773
16981
23506
21978
13175
6639
332
28888
3966
4380
17217
22725
24979
17288
24384
25412
15840
30083
17891
17880
11756
19532
515
12361
29036
23440
8232
26185
16733
11310
10819
7255
18767
8253
2976
7140
19204
22608
28950
29364
8249
32248
31105
12680
3780
6027
19058
32250
8927
18724
23844
31656
964
9963
6066
20628
30330
31895
1672
18635
750
11825
18967
23877
28485
5658
3278
8717
1393
1103
5445
24481
22274
17132
18619
23452
29503
17391
12738
5266
17270
23615
24377
30012
400
12269
12155
17109
31976
13241
23510
19139
8542
26584
22591
4986
29863
12276
23363
5278
32231
27765
8769
14951
19329
14591
17879
14410
2861
29755
12954
28374
26700
29915
6666
26844
9337
4056
28613
13266
7777
21502
18170
6009
15060
7851
9249
28862
25628
28116
5865
13278
5005
4936
12402
22990
6493
11577
10685
15578
5814
2040
20065
10380
24074
19712
32639
8399
11687
9014
25335
9300
30859
9327
4828
28213
12665
19507
24870
31449
19532
17345
935
21527
27020
12114
15425
26782
24639
24738
20821
29332
6657
4781
27262
12669
30039
4790
9600
31583
8769
31374
30587
26915
11534
24595
11877
8767
11124
7671
9910
2962
16352
6595
2405
23951
26379
11035
9748
26014
17358
2115
15752
30399
23863
23522
20571
19825
732
26630
17909
27346
19311
23145
32696
11015
24979
13811
11387
6878
4846
30079
28730
20658
21888
19426
13323
19600
14131
9513
12884
9111
27571
19747
4924
31397
27775
24352
11615
5168
24385
25335
16070
30065
13915
15182
12822
26312
16322
18709
17415
21340
5647
26708
7448
19458
10195
10791
13186
12640
18731
28678
2410
18770
917
19530
7002
17292
6146
19437
4850
29057
26413
3474
4571
13700
13354
18885
10493
27949
30018
12419
20466
23295
9982
16381
28858
21319
21890
30873
23472
12359
20508
4666
14268
20884
15133
5825
17099
10941
29672
1492
30332
9517
31560
26078
25884
22867
23047
26198
25301
25344
13244
30533
20258
21776
31716
31234
4742
4172
308
28480
9342
399
17198
17995
11700
2856
17907
12687
6773
7552
22616
9306
12645
17149
59
24035
626
8997
280
9610
16902
16647
12503
7265
25729
30934
3816
18412
3558
216
20882
14885
10708
29054
23944
31427
16313
6357
23486
5564
22338
7453
24954
29449
278
12982
24238
23465
22467
26948
18053
20456
3320
21515
9788
4833
22262
4507
7731
3906
21057
30386
28996
31055
11163
24670
7763
21034
9778
29026
14374
12369
21017
16091
28535
29032
1781
12323
840
14649
30457
5622
2935
25081
28180
15571
20882
16844
4456
32421
11244
27020
13055
6051
3825
16582
3513
17013
18614
8966
32137
24472
6869
25173
2017
11267
9847
21247
18539
19211
24242
17562
5626
10116
29974
3139
29632
28713
29826
1067
8897
13118
32316
9299
26503
23923
23873
6291
22552
8204
25562
30689
17957
575
18288
208
6532
8669
28321
32599
12001
26421
26004
16340
3760
12342
27785
13136
4197
14035
21684
10501
15848
13996
8011
16669
2883
5610
4830
31933
13982
5482
15079
3906
25710
19487
1442
21707
19433
29105
29726
4599
1981
15466
4244
24816
24321
22099
7929
28584
6764
11674
15311
29538
14789
9271
23872
30069
7578
25295
27245
23884
31029
21209
23812
23474
8396
1023
8464
6988
2040
199
10006
23143
1128
22130
23645
20981
10455
21541
32141
3537
19515
17734
30588
6731
4416
11049
19012
10976
500
14828
8857
7753
5060
7327
7513
952
10151
17576
26981
1374
23193
18534
15280
23600
14923
5397
18837
12523
12825
30706
15726
3669
17468
17055
22882
18630
25409
3784
15486
32488
32697
25863
32263
6075
7731
19205
4879
25052
2407
31971
12871
14342
29876
21976
10772
20185
8909
11291
23781
4058
25775
9219
22467
9660
1238
15980
14122
7646
29360
9822
19991
17172
16978
489
17250
5546
21610
19027
6478
1190
14964
28534
21343
19534
11057
19043
11883
7658
6997
9035
7924
29899
20096
20128
2485
15500
29808
9591
27259
11416
9845
23857
23862
31980
22821
602
15696
22559
5712
6865
20285
11935
4919
13097
10324
20285
30456
23376
18653
26860
25933
22126
7275
22981
8566
528
21612
28495
23924
14470
20734
31742
2424
12937
3076
26105
14235
11298
14969
4896
26575
20679
6149
22094
20502
12998
4302
16859
29938
20967
15761
870
9756
30028
26097
11473
13176
23709
32015
3724
28233
3170
19546
1815
19106
14768
16553
27586
13597
6408
3463
28344
28878
5244
6861
9787
4474
11539
28791
6449
26117
2927
5296
29920
26410
941
4143
20470
32367
4237
3270
7884
14679
2515
16952
15595
15577
6637
9548
12240
3345
14037
3359
1772
32054
8761
17086
31983
23500
13530
12020
15942
12058
31026
6753
30946
5599
22873
13260
6460
8257
25641
20667
22678
13574
28065
7232
131
22278
3719
10261
1961
24288
18257
5099
27590
31981
19014
16128
27889
6002
12513
14320
3619
22810
8310
24269
32501
931
8727
28017
21163
23255
12729
23059
10354
15294
18579
18457
10470
13330
26311
31533
31959
11763
24644
147
8525
988
28907
698
15561
4310
23537
31505
22990
4331
6788
13851
10912
26078
23985
24006
14924
5145
26501
32249
12008
3047
32626
14188
284
4835
1525
5308
19682
25009
27510
13759
8073
18923
3696
17685
26368
30814
17617
27647
26193
10103
5284
14452
21356
22008
24557
10610
550
21999
2004
21907
16513
18409
19206
24544
18478
22115
25433
12009
26960
17793
9903
6678
21123
11011
12060
312
6685
25204
20043
611
27828
4516
20509
16896
1248
20825
20628
31006
20545
20034
10480
15881
26052
30252
14359
15134
12579
1400
2618
18397
30635
2253
9142
6208
6722
9994
29496
30283
14504
18303
12069
14821
6653
26716
8761
29414
32388
14697
11118
31089
16038
20216
29983
22660
23354
281
10093
18125
25347
19212
6626
8640
20858
16124
18516
7910
19150
25066
3852
10104
22826
999
29224
4652
3894
26758
29758
12111
13280
21393
16450
23316
23388
19963
10922
2604
4457
14102
19919
1174
30935
30214
17815
17081
1094
24438
20049
8368
11312
9097
19168
23525
17962
22547
30236
3809
24934
29450
17269
8034
19581
18743
13018
21166
10347
25905
7129
31784
11483
19084
13319
31265
422
31054
21666
29936
20886
17826
17269
5189
31343
22481
764
7866
32304
26733
28105
14251
6550
3280
8486
12104
9186
10181
31484
6376
7132
21124
12019
7073
1560
20964
14043
12565
120
27596
8779
18062
12018
12522
2439
29774
26003
3752
10151
16160
13252
15708
24566
6195
13517
24255
12953
3880
18839
24737
25713
27242
8118
30683
24130
6590
10662
18308
1812
14107
27733
2152
7641
2491
17890
17589
22097
16242
4517
31736
15659
20543
19823
17224
10093
16417
9235
13761
12565
13099
293
18741
3840
2011
4609
23325
14348
27560
22543
2518
10618
7642
12358
11786
19094
21662
29679
2156
13209
30810
5804
30632
23502
10558
26040
19097
29428
17180
19568
701
27108
21369
16915
6887
28275
13796
17606
9780
24218
19078
1499
23360
30420
31483
11090
24474
16328
352
19104
26485
32552
9645
176
32160
12249
25925
19240
1976
17748
14540
1773
23196
15948
27705
14313
29473
19089
15660
32268
9991
2100
13185
23440
25132
7148
26661
12418
17408
10424
11816
3966
12601
27334
21012
20410
11720
31124
25470
69
4875
30037
15578
8337
30276
9110
15764
16944
21322
16161
27228
30683
20350
32545
26561
13752
10497
6536
769
1757
9764
17582
15647
15376
6432
31802
3127
30672
19464
3398
18191
15258
26875
11710
28398
23141
12958
8969
19377
29807
8393
15340
3611
24635
13697
8619
27757
9434
7719
17521
27958
26987
29934
26353
21613
32222
13971
3406
26301
24829
16456
21304
30496
26540
27121
27993
29359
26991
4242
23023
24249
5678
9480
1210
32018
22837
4856
25112
2733
28031
5126
17775
19565
1844
17223
30411
24121
13936
1272
19400
30799
26438
5744
18355
7898
8965
23123
1772
28614
30393
13577
31118
723
8949
3438
12626
4072
30928
17867
18097
20395
2094
16646
6473
19022
833
18453
28546
2219
31567
25528
14705
23444
23221
32360
31485
11620
16428
25226
8512
4570
8011
26857
18224
2088
19021
27491
11646
9030
18709
20451
27070
3212
8559
16271
4297
5248
29849
24130
24671
17901
5634
5692
11281
12085
32593
19480
4446
21991
17833
3839
14109
2196
29739
6428
7195
735
28605
13391
14596
6100
18442
22310
31111
22139
6602
3593
20661
23724
26180
1204
27818
19492
1041
17387
19824
5593
3362
30568
17184
3979
28165
20505
5962
1948
31331
22152
26007
19233
10958
16795
26541
21049
26553
9597
14419
1694
1480
3804
20950
22649
22347
24149
19371
5499
30469
30764
6997
13865
12337
7233
23690
5495
10183
31295
25745
18073
11003
22039
9454
32022
18182
20653
8513
15134
3626
10448
31852
14877
11760
2160
24820
16784
15029
12811
18602
24600
21604
8809
26506
15052
2181
31369
15843
26324
5495
17883
5560
308
29433
28848
28518
30949
17392
750
8584
16170
5476
29448
12312
21025
3787
9517
7895
21912
30602
27328
17134
11811
13753
5641
22485
21099
10790
30250
23412
18121
3485
20308
30088
30484
13159
9018
28233
25271
21777
24006
30794
20230
19311
14859
20896
29650
22751
29564
70
22074
26834
5979
11712
17861
26761
2676
26111
12206
7453
5898
15749
15487
6850
5906
8905
27617
16716
3743
24285
8883
25075
19102
2382
24409
29267
22467
29516
2135
28855
26051
19978
2334
23958
27332
4200
12581
28254
6929
24528
2364
23921
2323
93
4894
31597
381
4163
10053
26033
30662
4715
25858
1565
5852
3165
26828
16408
18967
15203
15577
28376
21099
9451
14315
6366
15331
1582
15981
31935
18250
26383
6590
23338
7211
21574
22989
8743
22269
1213
29926
23965
18327
28218
6603
4375
29674
3391
26631
24263
13038
25647
639
8140
29661
30129
12362
20912
1440
15961
32706
32053
29318
29062
8155
31313
17468
32134
25524
13687
17402
6913
9324
23064
2810
27540
30007
1642
30510
27580
23985
27752
22578
15350
3698
1050
26752
1316
17378
13078
26339
31795
19278
3399
25646
18683
24124
4845
6445
21606
18428
4069
22748
16853
2432
43
29399
6079
28526
7581
6674
23451
20082
31489
9162
9473
23001
20554
12987
27660
18524
23575
8852
5890
15161
32381
18344
2871
7049
28934
22246
17710
25037
16377
2571
15362
31690
26844
21526
5124
17559
16952
14844
25766
17140
4252
9118
5528
8669
27876
14584
5936
5983
24507
8091
31247
11691
22111
11357
10754
8809
21669
23887
20518
20558
2108
12271
8272
22257
8501
10143
5547
29914
5059
6230
25251
18396
10048
2454
6146
26534
30321
17822
18265
3732
17675
26848
9378
17611
20086
1461
27427
16772
29136
12368
2454
30376
24373
1776
22918
31390
10814
2650
26108
17504
26055
23175
1371
28117
11510
11162
19081
28763
15737
1813
4431
4002
1806
11595
10755
26305
21577
11033
26724
19331
28818
30673
6597
31746
28525
12151
9838
19064
30974
15664
25151
15185
16332
2551
20630
18821
965
914
24435
17700
18050
4036
24026
51
5325
16325
12665
15798
2400
22511
3979
5902
27888
32698
15612
19333
5994
11754
6606
11816
30333
9479
31675
9685
23896
5134
7196
29588
437
12134
7433
13098
18966
22037
27074
18924
20814
5940
30285
14290
17220
11168
8801
32460
30452
14323
17283
5209
27062
27315
6767
4437
32707
19145
14265
5138
11765
18996
5044
2219
28878
28926
23955
19349
13500
13423
17870
23159
5019
20098
18376
1852
2940
10645
13998
24934
4773
13412
4514
18853
11481
12856
25369
25512
26073
23388
12161
23091
21802
25041
14120
10610
3865
11842
3929
25485
9981
26938
22216
9084
9916
9365
2351
8733
8080
14645
13882
8579
14347
11510
8097
8849
23385
13539
659
6344
28102
10154
4187
4190
10879
29773
23102
31376
3741
28955
13474
5177
30047
5855
21878
6818
18871
31831
12749
17052
28937
9703
24268
9676
21295
32143
31175
6727
9152
1819
23463
10335
20626
9369
7055
4796
14717
32528
9407
9390
5474
26479
25528
15041
10348
17348
20128
14738
12182
23726
19689
26338
9582
7957
16942
22761
17432
9752
16477
28652
26773
8519
9499
3602
15174
27411
9828
372
16811
25474
4722
21619
15729
25384
18145
30798
31916
23122
8976
32244
32609
28804
31178
20758
5703
14374
17958
10625
24270
19066
10155
9899
16481
24529
27064
18827
20200
14335
6691
16558
13970
26380
29473
14984
5329
23084
7270
12808
25254
10481
1933
26991
21534
1728
27577
1889
20765
26754
9341
2620
27482
12955
30713
1450
30123
800
2118
24178
8323
27716
29717
30868
16312
13076
27282
2964
7562
26213
13967
4374
32482
25098
1246
427
15575
4682
27134
21483
6006
2961
27387
29124
9667
19045
3471
6161
1787
12188
13197
21614
14620
3276
17791
5451
14503
21764
28814
64
19877
17849
31651
672
10728
7171
30668
20561
15507
10762
20449
17627
24285
24762
31591
23230
15889
8639
22708
11529
9945
28077
29268
14120
5565
17022
13228
18174
12519
15938
20701
21812
3881
23058
26092
14288
28737
20806
4383
25353
19035
2280
3242
11353
20695
2920
2954
17365
22605
27792
23986
22458
15310
10683
8037
5704
10093
23106
30691
467
27646
17464
11079
19223
16414
10583
944
9676
4724
24633
21919
19322
20790
3532
9120
8335
19182
4864
9517
12207
3198
706
13519
28491
24673
13358
27014
1397
21301
17664
24427
32242
24950
8268
29588
9873
12941
23920
30520
1468
1289
2886
7699
8013
12332
15262
11276
31651
24233
25323
9750
9460
26284
24636
2644
3812
25371
16750
21376
7255
29211
6048
19341
14212
15575
28648
29067
12364
11389
17476
30412
21705
28808
30932
5957
30761
14917
14662
20790
23485
20880
19089
16398
11853
26335
9446
7817
5551
18051
27107
13339
30359
20778
2827
12689
28337
23975
13427
16630
13549
26614
20413
19635
21531
12666
13130
16891
29623
13962
20908
21094
8966
7468
32090
30940
23138
288
5288
17845
9937
16673
10742
13854
13277
12647
31783
6847
10144
22384
21333
20891
1311
4864
5570
22327
2265
22631
10514
29438
13215
24578
29624
740
30629
28420
4783
10826
15322
7542
5994
26657
10613
15741
25101
22611
30672
18396
27613
9310
10874
29113
5621
26434
30088
20388
20540
2206
15403
10709
11411
21270
23944
26037
12883
18935
17347
10401
1526
542
26973
6122
14612
534
18625
23072
22162
28032
27161
15760
32534
32696
870
10251
10685
6581
24272
13289
23825
26417
31546
7758
29749
24330
6938
27308
17507
8937
13704
24457
13977
545
32149
16515
10638
9178
29661
27025
12267
7278
13920
12171
32440
29203
653
10733
8212
21691
7584
18904
15914
3384
5934
25177
6752
26532
6654
1518
1233
7424
16155
23878
26622
27
5927
23369
15552
29109
24050
29272
31362
24549
3148
11990
22444
21688
15383
23271
28258
22555
4768
3959
6511
10491
9519
22143
7548
4522
3036
17027
29318
23429
5797
8032
16783
9684
22718
8260
27283
9201
32296
12030
9917
1709
8069
16504
6875
5359
2091
21121
28176
14238
8823
30416
14536
31937
32355
3910
24561
21989
9819
8052
12393
5567
13901
22365
20146
28947
26880
15229
20205
1749
4006
3594
2310
13197
10164
23929
32044
13312
753
23620
23684
23308
13773
26091
2590
24276
16373
21817
10280
285
8996
4040
1377
5880
23612
27335
32465
13218
29333
19707
10680
31400
4501
12804
22980
23886
24705
29410
22406
18226
3218
30647
23335
32301
14668
14030
8023
14714
19211
9437
8327
13338
16351
31367
23640
15990
2713
29477
9555
4935
9254
26822
24282
29619
18204
29044
13662
20152
2451
25018
9939
30670
18742
22627
28513
12488
7578
14211
11869
2812
17614
11964
22391
25507
15923
15034
17461
32643
1933
15872
31136
2507
12379
5863
30269
31294
14180
22243
7230
9875
26259
32521
3066
796
8452
26062
667
22183
22367
10770
4374
26018
5733
22365
16225
22658
25544
8040
28640
24933
23872
19679
5920
25845
19931
21349
7111
10896
11669
8409
29387
22439
16168
5079
19427
14948
16421
15234
25147
10128
24388
17537
17772
28595
27896
14152
11947
12157
31303
27545
13888
32612
23001
21834
32059
18063
14159
3656
8034
13555
14550
16860
365
10428
24315
23853
20342
750
5825
10503
16299
12108
12784
12506
27974
25465
14769
6918
24511
22877
20312
22101
4671
2250
3969
16585
3929
9311
11102
11161
29941
23981
11343
24694
29836
13465
5555
3090
9115
22017
22783
12771
12369
19875
20493
3365
20107
3898
12726
798
28931
6889
13474
2725
8900
16605
21599
11493
5346
18479
27825
863
13415
32007
7977
22318
23696
27143
14073
17807
31034
16615
32519
3488
11671
13916
15936
27496
21285
21823
20015
9240
25825
3307
32718
10128
10936
32487
17052
27429
14654
20421
16879
24994
6562
32585
27788
13452
11746
3022
6773
8875
9531
25830
17666
10181
5348
28993
1331
20909
2299
11216
19525
26237
8640
7209
2691
16415
4353
11822
14431
274
3029
11497
30145
1642
1165
25787
13215
15129
16616
12470
7118
12398
8326
30535
11032
8155
10143
23064
12686
14843
8693
7476
11551
26323
29191
2413
12906
23385
24712
19963
22481
10290
15
9573
22223
9664
30992
16805
22411
24924
21003
17287
6829
28640
2051
16722
30064
18793
2866
8362
21496
4699
29691
18357
13799
30117
1056
27005
22827
29766
18485
29077
1817
19984
27989
21248
14272
26539
7955
15950
32631
20958
435
776
31417
22026
7323
8270
11315
11255
18692
18623
282
15571
30965
23961
28610
6008
27250
9505
25709
31214
6897
16454
28769
5169
3853
9089
28477
26676
17022
5887
5772
27429
21577
514
9115
19443
17204
1413
7048
782
20093
10783
20892
3950
20171
9513
10202
1238
7013
31011
15832
20314
20386
30036
462
20511
1185
22705
22509
14178
21305
7168
19442
16315
12851
10045
250
11939
1207
30269
21400
15925
27909
28817
25125
21553
14182
30893
28503
10822
29025
30282
21269
19345
305
24584
28042
2913
20855
2136
20601
22845
25901
12697
4816
5672
26587
11649
639
20259
3597
3007
10378
244
23044
7134
21341
18726
6316
18029
7009
10321
10958
349
5580
14747
28295
25514
10685
895
23801
7230
15240
17869
12352
20498
8782
26866
9639
9110
7122
29306
12316
29523
12935
8915
12002
32718
18926
8276
31878
4272
17694
21373
27156
21285
31652
22657
31370
30594
28814
10753
29325
21034
32707
26907
4187
946
30102
26275
1
27715
17562
20912
24526
28224
19895
12123
26887
17449
28285
32707
4316
28096
18873
13397
13723
30826
32326
23370
11300
9943
16422
9328
16797
15333
2001
9006
1383
27842
19405
29122
28496
15953
30847
6606
13834
20944
6721
26131
27100
25783
28085
380
10135
2019
19032
1886
30668
20979
7002
26878
11836
4339
23213
19540
23952
16184
16988
18446
13130
16266
10270
8408
20476
9353
14123
27611
28599
1865
31822
14979
30407
12608
30779
13190
13981
7522
11300
15650
32525
5258
21639
7334
20410
26908
17994
12083
15822
5608
8713
8132
25070
17490
20911
15980
25197
32176
1091
23775
28095
3060
7173
21556
14641
19851
17082
6121
22488
133
6212
31272
32199
18677
12149
1352
901
30363
19749
3735
15807
19904
7554
26199
32057
22370
21416
18694
19210
31889
26482
30179
13577
28953
25999
3757
16003
12641
1496
9390
18735
6035
31712
5880
2659
19453
13773
9711
24711
5304
32103
24583
7371
18567
12143
19407
5397
26881
32050
29487
4669
10227
27742
13293
28285
23552
2323
31094
30755
10378
32317
17372
27785
23766
2082
8219
8007
20074
30007
30112
8615
12986
10552
19724
32346
15364
22135
29749
23913
32121
24949
9069
9326
23197
8879
2056
26371
1520
31418
22552
15227
21198
27794
21371
18384
24212
12848
22040
6877
21764
32602
24421
9677
21483
26303
13101
27092
12800
5443
30608
11805
11536
22424
29771
20995
17240
7694
22329
3971
15411
29356
8730
16881
9205
5503
9620
1259
16150
13106
11639
16268
14483
27103
16965
28641
3985
4133
9202
19105
2115
29307
25064
792
9231
31427
13390
20325
25836
30243
31370
31973
24591
27920
772
10479
25542
16811
45
29122
13476
2129
20161
13243
9694
20077
29001
9932
4341
17297
25827
28713
28821
30918
13125
31812
8894
10784
26112
13564
5665
18069
16130
26641
26317
10766
23135
29148
11786
15807
7505
61
2437
29364
5757
468
7598
19117
13175
5492
5983
25388
28553
3540
28862
14028
24496
23944
32100
2260
16360
32560
447
12044
26025
11760
22964
11728
15282
544
29321
23138
11013
17988
7171
30597
5427
6206
29899
71
17369
10946
30230
5406
29035
15115
25221
16182
20272
3788
7242
32266
11406
3690
9869
21298
9096
20328
22030
16507
28293
8995
29963
27709
19283
32191
24164
24553
3947
18785
21501
5346
20855
31134
5220
17294
19473
29492
29620
10412
24014
7160
31673
13544
19067
10000
22356
23212
8614
29026
3361
28218
28257
588
19800
19448
5186
1174
22257
14602
32174
19365
14348
12838
32599
14577
28047
7332
5380
5561
9745
3541
23441
13557
11255
7318
27702
29068
15068
28965
32012
23751
17463
1843
27340
12549
26423
22074
4058
23729
8178
21520
3203
14706
29119
1469
25731
17313
4320
4746
5579
26112
20325
3418
3201
11689
20812
26685
6215
31300
19437
17987
18112
32381
21654
8078
18256
9398
626
27563
15396
11256
26543
17955
7283
4400
9695
16716
3075
6296
8607
23397
19438
2931
6519
18914
10406
32253
9218
3845
2359
12706
22863
3502
972
26478
11142
3956
7029
14021
13007
28916
2855
15444
28783
26729
16901
13639
19764
6782
29917
23228
22292
29024
26870
4472
529
27158
23561
16857
28768
19477
11661
27660
1481
32527
11575
19584
19025
29453
12994
9371
24599
20157
25324
31659
4220
22541
17857
27679
13446
19192
4635
20727
31879
4768
21098
26489
23289
6302
18097
14630
5805
7830
10193
25068
18469
22030
12298
1693
17982
10880
3263
4000
17937
29101
7545
31719
12828
30261
9263
24608
31901
4197
19141
26160
28991
16720
8658
24797
18936
1057
31910
18378
2866
18863
20108
12201
27433
21074
27980
4780
18580
23030
23796
32060
29831
19053
2264
29422
21400
26634
3544
8115
6721
11371
31201
10575
10373
17302
9399
13580
18646
24392
1521
30127
22071
21641
11333
21931
3486
14212
14853
4501
3740
27030
2794
22232
20287
19877
26385
15018
1848
5811
26435
7486
22073
25778
28281
19771
10657
9114
23711
32622
9563
24762
24217
28347
5123
2635
32644
14426
8779
19787
24382
18496
27038
1417
12840
27098
3587
29692
28202
20737
29507
12120
18680
12075
19790
739
27540
10462
4059
12165
32533
16235
335
17183
30374
728
29920
31262
15057
8222
28666
24400
6654
8085
16097
7670
8758
26540
15513
14874
18477
22493
20995
8995
32640
4064
28744
21670
10299
14111
2682
31103
30110
22635
21113
17697
12833
9709
15636
30506
1205
14687
4465
15675
6989
9340
1967
26374
24221
26036
15049
8360
4897
5413
29118
10042
2914
24007
1007
11170
20341
5862
23752
22447
24004
4566
25250
10598
26897
28642
17640
6294
14263
5253
30073
15027
2099
2013
20814
22752
7908
23900
15453
11342
24847
29377
13501
13509
8486
6982
8458
23936
74
2843
24075
25662
2318
5908
20370
13974
26494
7327
30884
14731
25184
9720
24282
12128
31161
7840
15623
12206
20115
11275
18715
26035
14334
32408
4424
2285
10581
11975
13411
17383
19906
31399
31116
32084
32004
30605
2833
14170
28016
3083
22672
31024
18230
17952
25692
30443
31974
25005
34
27541
3379
4904
15565
22912
4598
27284
4518
9433
16502
25265
32448
15488
16102
28784
11923
17687
29487
9897
23271
31322
12016
16912
30964
15022
23747
12646
28871
28924
4803
28140
25575
20671
11851
14365
18233
6236
23808
3228
21537
19891
14097
25964
5354
10483
20157
7007
4200
8626
22806
31697
22747
21053
21509
26261
535
9516
19855
2096
17122
314
12374
1093
17822
26452
14691
9297
27688
14064
31522
24217
2815
3232
4526
18784
24489
28391
27727
20060
18002
15691
20546
12907
29367
5547
30904
17795
12354
9171
30752
20199
28022
3918
16041
2465
5774
31611
27139
17708
865
19940
16998
32369
31881
11978
2262
1269
7108
30725
31397
80
2970
1547
11833
27105
27201
8014
11536
20160
21437
26059
28416
28148
22347
1759
6852
1766
23552
7517
12212
27670
14510
31199
31956
11789
775
17753
2320
29331
23045
12788
20678
19489
12169
11801
31877
9625
21826
19915
29973
5685
20688
24123
30903
12733
15145
22422
5549
10494
12092
8482
11773
20087
3029
23433
26739
21333
3265
9589
13029
20642
32562
3676
14778
28857
5477
11166
30893
19709
7553
973
18639
21450
8131
17483
4043
19116
10200
29979
29806
16591
15754
7921
15463
1463
20639
6027
14155
30769
7166
26692
23260
16778
17428
743
29834
20734
13430
14529
5178
11123
200
10234
5191
25448
19677
4901
25286
19752
31
22293
28687
17219
18482
29426
26233
3902
11988
22157
3940
19082
18184
27377
2429
19379
13683
2363
13373
29658
6150
21419
29875
28773
4317
9466
14212
17653
30823
2542
21552
12696
31432
31021
13718
18753
9339
15695
27579
19573
8764
17718
2759
7238
14373
20130
31568
22917
13335
7936
8155
1076
24411
16003
29600
12090
13193
26998
1678
7258
22185
11217
31375
21606
8857
23306
26125
4016
15279
25133
16309
706
31390
5167
14203
25423
11678
30848
8414
14697
29895
17887
21101
20723
15806
32626
7818
24410
8852
26646
18798
12672
12267
16372
8301
30201
22107
85
5755
30586
2836
2487
2544
23438
23492
30751
6024
14731
31163
4530
7854
7621
77
895
23290
19713
31351
24736
14072
23597
27590
6017
15403
28750
24693
20863
17489
15033
18645
28853
20457
1414
9202
8210
9715
25666
15732
10671
8439
23780
707
1888
19784
7426
13167
24970
15498
3909
28878
28724
12914
25883
28903
29280
3789
26795
22670
12187
6340
11022
209
14291
3934
25276
11155
21865
9030
3652
27511
25991
15823
12097
17152
2740
14645
12681
16118
28069
28198
21159
4107
86
14976
7564
26558
30554
25949
20097
7296
28016
1101
13152
22805
25942
17890
23556
23358
7650
17778
12030
1429
27726
19480
13961
18616
4308
8956
14785
10153
14714
23252
30223
23413
10032
11435
3304
23060
10520
22497
31159
17553
25125
8564
9239
107
3303
22653
25158
58
12709
1022
32726
32661
685
7642
7334
13876
21224
32549
30737
18002
23217
24990
31845
27221
16103
6778
7831
9649
3649
29284
26165
32010
10466
16065
12699
31129
17966
8248
2666
31696
3291
2674
7734
8513
29003
31006
12159
16828
19993
30265
4835
18359
27378
21900
3217
26611
26022
18806
8705
31837
12670
13547
13283
1587
8401
24253
29781
7015
11474
27162
3416
17224
28588
14423
2949
1631
1233
6123
24828
13719
17294
25791
5278
11426
2020
32165
29052
5015
32147
13093
19086
25568
8567
4992
9897
13395
27927
14319
26795
4255
24700
30508
18425
24554
24127
8499
11563
7864
3558
10314
18181
28687
14449
23359
27561
18905
21295
5361
6668
16521
11478
1297
12199
13825
28883
30250
9839
28595
29919
13535
28422
22535
1235
31861
15155
28413
8381
3217
19600
11796
24883
19522
7042
25450
30183
7745
27246
18468
29308
19064
6442
22032
23960
8386
19634
8329
13883
14578
16157
13468
25423
29718
19407
17513
16768
8957
3055
8651
17229
30198
5916
19515
22367
6619
15451
5617
2330
9806
18260
9293
3955
16707
9663
20342
15873
7103
281
9537
3158
11230
8347
4948
10127
18459
10092
31883
16938
1996
790
15770
5656
3308
7735
25844
19731
6941
11129
8684
17202
8173
7363
12058
22459
4185
6833
15361
16440
16272
4162
6638
4557
4857
7889
12323
29896
14198
3655
31541
13946
15339
3470
7091
11590
13562
22345
14344
8951
19985
3778
13731
14678
27559
26915
3413
31997
17090
30442
16122
6758
2493
8599
10331
26951
9800
12711
17235
16930
31920
28870
3889
21015
17505
15425
10590
24830
1449
7098
22848
15794
9406
12319
4957
17583
7683
3805
14276
13536
22407
23888
4009
18098
11214
16510
20047
14701
4565
29958
6443
19140
1616
9043
23366
19627
6710
17429
26595
19816
19071
10482
12386
1517
1325
32120
4452
613
32649
21591
31536
14605
16815
5325
31061
837
2892
23649
23953
11495
30119
10452
4594
3543
30430
24149
22075
25051
10866
32244
27785
21165
774
8281
31030
26703
18788
2230
6654
21407
3265
25594
30816
18219
26690
2120
23367
21062
16831
18599
31722
29276
26054
12539
8689
20098
9443
15924
19161
20817
22046
26309
24729
5365
25286
1879
17286
21889
16237
1983
11124
23941
30260
19502
9246
8419
9801
18088
10440
31198
7341
15544
8994
15476
27195
5473
20848
5102
6886
17239
22504
24245
29250
8048
347
31847
20806
18261
29464
16938
10576
21629
22542
2369
8297
32604
18224
3037
19146
727
26910
1077
7584
21500
8449
16856
32525
496
15542
10562
5999
21032
28720
20910
18404
27868
8215
13612
27150
11705
16309
9971
15635
27863
17939
1016
9192
21482
32351
20928
6352
5052
14225
16242
31263
3547
5967
15664
5188
18062
5133
7591
3334
13070
23160
30181
5134
14323
8725
12139
31910
27629
13605
132
9408
29364
12237
16085
19770
1090
14963
16436
18272
29759
17259
15806
7091
19901
31699
27939
3561
22309
7099
17477
8756
4721
12682
6914
1991
3484
156
8013
3223
5975
13104
20356
32350
11262
25474
28413
7398
11978
16436
10467
388
17224
20466
21824
8162
23306
6230
5210
17410
19356
11273
13379
12672
185
25644
5292
18456
7871
18678
31994
20839
10593
28062
6300
23542
668
17275
3483
18292
21996
10346
24946
26179
17343
13424
8225
22583
24874
2720
31101
666
24539
12607
18634
18803
29263
13607
14987
28167
16453
7273
1177
13985
32626
27702
25715
17295
1142
17920
22485
13677
24591
24540
17292
2214
23692
23595
31880
18999
28549
17529
26419
2486
29642
11173
8449
11411
16281
15170
26696
1695
27412
12350
13907
23498
23281
2753
16306
12081
25460
30040
20179
856
6042
10067
11479
28595
6296
18028
3230
12140
31107
2985
11300
3424
2897
12163
8209
20843
9472
24903
32139
4837
15381
19901
22095
5228
24904
30984
15104
3300
30078
28621
14270
445
10999
5015
32507
5748
9929
1658
13962
30045
22157
31223
6905
13727
20056
25888
27937
25216
17133
26108
24059
2019
29744
21037
27830
26638
7134
15056
27398
16049
13436
26533
7102
13604
11405
3440
8097
27633
23048
17311
9333
15762
16905
32044
2650
7804
2247
2245
29530
15964
7622
23595
28993
20128
30798
11992
17839
4665
30747
10212
26731
6815
15958
9001
18426
22038
4804
20902
30833
21297
10558
14625
17543
23956
23393
22288
21742
22525
10886
27322
25060
30598
7668
10906
8965
17444
20821
26884
29027
628
18279
27659
20440
27319
21748
31905
19867
20762
14340
28928
30482
9020
12113
13897
18663
24298
9723
7531
22878
26157
18301
28487
11238
21638
4064
3090
25326
14712
11311
6650
17401
23623
16170
1804
16885
27904
24126
25173
456
18105
23221
20551
3373
10010
11051
7775
10174
32540
2369
14853
31313
16657
6037
3764
2184
20453
9201
3930
9380
29603
22978
28418
21914
30522
30924
19632
25449
21378
25629
22156
32170
2938
7487
10307
12393
7636
32690
26795
6963
12211
20633
27302
7792
21683
30388
21832
29428
6186
28302
5948
24528
11181
20216
10595
622
24278
29109
25791
23773
17477
5239
28560
7785
10213
1547
1468
23151
14960
13264
8308
8559
5686
11117
16661
12387
282
25795
25420
10831
4061
26657
23166
4122
3743
9399
7783
27292
21154
2894
19201
23288
22866
16694
22439
1324
22658
32639
18810
2278
9209
29292
25860
31898
3117
11556
8987
7889
6734
1451
27912
12740
19846
27921
25577
13609
15744
6121
14164
29261
17959
2813
20285
3683
8368
24640
19738
5915
3546
22532
10308
15735
30068
2669
27041
13019
7968
19750
19072
23651
26712
8530
15044
20600
7086
15814
4677
21158
19800
2421
29043
16808
24811
6699
5437
11205
7271
2943
8753
32096
27764
16899
10980
32202
15851
28349
30100
3674
4248
26331
17676
24512
10047
9122
10440
4502
30940
32424
6234
28728
18223
32323
24076
17622
32376
17985
5319
27591
17024
217
15667
9504
19672
21474
11808
21382
101
13891
25637
7488
22045
14763
29830
9104
1803
7298
10075
17476
6041
14367
31983
6536
10254
7995
8807
11262
11862
165
6564
2833
32002
8760
6250
16262
15247
2059
25281
19539
13291
7143
9371
12725
6453
26878
3768
9853
11204
16345
15047
31658
24172
22163
6862
24125
24828
14661
30667
27465
13323
7873
17308
19018
10741
30083
16924
16823
31008
15588
19855
31195
17284
32401
14912
25056
14186
31804
7528
27437
11635
26001
31570
3826
26589
10860
8381
20992
22274
15689
11138
15071
1825
23036
1654
28186
7009
9378
23698
25822
31251
13527
18257
29123
3640
24873
15450
2026
16963
24269
32351
30792
6176
2449
5445
6465
628
26642
4485
3193
25383
16431
7890
5863
21280
20413
10748
16171
5967
32124
7700
9761
26353
5706
31953
19894
26383
27287
22066
16890
32584
24601
25445
22647
27601
19393
18664
31170
12474
10221
17390
10575
21107
31455
18180
16265
30606
366
18932
2594
22470
29179
20713
18088
7233
27559
28373
11098
5394
26051
18192
29241
26626
13193
21058
6754
7312
28681
27266
21402
10550
26213
25279
18475
26094
19009
11615
14575
2037
21622
22055
8106
2767
6150
21339
19356
10891
9045
29222
11351
21320
16790
25147
16079
10744
28803
9405
20656
4708
24145
25181
3572
22129
995
27842
3252
21153
12094
28461
19262
19420
4669
4701
21609
21105
10629
6064
32293
22104
4028
12172
30294
20666
4342
3837
4579
9906
4720
2207
4617
10582
8833
11455
21494
22257
17613
13501
7827
16787
20156
15796
673
16076
26667
5725
263
17588
1121
9265
27498
6190
26436
9166
13055
12398
2764
18588
6557
29625
30905
32688
30999
12652
27777
23025
5320
32064
20877
24953
10607
20428
29092
24126
12094
4172
26536
19953
557
27552
10880
4902
25748
7320
17493
8118
4089
2414
2561
7777
18470
23188
26308
24504
9343
28336
4153
3643
915
20454
13961
28094
23793
3669
1247
10769
25917
9188
1564
30943
14467
17726
16843
4823
32458
17435
9559
18442
16109
26306
3451
13204
21414
22731
1019
21119
14060
6442
1426
484
6015
2409
25643
10323
27841
565
6484
3701
31943
4380
7407
10992
2224
17301
5162
25995
4917
9025
27826
5523
30082
18288
14372
16253
13892
8167
23493
21964
22276
23777
26738
310
2995
6227
11994
13314
4230
9332
25578
3252
4612
9085
27017
19436
23389
19629
3974
24972
16125
657
24782
21785
28001
7810
20707
3428
11817
5487
23945
15209
12143
23005
30915
27767
24408
7979
20221
1937
1000
25115
15755
14869
1307
23182
3410
6043
7473
14991
17861
28960
25417
24211
11284
10084
25649
21247
17055
31888
15741
21227
23729
10524
28374
9254
6763
14320
21909
29818
24830
28105
1681
7217
8990
16351
31284
27095
3507
7621
16085
23362
27857
4752
9537
26576
23786
315
7067
16368
7234
74
10855
9700
4260
6318
18401
17349
21844
27625
30099
8903
25924
1394
23590
10174
13706
23387
22905
14561
21522
16945
13552
28878
24208
22564
28175
719
26041
11111
22855
13404
4275
8154
32527
4065
5322
22503
28983
13505
21860
9385
2681
26778
16439
16724
19538
19915
14777
24017
20240
25395
11736
15528
30763
12604
6380
26659
27352
18456
7402
17073
26332
29515
30426
30344
2462
18026
26763
2190
9601
26402
27269
4730
9072
14459
14911
26678
8891
19294
6290
11400
19233
14422
19566
6386
1326
18067
15820
31959
3271
1076
15587
14302
4611
13254
18847
13212
23612
13063
28495
8301
9062
16112
2206
31138
5024
14579
32708
5346
12041
20866
24317
16586
469
15312
17722
14039
23712
20187
4887
25734
2305
14250
25614
20409
11363
8403
10218
6749
19728
29505
28798
26954
11663
5172
18326
12906
29232
17545
8494
13854
17637
1340
15842
10205
27475
9515
4518
18975
809
23581
695
377
22705
5890
5330
8969
2981
22909
21667
532
30275
22687
6016
238
2723
13046
25431
10522
6729
27078
4837
3763
15351
32662
2601
778
17348
24558
3865
23185
370
29792
6803
18936
14589
2757
13718
7829
2416
28873
14002
22025
13820
26794
29629
22817
1355
23356
15304
24058
11026
27441
11601
13673
28646
19863
15547
1945
2896
2978
32507
17398
25635
4524
3219
18506
11021
12154
4292
806
877
28097
22783
5508
11876
23784
30878
14250
27695
16656
21713
25938
1972
16210
11483
5383
16474
28743
29310
32466
1566
31694
1715
13846
15332
8713
11935
6841
29706
21929
21699
25988
23363
19308
27251
21453
17827
8931
32137
13907
4598
3193
22106
26473
22358
4273
12777
27735
4349
23727
27739
17917
15447
14330
12203
13497
7515
1920
31391
29579
7452
475
5115
11895
30363
30930
15860
14379
9696
23587
15847
17122
19785
22912
3147
8328
1313
15831
16613
19999
18804
31702
3898
20065
31266
31663
26442
6055
8499
6168
3707
6409
29546
27798
17620
6855
16157
22780
19051
32232
15684
24110
22817
7968
30927
14379
26252
24823
16445
22859
16949
8488
21866
10949
25604
7495
20392
13939
32504
2727
25618
7642
11291
25979
2077
613
16822
15163
8816
17137
10945
29770
15862
12942
21149
24789
29489
11396
30982
3326
31697
10645
579
8250
9349
14978
6047
19447
4369
3025
11293
3459
1697
22220
14696
18217
12380
25549
18697
29853
4669
441
7644
32410
7710
5835
4549
29129
7958
11923
31647
7397
28421
10558
12661
23069
10861
28695
31477
1977
22148
21326
2081
29697
11655
29944
16456
16474
1360
25944
32053
32691
1067
21597
1702
5151
6118
31851
25088
4035
25383
10847
19008
7411
5378
1741
25653
12696
24267
1163
749
4565
31785
6260
4205
26090
364
7782
28324
26456
25633
3981
25762
26950
29155
28132
27654
16419
10612
2296
29365
19597
10764
32752
25810
11633
11504
9418
4842
23924
15687
9447
18542
16274
8745
6858
9831
24325
12026
27933
5733
26217
28150
7924
27064
4637
22796
30038
30947
8684
5360
5626
22350
3565
25196
846
28475
679
14839
6589
6651
26745
17800
29234
2146
31290
11436
19928
3960
12060
26327
28453
11633
31702
2039
1046
23264
12034
15183
1468
31783
27843
24707
12535
1842
3500
32495
31874
12645
25821
829
12335
14802
12655
31543
372
9136
16147
17369
22823
29960
31221
23979
9862
19890
31207
23374
25466
27264
18619
7764
11805
26809
26608
22101
7033
24009
22930
30270
10131
5942
12379
5101
26280
5846
27422
26107
23478
8000
8038
21465
6206
25728
14170
19487
2376
13583
18147
21792
5545
12034
15377
3010
29057
21889
28347
1165
19207
6779
21350
17153
13449
12440
21864
15149
28590
14703
7246
4477
32255
9210
16506
3284
6821
20294
13073
28378
372
17775
23828
9880
10025
8908
14796
4418
18160
32103
28780
15699
26922
24752
12530
25567
18284
12658
22606
3109
12747
3589
8134
3429
22871
32454
23449
25329
9189
2756
3298
1669
27922
1212
19136
17627
22660
9288
18100
16507
6515
16211
28746
5841
21352
14288
31740
23425
30789
29099
20819
24063
18310
25856
9295
27994
21190
8332
15881
3672
11141
20577
14487
22472
7720
7389
12848
26900
7745
30172
15248
12054
18449
7725
1438
27436
6988
2883
4685
12431
21275
27949
27840
19424
32615
29385
11441
18692
17237
7732
18707
2866
23821
15748
32246
11082
23232
23482
18860
4201
8425
15858
17706
30394
9683
16605
23472
22671
1627
10865
9645
28080
22519
17375
27357
13554
23543
20422
4020
15372
30731
12454
29183
6567
6150
21399
30921
19892
23777
13115
23419
31746
15619
1777
25672
13584
31167
29259
12744
16672
3615
18627
15331
8588
31456
14761
8177
15453
5053
30816
30751
26138
12785
13514
16917
15838
28663
30721
6358
4013
21140
14664
17895
12552
791
16193
28083
3007
32480
8544
23342
19207
24607
32159
11961
24268
9182
13939
29766
18761
4418
19711
25788
27349
9741
11144
22173
16384
11368
29738
8678
17886
24032
10185
31542
30883
14254
14666
2611
8304
25659
24834
16169
24685
24035
17518
11253
15384
12025
17957
25634
1757
29452
4620
10321
29158
32105
14793
24798
11316
18657
30074
11200
18671
5325
23718
433
24570
21327
11123
13968
7371
19674
26650
22787
12154
7412
31897
13664
21527
27706
6312
32718
25665
2981
28653
27047
9972
21773
10355
9761
21155
29931
3417
8750
30087
355
22983
29600
14390
642
12326
17297
11895
20420
4497
14338
10837
26329
27014
8386
17778
8104
482
27538
5278
24981
29452
9094
14760
15871
25712
32686
18292
5133
12591
17654
11342
8619
17684
32587
5758
9679
17867
22015
1821
30721
23629
32623
1831
14618
12959
6115
13009
332
31164
24501
3868
12130
3024
9398
23978
15689
32422
23245
25296
15824
14948
10209
20974
26540
26742
26361
21499
20927
20168
26274
23652
17562
27448
26258
16407
17728
25419
6282
17114
15660
7198
10369
3810
25494
3744
4094
19105
19443
11263
14534
16607
15803
26208
12983
20236
14702
12755
244
3541
20185
4486
16962
26613
10390
1337
14514
4942
28882
27377
29825
8248
29522
10481
9788
4889
8376
13286
23591
15414
22275
17762
12000
16840
4950
22155
8512
4179
28922
13077
14210
9523
6565
14445
2471
26487
2813
5431
21784
755
21848
7419
20878
31121
14278
1051
19759
24296
15697
6153
21498
29200
16259
18358
26212
2484
29225
4174
835
1640
23639
8738
2284
16189
25260
20966
12696
7315
18135
10780
12045
21807
16474
12496
10618
398
4750
13702
9634
31096
17384
15217
5692
12248
23162
21477
7322
202
16829
32015
15498
9718
15757
22756
1914
17693
3701
20567
735
19697
11053
30415
19927
5162
13153
16856
18956
28374
32692
26904
19420
11760
29445
646
5560
15669
28913
11990
8906
21299
7577
27191
1243
26531
19109
21825
22899
25592
13705
2601
6722
16952
31494
21048
19646
3595
25588
20347
21774
31762
28480
28347
28711
2937
15665
13743
6453
26064
16367
16753
24124
28950
21829
2351
26623
18455
11686
14627
14625
3321
9326
14789
26762
18961
28011
14143
23308
21755
15260
15649
16454
26601
17720
14934
22217
25915
18674
343
15226
31056
30844
6302
18488
3740
27722
28510
17854
18427
1176
19057
29898
30021
23470
32145
12927
13859
11619
17612
15367
16161
22496
21042
21886
29956
22950
25553
22539
21085
28883
30179
27472
19294
16288
25925
28165
9197
6703
5675
20959
27639
24964
29459
28343
5639
4049
22519
4328
23575
23030
15815
18169
26278
2632
14870
12924
27146
30865
10004
24629
11784
17241
1980
27519
13218
11876
31822
28908
27952
19068
23296
5164
15538
19057
16624
7472
11365
10589
12126
28814
5524
1580
2328
26408
10673
22620
1077
18697
4516
25090
25606
28559
5987
782
3914
21199
3523
20943
22177
1589
27278
7354
32580
26731
18133
14695
26098
2684
14727
17628
20014
4666
16451
14606
12711
7133
10859
31653
9208
24300
14970
18944
7825
6753
29079
9849
18677
3080
14698
10986
4391
30504
24622
25712
10334
32357
6919
7278
14336
21733
662
13013
25294
2738
15819
28067
26204
30815
20219
25002
28869
3567
14131
22675
32412
2290
25547
22562
21798
22001
6718
11964
27846
8460
22073
10534
24504
23010
19953
21903
12546
11953
4282
30673
32680
17086
29654
4852
31264
9208
16778
11251
9733
17368
24183
10691
20496
30603
22824
30354
14403
17235
6120
17997
20071
29995
6358
9828
4793
21162
30779
15057
28385
24105
12570
19543
6947
30504
19465
3079
25561
23022
28736
12297
25377
17008
2800
19865
723
13940
214
5200
23222
15094
7695
20133
16115
30923
14382
19379
4809
5252
13964
5693
13187
15765
29919
7407
4007
14519
13326
12262
15985
27018
3396
30579
11135
8063
6980
18460
10958
10741
19964
30692
2277
30626
7260
6349
27472
17717
2152
15514
5456
7993
10636
9689
25809
15165
12592
2593
7068
27698
7565
18841
18638
13844
3775
16313
26249
17613
29211
4437
32745
19030
30658
7127
29498
2079
1654
27084
9320
1969
8621
20642
13238
18066
30180
7087
3251
22888
32566
26742
24939
19042
32301
6182
26074
14036
11992
31332
24486
28705
30238
5450
24077
9182
31057
11952
11803
20276
21511
31402
24353
390
24613
4945
27492
12884
17468
7623
22802
11872
15385
16501
26490
24591
20375
20119
7291
30481
27576
19707
17981
13124
4596
13317
17696
22230
4561
4855
12786
939
180
30831
13413
2046
25591
17458
7616
24138
16699
17959
7124
25707
2304
20135
6194
3584
3955
5108
6043
5653
1926
4358
11704
29695
13382
16782
22795
6022
17514
24373
23334
12362
3111
1060
24859
1119
4428
22218
4147
6715
7562
8921
19171
14802
19219
914
16891
2303
16232
835
9761
18214
2155
21518
3454
27672
20412
1515
25015
11830
22594
24048
27167
13274
31240
13009
17963
29682
4171
29347
27686
2542
3537
13797
37
221
11132
960
5950
22994
25886
11150
15093
20877
14479
22426
16631
10583
23293
15654
19211
30510
22660
3507
837
16674
20990
3452
26748
26623
19741
29508
16127
9516
19127
30033
31108
8147
5984
10169
11873
23874
2622
4060
27903
4242
9753
4402
1931
3462
20658
5959
9454
25269
5206
8451
12032
24300
8114
4399
28920
1486
30697
26677
31272
14269
4324
19239
6375
4350
16362
31747
462
17431
15472
10038
30503
29564
9010
10846
1186
20075
12162
14420
9034
29973
7904
32362
22968
26622
29388
12017
11398
1702
1240
5375
29447
24937
8449
5487
25653
25252
6719
16680
28651
4889
3419
23715
14421
32149
17921
167
16292
30160
31254
14423
7686
18068
20299
16495
21461
2849
24307
19403
3086
14289
11282
28969
25350
5624
16310
9775
1368
14094
24458
27568
15138
8976
4776
3883
13169
17955
26799
9620
9209
24955
14101
9047
4362
891
16575
13723
20927
19229
31695
16579
9337
31381
27070
10299
26507
7473
13738
17265
18999
17540
3313
9249
2522
8387
26110
4566
3939
30831
10595
24238
265
17204
28968
31069
7230
27666
21091
24692
27614
32442
25865
23268
11949
17467
32260
6589
512
4829
20358
10044
9402
21837
25500
18181
26234
3323
9478
11181
5907
21441
27206
9595
2621
8389
14071
11888
906
21664
10080
30596
7835
20672
14921
23347
1939
7690
27917
22840
6092
26308
24049
32665
10953
18355
26804
25827
16236
15488
29032
6071
14697
11105
20864
10117
22267
21493
6953
10904
11990
9583
9950
25939
19036
16374
7990
30394
12307
9548
32513
11828
29271
23726
13716
28302
5708
3580
25953
16964
26391
22554
28875
1276
2382
26262
18744
18004
25260
2699
13415
18909
10762
23237
31748
18535
13194
7973
15225
22144
19734
2887
16392
5175
16137
3171
12054
2598
17707
11889
26314
22447
5091
23697
19671
5765
15784
169
32662
5998
3257
18000
7512
23624
9486
1259
5626
29514
654
5397
15034
6029
10114
5445
72
15051
3914
25002
10017
23654
14670
17242
15896
20908
24632
6828
13109
25433
12641
2274
26307
25693
6280
23820
29861
9696
29642
18473
10217
27780
17358
7310
19616
19178
11329
7308
21484
1399
22658
7245
32346
25432
6302
31487
114
4291
19070
14132
21901
30336
25439
8841
13543
10921
11651
30854
23797
24238
3622
23750
10489
28315
26548
1112
9427
30110
27705
3684
4890
3012
29721
20498
6507
4355
11521
6055
1793
10621
13597
10994
27014
20227
30348
1254
25641
7128
22289
5768
31985
12984
4107
3852
21585
26649
17063
28474
31484
4273
7252
27671
23034
6456
8055
25794
24828
19311
25696
28572
28397
25697
26237
17067
10441
24553
12750
31553
12978
7540
1177
2264
32577
16904
14687
16193
10522
31622
3342
21502
2755
2348
5496
19180
2230
11613
31748
5669
16820
27813
20644
27940
6493
15864
2311
7978
20734
4154
15
25825
8874
18693
2437
30015
4748
8358
28172
25006
27259
32616
25427
32106
5071
16406
21647
21546
17267
31675
3881
29698
11324
17068
10163
3720
11129
26312
11041
13622
9164
15103
28726
13583
31288
27665
7484
21893
27002
22168
13816
32411
8093
32329
17885
2631
22985
2679
31360
17690
29276
27608
16972
25122
5435
3980
17271
26128
3691
17243
16180
19862
26331
12095
13611
29459
17284
2082
23334
30578
15028
24552
15629
12879
5031
14000
6420
27996
9304
12631
19507
28420
16790
6462
25303
6222
30042
2382
8663
6659
28504
27705
7081
1299
25556
12290
9686
14901
19639
21183
17067
31950
16610
11422
21297
11540
21954
6950
9568
28019
16165
29119
12944
14128
8524
21365
8752
8780
18753
23033
25786
25771
16235
11752
31462
19573
26719
29776
15647
14781
10233
13681
14131
23392
15020
8384
27726
13104
14614
21042
5929
9554
31191
31926
14975
5861
17828
7683
5569
24548
4503
8085
21002
5198
13257
2290
31573
26756
17955
10034
6638
13554
11121
19902
38
23793
27320
5208
8267
7404
21706
13916
32471
962
10263
30533
5352
7020
9926
12402
14064
1248
21253
27691
21422
2869
17821
12767
8029
29191
21193
26543
32555
797
29000
27953
18668
8009
6065
21357
11024
22160
1031
22060
20690
19339
8589
31347
5811
26125
219
30282
25383
6407
5682
17857
30606
16296
12813
4405
19813
21960
26616
18640
21438
3974
22437
6479
8429
5168
3133
7688
27781
24676
26100
29739
25987
4981
16864
4936
14536
11280
21515
3857
23501
30752
26567
9826
28562
15342
31297
17278
20439
21645
25433
20892
8847
22901
177
2978
31634
366
5892
10288
26770
20144
23994
1760
31056
17992
26809
17100
6159
14013
25725
20049
17993
20980
22635
31763
4514
7761
25442
6465
21786
799
9876
32027
6790
29746
21140
12721
12353
202
2735
6637
18207
18875
4736
14547
11426
8907
31167
32264
30065
25436
14938
15249
11269
10827
31943
10462
22438
6423
30360
5895
28566
19014
5968
14933
3724
1796
30581
11524
31331
14
15846
3911
21524
3534
28527
26765
994
15303
23707
11779
13780
9012
8649
4698
31336
22764
28034
714
24454
29321
266
30039
5555
26313
7989
27731
30087
19765
23932
21284
31073
16640
2896
6215
32601
27441
9135
10389
26486
30725
31988
12229
25122
31630
10995
16947
730
2465
18245
21471
27434
1263
5089
8377
8665
26994
11244
27164
27233
5643
14035
11672
12449
22889
20886
14580
23766
17964
8807
16243
9160
4682
19059
21591
10049
1458
10752
28324
31427
15408
10936
23078
24698
16017
1092
14773
21104
14087
12061
32440
11264
17615
31135
31208
1933
13072
29536
26967
9332
5895
8895
10160
26942
6497
14528
24768
22043
28392
14103
28469
31628
17506
15490
18342
18783
8630
27484
5332
18912
2129
7792
26928
7502
20680
24587
10653
18828
3007
22357
5494
12825
27145
8160
4051
19522
28689
16258
3592
25494
30840
11872
20335
667
18943
9548
17000
21439
17576
9809
15005
3729
27160
29579
23691
17713
17728
26684
25150
9733
30012
26653
7515
1454
24443
22770
23140
17723
19745
23137
2360
26780
30633
12292
20185
29017
18639
4541
25714
20868
20909
22090
26521
2796
15652
11289
32721
20115
16765
21597
32083
12386
21840
5217
21774
17180
11173
20764
7660
12433
15194
2311
29527
8724
21957
8235
24828
3374
4249
12926
15310
14484
1806
24687
3150
3415
13884
18880
28170
2139
30920
10900
2148
24586
26051
20169
1173
12873
5839
20359
9458
20139
6532
20249
24941
28901
4114
9980
11614
32643
17703
15414
19076
8921
14099
28137
19782
18491
24106
21032
13887
25969
12905
13577
17658
4197
13405
3580
26618
16159
32065
24411
28158
17395
6759
13378
23683
23033
14297
12448
3977
21950
24127
26510
1690
20025
18435
27616
777
20993
4532
20218
23416
31933
18856
486
10396
219
8934
19619
12101
31109
20290
20415
11160
6352
17610
17448
24991
1591
29281
27967
5893
329
10154
28974
23066
7326
13352
2939
14877
9487
419
19934
21691
2342
11725
25424
23763
21716
26405
2405
32380
5474
4380
13275
17481
14762
29558
3699
25036
17031
30964
20735
1880
22410
16688
6589
8971
5103
2504
16867
13068
8143
12990
24699
3346
27031
25119
28529
16166
5048
2787
18155
28073
27296
23317
25304
21144
30442
21812
9932
16911
32721
6360
5131
22540
4587
7832
9700
13174
24084
27436
18496
25182
1191
32207
7290
25476
8437
32231
113
24861
10479
27624
3036
2259
29990
22902
30686
9486
1270
27850
9435
23410
21245
13142
12937
13481
19922
1964
24138
20834
18676
3740
7097
28825
31233
3996
7042
11033
22057
11374
13432
2112
25569
15356
25313
20483
21724
19591
21012
15921
31799
4352
9287
31484
29940
15798
27810
31925
3241
6194
3992
14039
18041
15967
32118
14919
2628
26863
31548
10970
21531
11513
28077
11800
30711
231
23202
14144
19882
2191
5283
21644
22805
27808
17592
25013
17052
16704
18045
17338
13271
16371
2677
4574
27786
22719
29344
20463
9176
24206
23888
7630
2483
21203
21048
44
31895
5232
1478
9874
18296
30168
9907
21156
31737
32368
10712
17574
15582
23356
2115
20799
3268
17079
9098
1149
29967
20482
17503
30234
6437
6465
26469
13054
2522
1347
19522
24580
27946
9313
31478
31233
20014
4264
13163
22275
10569
6458
31564
19670
2211
15601
15899
8397
17624
14406
13182
9406
15857
10865
32730
9551
8339
5586
17187
3440
2934
16272
2547
25385
10521
12928
21721
406
4532
26952
10739
13360
2415
25540
25791
5965
28369
11176
14382
25067
28027
3175
5882
31913
18710
596
30266
2582
21642
9479
7732
17454
26992
4355
32114
21282
29643
5270
12824
344
26098
9216
15732
28851
10449
22743
5591
13588
23633
169
2723
30753
31765
32484
11942
2629
15463
1523
15526
1271
13170
27562
10813
25152
8881
7396
23784
11639
29863
29802
13658
12624
17105
30999
25878
18197
30681
18234
16956
11058
25100
10556
3491
31479
18958
9091
24361
16282
25036
30613
11335
10875
8115
25217
7401
26284
23072
6779
8828
9137
14103
20422
1352
15748
17463
13527
23552
9693
19181
20919
8599
29359
13545
9897
23894
13814
5326
25101
4396
688
10030
11652
25157
17193
24501
22101
12253
17532
22180
21775
3159
6999
10881
30832
19593
17918
10765
14214
8539
12179
23159
28436
28560
30868
11727
3639
23011
10405
32189
30281
12630
11664
7795
4614
16327
19338
7648
26605
8388
25272
807
11241
7328
11761
8783
5169
14790
24262
22588
30061
30798
15039
17118
27162
27598
7656
18856
2351
10099
1676
2628
28673
12368
3649
32133
9060
27125
29732
26781
3091
12612
7270
28304
4690
6528
10504
21992
7377
32679
4066
22187
30420
26626
20970
1162
24977
23034
14259
10587
21721
11821
14132
9161
13051
705
26315
7754
29670
18936
8578
12882
2957
9989
16528
19399
3984
3359
3619
24756
24600
21715
21852
20801
22530
15262
13211
995
18497
443
3838
4560
17021
6714
22052
6070
30464
8530
27959
32428
10707
3320
27689
20841
804
19376
4669
29107
16107
17828
4810
16923
32718
29683
7996
6120
18753
587
21083
2385
25841
11962
24784
27631
14179
23489
13028
6001
18392
2219
19340
16530
32629
9244
8355
72
25504
27885
18550
23358
20397
21815
8325
23941
29114
7086
20872
7815
3799
3889
21681
16700
21099
12447
24113
17568
11475
9963
20733
14436
1355
14707
8146
10723
17170
17549
16246
23897
29129
23651
3650
10063
1308
4610
21725
31322
32677
3757
17482
32005
269
31095
5413
15372
32629
23313
11305
19659
12308
29664
26614
29685
25377
14418
31761
9353
22259
26483
32045
27394
18023
28603
681
6351
13954
5674
345
17410
18263
5016
17289
28492
3115
7238
8767
28201
11992
1464
25537
22872
25199
32455
25431
10126
26913
3570
26194
15979
12640
18933
16973
4013
20033
157
14515
5796
20261
16346
11138
18918
15000
29974
3918
21827
12409
5829
16008
12283
30556
3133
4608
25391
31020
18376
25257
5270
29461
18168
22684
10609
23712
27963
11104
5569
18976
27823
14185
11191
20046
12600
3294
32620
7984
463
23456
13010
575
19485
24711
15851
17352
20040
14319
1848
15763
4877
14707
24693
12483
29711
16632
15235
30461
5742
2286
11174
20172
5532
31186
1776
18244
20588
4855
15357
3814
3180
20615
12257
10692
25461
12996
14431
21222
12160
19092
1628
3307
26811
28477
5266
9715
10717
365
28297
12989
20150
24445
25539
17677
24842
28406
31543
24913
18335
24405
15106
30595
27541
2571
6232
25425
18422
5064
9152
14204
6030
13049
17793
22654
5373
16272
7767
10863
266
28675
24683
22057
25402
