26519
13442
27051
14498
31198
32629
22459
1273
18302
7137
6864
31217
6197
23583
32558
10439
5658
26743
22611
29209
20006
19856
9618
10233
6642
20267
27134
5695
22210
21265
15241
25891
3523
30794
19821
2571
29073
11920
31179
15009
21756
25092
3730
5673
32524
3871
24995
30994
67
21226
28723
11978
27937
19314
3440
30167
8686
23670
25703
2596
29619
11364
20773
10648
29322
28036
21788
18157
8471
18290
10953
24256
17751
29905
15508
8932
13976
26942
760
28668
19657
4995
3555
16713
21748
4109
15712
5824
12041
24481
28019
352
30941
30282
6468
18882
27250
13974
14720
25842
18297
11521
25085
11133
2581
8114
25245
1739
10978
18021
28532
2223
10806
16041
5165
8509
16039
4171
30377
26332
19661
22034
11498
9372
3145
24236
10800
8905
32261
23017
1889
24000
6078
26151
10926
7937
18624
4622
4724
11398
15345
9853
18272
595
31505
19651
14807
19023
22336
25875
3733
1618
15041
8498
7828
8319
18429
14195
11823
21972
27083
16869
8071
12031
14574
7627
9254
31603
23263
24396
12770
700
15822
11628
16132
24591
21987
6715
2474
15398
16329
19276
28266
22859
27757
1641
4664
9650
14851
30341
25482
18443
7755
15602
14010
23128
17938
8917
427
18172
19963
32470
31407
31765
30847
8988
7848
26892
1331
26488
25198
31339
3401
9184
4977
2030
2394
12064
11168
26844
25699
13772
7305
8855
16397
32121
21953
25970
20017
26668
2694
19396
25499
19475
31395
3899
10254
29555
17044
10354
1929
22754
30443
3269
18633
29622
3826
32356
27919
10429
25234
8870
15651
13103
16243
21152
10137
6624
22885
23031
21587
1210
6655
6130
4423
1643
4997
14035
31874
11867
6927
28008
3949
30433
19944
32477
28496
25526
1589
27860
10004
25770
727
4023
11853
20629
18066
2381
24952
3217
29294
17804
20352
13158
8029
32175
136
20806
31519
29064
6628
1979
11363
19222
872
11741
16943
24666
29158
16584
12929
18279
31474
14413
11319
28857
5608
5096
16428
15303
11825
13298
9636
14811
10945
21272
7658
4898
3812
13324
15159
16895
6203
22394
3798
6309
32257
20030
646
17637
13715
31700
24864
17988
24624
23824
21113
2641
17917
9999
20106
9014
588
21101
19406
19596
17693
26296
11500
12916
19941
6693
12694
12003
911
6530
28337
28989
19905
3180
4534
17446
4960
10690
29528
26005
598
28762
15719
9513
1171
22514
10228
15553
1617
3689
4534
5959
29085
5423
30636
31180
787
21242
4100
17114
23529
28090
3132
13317
29999
208
18055
31172
22612
890
24178
25983
16621
29586
2247
3561
2994
6265
5809
18832
5833
29262
30754
14259
30536
10595
15730
19283
10229
4593
23625
3212
5456
6154
15294
1062
10963
10192
19392
1384
17784
26085
11189
18988
12156
19490
9314
5433
2402
32396
30987
20172
17468
27779
21467
20344
4390
4669
20870
19760
27155
28275
28716
7843
6092
90
25985
18632
22837
25045
8235
2745
4050
20969
30827
23492
5515
17265
21504
4031
8108
17427
16712
5533
21296
20338
19881
1087
28223
25253
6959
27020
10997
25577
31094
4036
16229
12946
1483
11537
7902
29512
5774
12640
24685
27759
30170
9838
28322
1767
12137
22054
25751
18166
30129
11050
15407
20866
25171
32688
12700
20868
5558
20111
36
20921
31215
31385
23588
24219
11493
8236
20053
1167
21938
9476
21582
32352
26956
31315
27210
10220
8804
17684
25132
2333
12430
24732
11200
3355
25251
28530
29252
14784
20579
28256
13095
31565
18271
32202
12816
22619
32535
21823
28194
8724
22623
5454
31871
29858
11271
27547
27658
7144
27834
15666
5746
12400
8231
19226
620
165
29535
1326
15167
6723
28286
32552
16774
2059
2958
15359
31025
6075
13480
17267
14542
15421
27996
13797
24071
24607
11092
21101
2923
15427
8755
8999
29553
1752
1731
17357
21689
3720
3408
30347
2966
5619
10063
31502
23754
861
17476
23519
23952
14499
6626
9711
7392
10100
14195
15987
29166
30141
26746
19185
5108
18021
10903
24475
24369
31291
15020
26589
27441
32045
32062
32050
22096
29626
17950
8251
27258
23722
17224
2066
32564
31484
3851
31708
15584
7200
11626
27293
9532
3686
30915
13649
1325
23479
16814
24376
13243
7299
9768
6257
16988
30458
25585
22218
629
7807
10802
28887
1054
26457
11875
28481
29222
17068
2156
2145
28502
13992
6666
31245
22778
9985
1397
13746
4766
415
30528
4771
16150
9110
18304
31409
2753
2648
13872
17660
27406
9514
18132
13065
30526
23252
32605
17428
15980
6045
3661
21159
16075
30582
7195
12395
25136
24694
19417
13375
9168
8582
12052
28295
17226
26974
12540
30662
10472
10672
15556
3440
24353
15010
9036
28921
17763
21122
1022
15666
24592
9653
15606
9685
27079
17137
9829
21854
2532
32685
7479
23837
21578
2261
8435
27530
30304
27585
2275
15576
13657
11112
5238
31181
8633
13777
23266
30928
9236
19915
24077
5444
18201
15582
17582
4372
25296
24961
32687
13455
3360
28045
24279
8311
29588
26866
22693
1620
607
19625
2431
15118
31901
18922
11788
22459
27099
4510
7390
23734
31962
12311
852
2801
22416
20735
27070
26508
20592
32654
17091
7590
7403
14080
2560
12915
1335
22343
13810
16270
1359
20989
278
10129
32571
9116
20046
30948
25233
27889
11399
29394
27964
16590
15769
24802
27004
31232
1134
16484
3374
11648
24167
25674
24142
3310
11259
2873
16570
19770
27810
7136
4408
26021
20977
31625
29115
15080
3590
13037
10978
2738
24870
21837
18114
11096
10917
23998
18661
29640
262
30405
10130
24512
5476
24611
27215
17469
26129
26354
4517
10293
1148
9201
11299
5512
29272
29725
15526
30261
23034
24449
21975
20937
9731
25166
3828
32542
15424
19502
13780
7745
24526
10710
25125
28340
32386
27866
19961
21974
28039
17862
6017
10655
22857
25706
20503
5008
27794
4725
31874
8170
29427
23622
27254
19743
31334
15358
32603
12166
14385
31450
25679
32082
13582
15552
13166
5829
1160
27159
2641
24225
2984
27612
9684
30432
6865
28146
27421
13732
24297
7098
474
26225
28089
2788
25545
11162
29079
18565
1406
5113
14402
15465
31841
14563
10509
22186
17910
30811
26176
15233
5217
8070
7611
24925
17449
6496
19676
21810
24380
30124
31651
6420
20787
23601
13076
20740
12504
16419
13021
12810
17125
26592
10809
26500
6671
7389
30740
25277
30787
6111
13936
18625
21808
32110
5383
29296
11781
32390
18226
13010
636
29073
2313
22442
8983
30610
32716
6222
13481
419
31106
26293
3353
19105
20447
22226
19811
6438
29291
4128
23775
23991
23521
32127
10694
319
30421
12094
21234
30652
13722
9081
7909
27449
24931
26789
25613
4860
25768
20073
17991
2816
5324
6319
28065
16294
16124
26876
6756
16807
31834
20988
14930
5709
4443
18786
25388
22499
23661
27631
22135
14954
6110
18383
29312
18573
29433
8492
13470
27863
18034
25854
12471
6948
26628
15904
8709
11861
24920
169
31002
20040
3625
24441
2850
29192
26022
8210
18025
21056
29463
16554
4125
24566
16836
17534
12116
4981
16402
6760
26960
10123
24048
20916
13058
5365
27249
4400
7118
25112
29882
1154
21902
6898
13343
13246
32217
1359
15241
31032
3205
25920
31771
2455
2922
26057
23317
16939
31593
31194
24312
12673
2734
18816
14315
3636
49
32605
10077
4101
131
2646
2796
24366
4039
10123
3717
3572
29950
18572
18893
20604
25225
10698
19648
26335
2024
11595
24472
28032
28872
19874
31217
1950
21821
15647
13610
6181
16204
1347
15886
31946
10668
14966
2484
32598
31693
6140
20899
28994
1818
6182
6970
9605
27004
23749
20048
15530
31007
31716
7959
30501
7544
1207
20294
487
14727
20686
2679
28976
2905
30094
25037
23973
9426
27106
10971
22434
25001
13358
17857
9425
32436
13445
3736
31740
13926
24347
32273
13087
1686
31485
15704
5058
897
14591
12607
18821
23571
14070
16536
7933
29538
17192
23010
31934
13180
29697
31785
24249
32098
26632
18215
13257
23124
16913
22191
23432
21071
13747
27980
13927
3029
14332
12837
31742
6380
10340
1571
19360
5481
1536
13398
11059
31342
1272
405
26686
19250
6203
24421
3908
32512
17265
17949
27985
19587
18738
31303
20434
14912
2421
16712
30377
6244
9291
18756
27777
18368
13517
18492
14687
29202
14418
5753
9082
6022
30182
18478
29261
5500
31224
2649
26602
2700
31315
18154
25745
15303
13904
21543
26753
24384
10057
13135
26638
28620
5456
8829
9716
28165
25633
1488
2027
12949
11350
27593
6524
13745
29914
12532
12562
28643
8352
1739
27476
14349
25749
25047
28850
17067
22995
4888
14654
9816
23
4263
17086
2452
17525
12698
27903
24004
24650
24872
28780
19322
9331
3342
8926
13303
1212
21296
32438
27630
30619
12932
8234
5003
32287
17196
11484
12212
26659
14818
22961
26767
10439
15001
736
4420
20257
15969
2633
23812
30511
4236
28681
25930
18192
9999
22859
25952
19572
23083
31072
20262
20050
16204
4371
7439
26329
11057
30774
1388
31144
8013
25985
29421
23105
9837
26781
26212
14011
25756
19067
9677
6840
24131
18410
23692
7831
14997
23145
4341
5867
1322
825
4881
22571
13034
19639
18591
25259
28205
30185
31322
2762
28193
31831
1658
29037
23915
30748
7293
24749
5137
32316
26151
24781
10391
32056
16840
6511
7272
18400
29117
21255
10104
17001
25913
11407
26408
26047
32326
22909
29802
3356
30982
31730
9509
16858
22591
28468
31963
31110
31510
5726
4233
31285
16411
854
25038
22811
22918
2560
30032
18265
14016
5041
10332
8471
10022
18151
2508
29395
6665
22327
14894
26872
8185
4486
5922
23987
4419
30844
13828
30978
32184
1334
29131
5902
18864
24635
4145
26810
7247
9906
16917
636
775
4050
797
19820
28254
1689
7327
3738
27634
3009
20418
30885
16826
29680
27360
31625
20110
22063
20015
18105
21482
16029
9121
12654
3311
31076
19976
32062
13994
2541
21374
9968
28057
8784
18180
14735
1131
12047
30057
22461
14344
19203
22894
28490
25809
12182
6951
19205
8489
30003
7844
30418
24884
14331
26065
10749
2014
29882
18843
11214
2336
12825
20052
26206
383
18965
5977
7080
26325
26543
15858
28899
13907
3301
3961
17424
17351
13538
30399
32719
3611
26226
5291
24950
15646
19128
19492
25956
11400
7203
17713
19859
10296
414
11103
30317
15807
10759
11108
28129
18210
15331
29697
181
4828
27984
15917
12830
19747
22586
8303
20878
3692
24274
12684
8909
13105
13372
15970
19531
24818
23944
5908
32693
23674
16100
14183
4294
5475
2320
20076
28256
2780
6930
26976
12763
28074
11306
17872
14493
9069
21000
3840
31722
3877
14141
2702
6910
17140
5616
30803
19289
32550
19154
10634
9051
8814
5204
4916
29456
28530
21015
24507
8013
19338
22691
17365
13052
23237
11613
6827
6836
7470
16051
3387
16013
29005
27802
18682
28210
8176
30010
2494
21303
21803
6631
31452
23981
10909
4180
13197
24308
9973
5123
21143
18129
22197
11264
32041
14016
25142
30927
17670
24460
17644
7843
14821
23836
2540
8145
10776
1168
12715
15235
22125
22669
9481
9393
7506
6100
22926
9549
24892
6682
2803
446
11849
28436
11748
12432
25380
29649
4
14954
24873
21068
22834
22080
1993
8002
8715
5577
32560
2625
5039
13876
5670
21506
9416
26903
14131
32504
18377
10664
14599
28201
24180
29231
3608
26173
1695
26043
6029
9428
9271
16916
8027
541
19589
11762
15790
20645
30384
14188
11658
28524
5508
5811
21682
16958
32369
2304
713
1088
16855
22475
11191
10442
22657
24638
8526
15988
19055
12009
4142
2164
13016
951
17381
16935
17775
21025
30299
16621
14566
4513
11886
26682
15024
29290
29145
9194
20492
19030
20058
23765
18495
20000
32276
7076
9248
27347
11058
19939
5850
21378
5837
24919
1006
5946
9999
10641
7799
21301
8345
17347
3506
21840
3875
27859
15037
17087
8546
32174
11167
5888
31791
479
3977
3853
18661
7264
24668
21718
779
11951
15722
32494
18739
30245
25473
14469
13601
4996
26150
9622
32560
12495
3614
22369
28914
14686
307
25884
27415
22577
5940
31974
656
12421
62
252
30964
1189
8250
1327
5154
16131
17319
16534
6440
4487
4506
18304
28259
7975
24322
8620
10472
25528
18225
4285
2339
19971
11672
6888
10942
16412
3282
11760
27588
27119
14053
28244
20231
12828
27332
1735
23999
8453
25368
3040
19571
548
16959
18451
26397
12195
32661
992
2185
15398
14835
7754
8446
28396
4982
2443
4128
17942
31362
6
22037
29510
1030
1405
24551
1644
15105
2180
29481
15069
2373
14389
31966
6822
7547
25126
18326
27679
29287
27800
23770
7619
23405
16625
5578
9278
14932
14957
7941
32456
16971
27920
29641
21938
27689
22751
5212
26430
32761
23887
31658
14004
22454
254
6191
12722
16211
24993
19479
16324
5630
24637
14500
28724
5286
23963
22737
14884
23995
6902
12085
729
14901
4854
2857
24154
10199
24290
10541
15930
7349
31761
12936
690
9204
1441
24623
8691
14289
13932
17640
22969
31972
18232
687
7972
17062
32046
28505
16580
27954
31886
27767
28402
11336
13216
30333
7783
9111
29166
12068
30983
26684
32688
26380
20734
30598
18824
27302
18958
2812
29807
5713
11559
28065
28143
30147
6713
13942
19604
29355
3142
3137
5277
22164
25531
22157
13558
9229
27392
32754
20587
2823
2382
11670
10006
31870
6081
4084
13337
8540
3246
12508
21395
14490
28982
25275
1228
8360
21787
13597
7347
4111
13523
4720
31883
16725
1499
27403
8417
5664
23886
4463
7361
30111
25782
11212
21801
27174
4386
24263
4286
16920
20601
5498
12222
14346
8461
2748
8246
26149
18291
30627
25205
2252
5779
2888
12736
21631
32251
4042
9543
25344
21113
24726
23896
31668
1256
5605
4307
15179
15178
2438
3806
24228
23
6365
2265
13546
31701
18476
14485
32004
27881
11025
14016
12844
20909
13904
5540
3037
30914
24275
5138
13555
27560
10735
31896
32270
26507
4841
1274
3895
22624
27065
16864
23750
2609
3853
717
25474
1205
12689
10832
28683
17700
28782
22142
30069
19017
1808
28063
14134
9945
26157
25384
19010
3587
24067
18666
12660
3656
15841
136
6448
28301
3304
8494
30279
24943
16403
25984
3098
726
4469
13777
7683
21453
23746
8854
20464
10385
9489
25370
31313
15591
10208
11379
30005
25267
8537
29876
7855
32455
9684
30308
8319
18425
13468
2095
14574
31864
26614
7388
2810
352
26207
32639
14771
8331
30998
8176
21221
22699
27610
891
19703
29589
6645
11737
7187
22240
19577
5727
8840
17071
19914
32118
108
29387
22108
13899
1669
22005
14014
14536
20586
20346
25304
4034
18917
14087
17009
30580
9116
2751
27380
16428
31472
1931
9843
18756
14630
7089
27628
10324
28100
26537
11467
20646
10302
16684
7089
20202
5330
27789
20596
27947
24753
76
28007
21250
10591
9961
10715
30218
31580
13046
26085
28307
9220
14704
11106
1179
23220
9807
16441
2298
1326
32604
11744
20188
6975
18755
25122
22900
28063
17129
19743
4591
21528
27391
8340
6567
1770
984
5212
3226
10095
2423
21559
18458
15355
19949
31435
2502
8966
12258
15848
31416
16781
8049
12304
31488
28853
25913
15159
16721
28338
24496
14535
8955
22247
10939
19175
6169
25934
25980
23293
20492
2331
2667
24945
27176
2716
3497
23221
9900
18532
13713
3458
9208
20392
24975
1636
31738
21481
13109
27768
21994
18899
19851
4980
16439
10598
7847
28393
26305
6995
26494
19141
31048
5545
30202
27932
22052
11184
17741
1320
19767
5397
30852
2958
3873
12360
25439
30690
7346
1059
5472
28526
19109
1228
6946
20783
11659
8156
27116
17185
517
21441
10630
9405
25910
22113
20555
2751
29048
3839
17792
10284
4942
26467
32228
18580
10907
14389
18056
16276
19473
21675
12769
29088
14059
31076
23324
23039
21215
8851
29617
12823
19022
3423
20283
7659
5311
26762
24967
482
1419
30801
25323
26058
13017
12692
3801
2332
18637
4151
12467
3202
7421
11464
29409
21654
5669
21858
9250
2541
15387
11729
26399
23124
1029
6902
70
24409
11465
32109
13781
19982
16325
32622
30261
21513
2497
31217
14474
17839
8225
13590
19336
435
18015
1987
1672
11737
18361
6799
4315
12544
6439
20959
13150
3679
22416
9038
26702
1551
30269
23123
7518
7881
12686
4126
23559
31986
6636
23234
19488
10964
19198
30617
17582
13871
8992
29924
24317
18160
3857
7859
16368
4928
15851
13061
2965
21696
20825
8495
14076
8979
24068
22658
11338
22430
20558
27176
29961
24203
2371
591
24258
6420
18380
31882
19918
13566
12838
6003
12905
7523
5011
2966
21512
26805
8784
2442
26349
26624
25030
25441
8184
15215
29956
25923
15040
4114
30061
8533
9698
27358
8622
13023
18841
9462
30964
15535
7311
32041
5723
9912
31475
25275
24745
24319
29644
23912
25148
8632
141
13990
23873
3243
23273
18475
28711
477
25832
5039
24147
7533
22331
2035
20758
17084
10701
5890
9436
1232
27290
438
5798
28155
30404
31871
26042
27319
18915
4448
15768
23509
22429
25402
31793
5079
9080
13901
10324
17306
2795
25084
11369
6712
30139
4048
10593
7212
24709
27584
30189
30135
30102
10672
7662
19587
10243
1079
30253
21639
1271
6309
6221
11306
12103
17477
23294
17323
14668
26335
6771
21440
20721
11905
25877
10109
29195
20607
24697
15736
4841
21433
31375
1067
32556
20508
15133
13721
21721
18284
18796
5685
22445
31552
31298
6911
3761
25678
31247
15088
24590
12008
26475
28568
7969
24775
29120
10502
16594
3080
20548
14568
10786
13172
9515
30963
19716
17412
8474
12421
1902
18340
31454
32137
30895
13624
3934
17564
16643
477
15822
27757
24421
22385
21542
26730
8612
5205
8147
22169
23225
30833
30380
13507
21336
9081
19495
28888
10437
18543
9933
22671
3561
14954
2539
11341
8869
13973
10123
22856
21862
3962
28322
7916
762
7553
18827
9086
18594
6323
8372
15359
15464
16324
30104
27475
32690
28753
10733
23714
24600
5222
18206
23807
31347
2371
23035
6215
5174
25440
14000
7500
7938
13230
14579
27955
6772
12832
21634
6683
18498
29034
2509
14592
26246
9
4847
10974
25689
6787
23779
281
17572
21232
8437
284
9011
20921
12918
2880
4107
5024
21684
26864
13566
18688
11562
17932
31100
14934
9715
22922
6316
22017
21637
355
23995
19270
14491
21933
31349
22167
26483
30468
11282
8981
30522
7215
8786
25939
16069
8961
23756
4957
15745
10364
29314
24057
16301
27709
30650
20268
4806
788
30217
12800
24131
7410
10929
10117
29827
25096
32557
3350
12292
11053
28681
6109
12501
6528
22007
18842
3662
20815
17696
8863
20734
23608
30392
13599
18661
30350
28885
32169
5091
19455
24705
9456
26737
26483
23053
3789
30863
23094
29609
23175
253
24154
28210
14417
22702
30807
24651
14356
5242
23541
6063
30063
4883
6252
9414
17661
1338
20425
17526
18134
17971
32147
7227
600
6262
4271
31866
28455
6823
23681
7442
3954
2248
9556
2101
32632
7598
19452
10102
7755
10417
23737
10018
13268
11176
1375
9172
14360
5397
14004
22084
8121
27292
29978
12640
20928
30650
7278
9886
10905
21683
6959
1168
12383
22988
26851
9145
23643
21179
15286
21919
7623
1628
16741
18977
31191
26277
24410
24331
27898
31964
15897
3560
29021
26119
9178
27671
20144
29605
25207
28961
5934
17563
23689
30538
30167
27249
26062
10854
12800
28350
719
22766
3086
19681
19391
23379
22399
13298
30373
1426
30250
9465
19646
22281
6343
16733
3868
23689
26801
23967
3732
30892
32491
11335
31447
1641
19553
5407
11487
2533
22385
3232
28813
25484
29354
32682
4496
14689
20692
10104
12168
2706
6704
22994
7531
8528
26369
10628
20520
22237
17226
27408
8331
24039
8154
29088
25697
1812
21638
6206
8924
13278
6070
27463
26681
27553
3875
1565
31903
18162
24030
31005
587
9523
21397
19409
16106
24676
8466
28518
5190
29500
13828
13664
27685
17785
11266
7820
7022
4724
25293
5686
142
7672
12757
28061
24858
11092
21247
11172
19126
27311
27302
1226
31541
20636
20704
3932
5122
3055
2
2026
7358
3534
19558
14839
6442
22539
18795
24820
13896
1457
32702
5488
21181
16860
22744
6793
26234
8398
25544
8102
3483
3904
22323
19048
14991
19446
29849
7389
21370
8086
12505
3063
16087
18106
17912
23101
9058
16964
4638
2753
24373
498
26593
82
31281
7474
13254
7410
6047
3639
6917
30091
11031
9036
30605
28125
29857
6760
21832
20667
2075
6915
21664
14455
25563
553
5698
23451
23189
13517
5154
4569
21630
27743
3007
9541
11185
12705
23976
17346
10194
31158
1599
9402
23794
6523
5053
14099
29107
795
15734
27486
4269
478
95
28241
2320
26690
25805
26487
25226
25677
20863
4134
26731
28193
4063
14002
28679
1233
25989
480
24155
11635
26365
2205
12532
26743
26570
4592
3597
4407
11178
4398
8184
23502
15644
12909
16319
25902
3360
2874
13066
2413
16446
17295
323
29792
19657
19199
9209
8299
20069
28212
5762
14231
12999
24731
2277
2789
9148
3678
14839
5091
21101
19091
15555
13436
2017
11699
11567
10516
7875
14413
6109
24789
19046
3579
6480
12355
20230
23702
30800
4631
3921
17318
16271
27210
4901
20508
6796
32624
27548
24644
31160
7751
6214
1013
16856
7056
20917
11531
2730
10269
23871
17430
12491
11052
19967
30036
16088
5875
22301
18909
29139
27516
4943
24862
23753
23475
26016
24200
28594
18622
22385
24457
26009
1932
6077
3516
24061
9393
32673
8541
9590
6769
16411
26623
29084
11546
7442
9089
5156
24984
22934
21822
26956
16963
14698
18820
1402
26107
15295
30536
26143
28023
29507
2071
10722
27354
8026
7248
5115
26503
27307
8081
24284
31799
29407
16751
8727
12105
32165
26218
20348
3417
32506
9503
2945
12307
21671
9152
25832
10057
23307
27074
12187
30788
16154
31189
1755
10072
12710
18457
15001
32699
24542
24719
11300
3480
21780
20942
24069
32350
10691
12279
15143
23390
9168
17386
22844
21141
11280
15034
14939
454
15627
26975
20974
30669
12031
30891
20683
24623
1320
3456
31905
3317
8255
16703
5782
21179
31297
32387
5422
27396
20337
5648
13679
20688
22688
8198
10051
19313
31404
32091
22813
7066
3911
3463
9951
32441
11001
27777
28668
31878
1128
19691
22745
13020
24792
17033
15226
5065
10734
4344
2906
18913
4281
21149
12442
14039
25075
3035
7774
16462
28547
32393
10357
24300
13127
20899
23608
9136
3857
24895
24756
10118
19951
19139
8715
6425
19120
2390
19479
23785
24483
13972
22609
29597
930
17286
13041
6810
14415
15825
15191
23252
11678
29997
9130
31204
16020
5401
29631
348
11086
1742
13116
20567
13380
12145
32509
27476
31439
24204
3510
32324
19177
191
26586
17633
12852
27315
22204
19778
2111
20560
20213
18604
19460
15408
23045
24236
31413
6995
17213
13922
17336
12564
3036
10784
15856
1883
27256
22836
574
12053
22943
3073
20295
25825
31167
7765
6776
28172
19011
25590
12872
16832
32255
15230
21949
21112
28366
17257
25906
2999
29817
25965
4183
22522
8923
11274
9593
17131
13123
5729
26116
3031
7450
24137
1094
15458
8646
25760
11893
6010
20429
14303
19188
29833
16702
26865
18898
23279
6477
8774
12180
29103
1341
13603
15668
5992
17539
4412
22889
13960
31784
23172
7977
10684
22895
4420
13676
17579
18360
106
21556
21731
15780
26148
6858
12051
25978
2734
6986
7292
9417
14697
16225
15522
18255
20524
27222
12103
20762
22750
31815
6809
15341
24901
6838
25003
9189
1305
25156
7970
10076
24157
26043
14385
32270
20463
7762
7111
2938
24157
12589
518
28812
2810
11812
16376
24696
25905
11205
893
15593
17946
25756
2952
15707
27211
14770
12427
9669
24049
15955
20784
20604
28447
12564
30538
3924
6757
1557
18699
10248
9637
26244
6775
28636
23842
18786
13080
19072
9946
2442
7156
4152
24598
7407
2492
7994
14655
20773
14150
7255
1011
12579
17469
9950
10072
30791
27672
958
11952
13978
10568
1002
9774
2646
6326
10754
14856
4773
12652
21295
19406
32684
9362
26447
29178
25544
31133
21586
5576
10775
15043
22755
9032
22075
17842
25163
32689
29018
5249
403
14840
18537
4839
15337
10657
24491
21419
14918
28630
16244
14939
7245
3766
32307
27969
29301
2799
11183
9107
9066
19343
401
9194
16561
11287
32035
1781
3723
29905
18007
4719
17181
11620
2059
16462
16589
32166
7563
17982
20463
4273
14680
12621
7073
11833
26920
27112
30195
32285
6957
13318
10060
10811
2202
32675
19721
21129
10596
7536
2918
1890
5445
11209
5794
15901
30215
20455
22366
29668
28415
3927
11847
29379
7640
23978
6900
27904
6290
12911
18961
25259
3273
15198
20158
1397
25659
32470
2866
3782
4741
650
3236
15369
28717
19063
24171
25931
18149
17433
6244
25092
29454
29150
11412
12340
15996
27355
14350
4530
22649
701
23319
5057
3852
11779
23689
13541
11643
30315
7285
7413
9230
5034
6668
7024
23830
31840
4288
24596
25390
843
28838
8621
15553
21691
13855
10028
8396
26694
25783
26360
26853
15036
10573
12425
25725
25694
26485
5170
29026
24394
13850
32062
32135
4666
3944
12863
22024
29550
14312
12195
26473
22503
8429
4232
21279
17110
18992
31186
32337
18772
26295
15226
32223
24147
18683
7208
932
6869
23113
773
12536
22108
8553
29642
29305
9121
7294
4382
18700
1416
29229
6430
9246
28756
15873
4157
12592
27415
31758
3662
17554
25965
22485
25055
16238
5482
25192
32201
5897
29137
29647
25861
24902
7303
15273
2241
2668
20807
17686
19635
6184
11414
29141
9646
7638
24314
12458
1651
17916
8295
29443
3785
5399
30714
9690
12496
18843
11242
12765
16530
32053
28091
18125
8667
27475
5812
30244
2123
230
2196
24826
32169
6502
1665
32041
8826
3351
6721
13744
23762
29836
22956
27221
26987
17769
8289
4751
756
11373
4537
1954
5035
18607
30457
14860
9518
11303
19916
22048
654
17777
6896
7153
16550
5838
21807
28273
8363
24172
31889
24026
260
5095
12752
12621
20571
24335
25100
13241
14068
27628
23232
18431
27197
16383
23029
2132
24231
29899
28341
29926
19381
31636
15811
30146
13906
20071
32393
13301
30056
12890
17490
3569
25774
28437
26553
11059
14786
8081
9313
29475
12151
32
16103
27452
31600
23982
18197
16492
16878
2630
19033
32702
31718
31448
2677
16950
855
29241
3191
20476
14810
23915
5100
32446
32123
17695
24145
20303
24519
30840
13002
3732
21286
21778
6679
32160
17003
20547
21187
17694
18090
9632
21918
14319
28489
20163
32366
10517
20570
10316
11490
22736
19240
26662
29127
15622
17680
18700
7294
10472
16531
3915
15534
6099
3241
19145
27702
8052
32343
31302
30054
19760
26755
29666
10606
29379
17928
14047
31510
9767
18950
2729
12720
30903
19067
3859
18507
10644
14616
8676
19754
22344
7757
15762
21877
29865
19111
13645
22829
1280
12891
29247
2917
25451
10019
5651
688
6528
25672
9908
17878
2355
8448
10071
4299
28154
7419
17083
26081
31023
23353
27311
16188
3509
32542
4310
29830
24286
32712
23719
10469
30348
9632
695
21802
26263
1583
8507
16972
10607
29236
17864
2068
30211
2547
94
25625
2785
27599
10149
31983
13470
12571
12918
26012
4984
11566
19101
30027
25658
8885
31966
18245
20576
25422
10806
30492
2428
3410
7778
27945
13272
23537
28582
20281
25693
15749
3015
27012
13747
9248
5721
9183
14506
17511
31809
22322
17369
13988
24690
5931
26245
11798
17914
17460
708
14988
6978
31139
21217
18482
2705
11313
24067
20906
13267
3246
8202
30814
13209
755
26810
30485
7008
21783
13851
8901
16150
20198
3615
28072
31706
32142
7046
8338
23556
21404
4607
16002
15461
18727
7568
18039
22224
19531
24887
18309
21976
5594
18642
31527
21980
13901
12860
22999
30529
28417
12729
24028
26111
11168
30100
26724
31327
12252
3334
31954
22275
19812
5722
18009
10278
13840
6223
7114
26661
15967
2750
30122
19774
9252
21116
2696
17560
11644
13442
1421
7812
13315
1099
2901
20483
28744
4478
253
28040
6526
6349
18814
17151
11636
15389
27961
11533
29895
17895
24531
6042
5974
15326
22594
17805
21750
1234
28456
17878
13927
9684
30560
14770
19079
23195
17623
20522
17350
3366
21918
6877
2522
28835
4413
8192
5044
17296
4681
19875
7602
32032
11833
12854
4118
27104
12149
7755
10679
31642
30128
5022
17142
20601
28792
9554
15604
13679
10251
11645
28930
10196
18541
31719
13401
6736
25271
25103
17420
250
22706
16495
11578
26817
9892
30977
1416
7692
32618
27394
1998
9885
28359
23542
26897
4795
30204
29164
31154
27024
22169
8963
26340
13520
32658
15917
12387
28571
20629
28979
9828
23717
10139
28666
967
1940
27838
8452
30868
30121
4170
29497
14501
18851
12054
16616
25248
24288
20757
25609
21289
8134
30248
24517
14421
7009
25910
17208
31073
7757
29055
10613
18084
21207
10797
31434
26050
11359
10284
21318
3619
8705
28220
12921
27043
31860
3909
22651
3467
15153
3818
29744
32705
21720
12384
1737
7227
22224
10113
8334
28345
10286
24604
23259
21684
29657
20368
13161
31633
32235
1177
11471
3867
26714
26985
22601
11312
10967
27643
11447
27578
16886
164
20201
6626
22928
13035
12057
28032
30310
14490
8121
21461
25350
15125
18800
9340
25587
19179
8287
20894
30464
12715
16040
26726
8701
5625
18481
30132
5269
9696
15269
8982
8567
15210
21692
8180
21172
12142
25533
11018
7528
20138
15937
20507
30877
9489
11577
11748
23404
4966
31794
22608
26213
25354
3544
10986
15410
19475
6585
8087
19830
8605
30540
32133
7163
6245
6706
29791
14605
23444
9147
30659
801
25560
11692
28405
26299
17593
12864
3285
9870
25643
13676
25614
28388
20575
4967
2961
14400
10207
6250
26434
15682
18394
17845
26864
1996
13500
26578
23947
22883
28930
25117
6801
29400
13901
21380
8138
32551
17589
30860
309
9631
15455
28308
11586
1859
13650
15454
25409
11121
2438
17355
28187
8129
1342
230
30528
20272
29080
14884
1504
21630
11619
1515
32350
19412
18480
18768
13826
26538
21420
5157
28398
19688
24365
32307
20563
31307
20874
27076
12004
16139
5424
20325
14731
1211
19058
30441
24155
28784
29729
16817
31687
7973
21085
27179
12817
350
24490
23705
26885
6668
9287
3348
24038
9393
21435
28368
19881
26308
26800
28833
3937
12375
13060
8894
13051
20471
3102
27078
30763
32212
9598
25344
12710
546
9624
24039
26770
6846
1763
3814
21562
25621
27949
24416
31239
18754
25905
32499
2476
16246
17003
6654
18848
20637
3883
22880
10193
14654
17129
3971
17047
7587
13016
13978
32230
6715
28861
9254
30921
13116
3074
5567
30475
26508
26886
31505
4919
27362
8888
8485
19652
19241
10852
8930
18057
1317
6605
17107
18807
19544
27515
4650
24454
2599
3414
2309
6896
22585
372
29681
23966
31264
304
23212
13535
6715
22140
17456
7520
19930
24440
31724
17241
9380
28739
15445
4868
18230
1808
25245
11603
26893
1661
4034
5346
4518
27169
23243
10027
227
10596
30799
13817
12977
15508
31542
21791
17896
30773
4803
12393
19059
12952
27091
32211
15024
26543
2911
24569
9241
20255
28744
19663
17189
6295
6740
19602
5737
16992
24691
9470
11523
15926
20552
17602
13368
22615
18660
817
2140
5337
13013
2106
19698
30528
31071
28826
20501
26704
10505
592
15639
11808
22364
1361
25191
10864
14311
5246
3768
21308
646
31443
18783
6546
3812
28897
27133
12960
18751
20094
21343
30481
25707
1211
21922
19610
27930
29718
31643
19919
8794
29425
18294
9276
14175
6211
8860
18609
25219
7822
1243
7645
23947
29457
5825
6430
15148
17726
21320
28056
13774
10862
27833
28037
23439
10708
30922
5579
15243
17583
10249
30676
30811
20164
3198
30106
25563
11020
13196
1025
2096
16554
5913
26474
16906
15391
10735
7813
20519
28865
865
28518
31769
28266
28209
19164
16456
8045
24241
31230
3898
718
5161
18950
8210
22194
27001
10851
25687
18196
6399
28937
2807
29882
30651
14604
13452
26727
27569
3949
15581
18003
8591
25140
15784
21976
17808
26046
11935
12654
17312
25689
18096
13017
21185
11278
649
28577
20397
3774
29788
22979
10941
10353
16607
22694
27913
24554
28056
28240
6353
21887
25687
15578
26908
13351
20484
33
13470
6357
13978
20415
30687
1028
29812
15674
19098
2451
31944
8826
17507
13012
881
13441
5261
18144
29681
11862
20811
27949
22966
10306
16917
24162
7580
28479
10574
5993
15540
28846
20771
17094
23620
3656
24502
19496
24334
28247
13948
21054
24533
7206
24803
27340
13598
3254
22073
27902
25140
23474
4809
13820
6510
21669
19527
7102
13236
7275
17774
546
16704
3814
1255
17980
6050
9458
29549
29677
263
30362
9519
31159
28858
11660
21109
20175
24811
31690
17287
16244
15792
27299
13259
21376
329
5602
28717
829
26024
10053
13507
11897
20273
9776
3505
2525
21694
28579
16203
30330
2278
27242
31098
30629
26751
19347
23137
15109
4705
32549
1088
26346
11373
2319
19096
8928
6606
29279
14992
3717
26239
5812
663
6807
3085
26102
32075
30801
29599
28228
25497
4856
22835
16942
27174
18353
29738
3877
19950
20373
2311
30767
5164
4103
18548
2272
377
17733
8070
21637
3127
15166
23873
5538
20016
2212
20831
24991
14715
65
18509
17598
5280
19598
2167
23120
507
27010
13509
13609
5734
28840
14437
11345
17170
27508
8140
24572
5814
8151
759
2748
6636
2833
25847
29430
19159
32455
11436
4243
31754
5205
6865
15095
6821
27237
24888
29495
8129
24769
16215
7814
12559
18021
18436
17649
13499
11737
13437
10317
23703
23485
26795
18285
27765
933
3240
8600
16340
18216
24446
20025
21184
11060
10034
15577
20979
30628
25089
12619
30272
13589
7401
20518
12082
15605
4971
20345
24816
4060
31888
8121
14691
26144
10538
8446
24731
11940
22364
14447
2159
28656
24412
23035
8036
16263
7544
23115
10961
17268
15703
7412
3136
29223
19074
29424
13846
1151
10786
15695
4983
20008
25100
10282
10084
28711
20730
4569
10022
6579
15387
29285
5104
19271
21967
22336
6080
20469
8619
18228
10630
24829
22980
8858
15496
10142
14634
21452
32517
4396
20402
25565
27672
10595
17145
18311
13536
28411
8357
30820
17630
22140
9710
11873
26014
28500
8286
19825
17818
24359
19412
23422
26203
10086
20943
4773
13793
26915
19945
25506
22341
6948
31650
31881
24221
26166
29023
10168
1056
7107
3251
5897
4747
31399
29660
28492
5315
13888
20625
10228
1723
29636
10235
4880
3480
12760
29697
8573
31507
20062
25032
14170
8223
7822
22906
9405
13004
19784
13127
5796
19308
29608
15786
5167
15604
8156
30958
23564
19621
15922
11248
13874
3307
6261
13862
3538
24453
24442
17120
26506
25318
29430
16846
2013
20187
23442
18627
24032
1135
11074
17080
1589
21772
14290
4116
31293
17634
25538
31787
16266
19596
26963
11268
11155
24049
23522
27231
4012
12393
21365
29942
24885
6178
30356
12036
12817
27841
22106
23812
3418
17228
20683
19899
3154
32583
28008
5240
14237
32541
26625
14491
2222
26562
24011
32340
8064
21399
20658
11437
134
26766
29936
29899
28388
6542
31967
24176
14047
5913
22283
24005
31890
13100
4748
30295
25315
15462
23955
3935
7862
5229
21058
23878
19041
1422
1473
1128
3423
7075
3470
22809
27720
1082
28436
24805
21760
14835
11648
31004
15151
32554
27088
18063
22770
27606
18732
21140
26577
4785
5498
31056
26096
410
19501
3381
15241
8503
3933
21449
21657
14302
11549
16297
730
5046
12553
3022
15346
8217
13342
7184
2026
27197
24271
18152
13281
22804
20820
27770
7426
7280
26182
32467
10163
5995
873
24431
14095
18950
27849
13822
14487
32272
19976
9319
6180
15178
28150
31758
12321
18120
16482
22611
2550
12698
18992
16987
711
15020
2988
16914
10335
2027
25886
112
25191
31401
10655
24316
15324
9027
21546
10383
24768
6145
4854
16219
9231
13117
7427
27691
8692
31944
1523
13036
21053
17033
1052
20589
7949
9319
23771
17763
21456
5994
27435
4784
30836
9244
29814
2789
27863
25654
16299
23813
22651
888
8848
15500
17025
18393
31066
19119
26069
25824
15483
9446
5542
7762
10427
15528
17945
32269
11658
23669
3390
8500
5524
32282
12355
24716
7575
22065
4327
22566
28017
14567
3890
4671
10110
15362
13155
22884
544
14882
13355
30170
8095
6982
11544
23100
6196
1683
6484
870
27232
24913
26255
3986
17794
16183
13370
20673
25257
10216
4854
24157
24487
21949
22604
27164
20583
20933
23198
23591
31360
4362
10589
31356
28425
30486
5501
8080
30384
25014
7718
17465
1030
8702
5549
24780
8221
1677
4802
27010
1365
23315
491
27169
23667
272
27441
1240
20467
1502
16408
22634
27040
23025
17877
4495
28257
3422
28604
11159
11350
13722
15864
9296
28451
24708
29822
10026
3724
14502
15940
29593
19267
16056
4269
699
28157
15462
25416
12347
23755
21588
4027
27253
6824
21342
28154
11738
25934
10020
189
20374
25935
7622
17968
23409
9312
21228
236
2291
15864
28170
3366
3020
32282
5602
5670
17267
25198
15690
16379
3596
12695
11567
6510
17039
7361
28634
27188
5671
8057
370
12648
28888
4546
27074
26680
30053
8293
9021
23774
16497
8072
29503
14802
8932
27522
6038
3389
23440
19438
27969
25777
5141
3326
29815
20760
9473
17171
21996
26347
25916
27786
19791
3749
2212
26072
7447
14710
20980
25561
28543
20027
7146
26725
18639
25262
32169
25893
28382
5338
3676
164
27093
6355
3100
12713
565
20131
27156
9413
24604
29831
2530
8232
12228
18780
9281
22968
28492
13140
9445
29541
18875
16109
32167
4534
9026
2596
13538
16552
15041
28645
13085
6841
1165
1991
5098
26176
8817
19958
32269
7423
7410
1904
18145
4603
16855
13941
25848
10636
19433
13112
30210
22448
14328
15579
23536
22692
27422
5786
13657
22454
3656
1351
13596
30805
17137
16630
7495
30058
5425
12025
24887
19179
20215
30735
13057
7596
4242
20184
17
21881
21111
31372
8465
7523
13374
31213
16653
15959
15597
21114
16340
2037
28793
24550
5025
15262
24202
14280
28154
11727
3711
30100
10201
4526
27826
714
14602
8931
7421
12141
16084
8617
22141
11959
21979
21797
11413
19467
19269
2038
26934
27691
26908
13069
23646
11947
25075
19135
17631
17318
8141
25112
13922
18863
31290
6259
8363
18442
6083
1351
23583
6429
32392
5700
24451
22817
6184
5023
774
11549
11489
16042
29826
30229
6649
16039
16639
17534
18268
20446
6009
8182
8326
26861
10467
30514
5283
19040
18795
19512
25077
11393
14080
28878
12407
32625
10513
26418
16320
29048
3480
15115
11305
12186
5976
26272
3890
5227
354
6216
32546
14628
11230
27681
12782
7413
30216
28165
18268
22173
31097
30650
32360
1081
2728
16233
23015
27993
8880
10834
30826
2905
5716
14269
9061
27631
15936
6196
22929
8704
29841
17647
22670
14520
2968
11152
27085
23769
8667
16913
30381
12371
30557
5882
10212
31766
10272
12759
5153
13348
28647
22505
16880
490
23360
2332
221
18640
2498
18745
24028
22799
26004
2397
14056
17602
29743
17834
12779
2881
9316
11068
6878
3754
15776
23134
27953
1984
21615
6398
3181
27641
26687
2399
28696
31186
3687
14606
18137
24422
20071
7191
21724
12095
4977
18552
4472
5996
22313
1494
18447
3795
27050
1391
16438
27849
31433
22096
12566
7904
18589
27080
1042
28928
5951
15388
10923
7098
21966
30076
2976
3288
5302
5942
19289
7737
12594
2346
29573
11996
23056
7038
15875
21050
20917
20627
1790
2521
4448
823
10845
15646
12723
15644
20570
25443
15471
20872
28016
5193
19327
4175
31099
29263
6456
9471
8731
9124
26079
30298
31833
19770
22123
6665
31117
17436
12429
12430
9087
26881
6126
15739
25548
25121
12472
20449
23179
10055
19287
3852
2097
5160
32129
32621
20146
29939
19571
5080
3561
16681
19582
24304
24378
30895
22979
30943
13430
22306
20027
27978
24062
20842
22778
17795
15404
4498
23220
769
8174
25814
27520
7694
7860
20478
28124
23744
23949
15851
21233
5674
6028
31856
29721
13779
25457
31587
9631
4968
31877
499
26310
29357
4806
20027
21260
16313
26180
21272
14511
23395
12747
2104
30833
3064
10434
116
4760
26159
3155
14944
1338
16990
7117
24352
24503
4589
25670
25469
12167
10507
13188
16184
10806
20641
12830
11933
14508
13444
26846
12892
18354
495
13674
16789
434
18992
29219
25138
21950
32161
21838
7033
28628
4826
19314
30433
1633
11813
20736
805
8451
23859
3897
3480
15507
15117
16461
1464
28771
4172
7872
16133
30916
17293
25618
1300
19148
11808
6815
13791
5462
10496
18116
22111
21321
26120
11075
21853
21278
26979
11497
28805
22428
14149
6510
28604
13798
2520
21916
10931
5304
9082
14003
3260
12526
4389
2829
2781
19270
28974
5630
16419
9062
4659
766
9273
9249
32335
5130
4153
9462
18063
3911
1474
25817
8874
12265
27723
8759
14572
7763
14519
29748
8820
13183
13097
18743
32671
2977
20249
11944
12484
11271
18856
17912
1826
16452
560
2786
534
12941
16672
20209
27794
9059
24839
3651
28362
1139
3566
396
26672
23226
3819
4445
9635
27628
19955
3751
18403
23319
4592
21627
28233
30851
7955
14099
31157
18654
12652
25622
31687
1941
1464
6168
9810
10373
25722
19808
20237
7379
25421
18415
23436
24344
20600
8894
10607
2754
31939
16966
18138
695
22409
20549
3877
27451
4367
9408
32724
31507
14100
16452
22985
26602
32681
15218
25272
29173
13891
20411
23260
21203
32527
23911
31464
5047
25733
4828
3649
3784
25408
6429
32106
8136
26637
27025
23743
18420
29762
12550
21351
18732
23633
25589
28292
31828
21660
26631
13484
26362
16523
30425
3485
21561
30684
7676
21036
29917
30267
65
6271
19143
10515
15411
4220
25492
20387
7140
1153
9849
8532
29165
21078
14705
11850
18352
28768
16795
11833
16608
21271
733
12666
22596
18106
8910
26718
22967
4417
4819
29890
15732
28819
25992
31203
18576
18681
4961
24180
5832
6098
29329
29934
29053
32393
26154
32296
6141
31173
2182
14887
23812
6367
21735
31543
15747
18841
5210
28474
21663
3085
4577
4929
20733
8931
22992
1369
20285
5063
2168
10408
15812
3098
27651
20408
11711
32232
32159
24850
13668
2331
30175
10767
18299
1262
93
21483
9246
15780
21157
12059
18109
14969
10830
18656
30053
8153
30314
32541
21825
464
12321
1638
10337
15042
9880
5721
6330
6748
16920
12337
13422
202
620
13208
32590
14890
15498
13757
15773
11841
23414
20135
23575
14445
10340
20681
6450
15323
24093
7894
21412
18426
2979
5078
8741
24880
2584
12666
6262
16843
2524
2220
23970
10042
31478
4203
30596
32637
21685
24278
28553
2778
150
30854
13496
17874
27753
10785
24303
12115
1968
8236
14191
16175
12360
12577
10906
8397
21067
3522
1788
1567
16180
19372
11657
9939
68
32303
5925
16334
10277
20829
21354
9942
26574
23393
25765
18062
27302
6163
7457
5800
15852
17097
25001
25686
18262
623
30024
32513
3832
7130
12883
7486
24680
7769
21673
3582
1824
16013
14650
2564
10787
21371
14022
14749
2788
10720
29671
17035
11107
8644
24146
29250
8089
19026
10074
22615
3606
28647
27062
25909
9193
20585
23683
24850
32704
27098
14221
20257
22608
5933
11466
4361
25079
28504
6951
24215
14240
6826
24199
26031
19176
4703
24841
9865
8063
32370
20874
24602
21968
9650
9068
8399
18660
9240
15253
20353
17283
23384
28346
16550
4253
20918
13533
11204
27369
29467
13844
5420
4044
26728
5261
32740
31100
30986
6095
31717
1125
10959
7490
25734
972
5111
29170
25401
2482
5007
31120
2677
26107
25594
18106
7411
8399
15313
2171
21789
29761
28909
28950
16580
2350
20929
31231
1297
31592
10477
10539
7870
26900
7953
15241
29317
4433
28383
22737
16857
17947
8053
13436
22485
13678
14569
16403
626
19886
10021
21165
11260
16710
16117
27060
10439
28048
6494
26343
3358
10485
14642
28581
8060
15445
12001
20840
15103
2984
11922
3984
13849
12774
19570
32354
8585
5157
21324
3920
29577
12289
26971
12922
29513
10561
30556
29046
30877
23224
1510
10060
21490
28264
1278
31173
29319
16622
12775
30694
4826
5146
3895
439
7520
21725
9008
23881
30072
30824
28748
7414
22178
13458
23578
15083
4588
6010
30793
3556
16302
17006
25090
31543
14711
19468
11132
2580
28743
3495
970
15371
29439
24557
4343
20174
14613
2758
12372
19257
1420
27775
4369
1423
30244
7207
23819
29447
4814
2873
25573
30855
29026
27260
31834
5807
16788
22056
4049
5913
21797
3402
1074
7903
30806
14441
30713
19038
11938
874
1161
13882
10156
3761
31426
6563
119
31625
19925
21974
9429
6086
8279
7910
25890
27817
10133
8636
5169
13571
22824
19292
16775
32413
5833
5483
25543
31448
19558
31726
1902
17041
13429
85
21952
4423
13960
23992
2051
15232
5153
21088
6890
25704
22472
8841
22100
14012
14940
14438
32055
9446
29351
1382
14806
29802
9012
2230
6715
6272
23141
7943
12513
8194
22720
32657
11697
14985
4490
2648
815
6356
6551
19374
27638
11369
30816
22777
25698
2686
3926
27318
27788
30233
2934
22462
9851
21879
5406
21960
9368
5803
12831
9008
31843
18311
3603
32247
29029
25791
7409
3082
19557
9292
19422
6343
13023
16143
13382
19389
4786
32183
1324
15539
30233
3300
5822
2284
21468
23692
23597
19882
12232
3743
10171
11249
8028
14566
29974
14733
1733
32305
11748
855
8717
17073
7327
1203
11919
32675
419
14429
18606
31278
32389
9830
20934
24975
19367
4985
29283
6259
27657
13667
3249
11684
21346
4306
13108
18408
12912
25693
30649
2343
23948
17605
9869
11467
385
20091
16876
25964
6814
4194
20924
15789
25098
5077
23420
97
9560
9708
5751
27635
15451
17915
12349
13572
4412
23900
13651
7253
28361
9327
29226
7144
2320
22750
24654
28514
29741
10534
29664
31668
32096
31059
23878
23034
6755
25866
4897
2467
25338
8909
14463
3539
18635
11387
13139
31237
368
20758
1826
12789
22219
5065
18430
24765
20889
31786
14776
27454
29258
15292
28498
25025
27665
19640
32435
13534
5687
28173
7326
12702
1972
8357
13541
2268
4352
2538
21210
26097
2087
24457
28167
22672
6940
16501
28447
5614
7247
7984
308
21798
32129
8518
809
19165
27863
6170
11627
2081
18478
30436
16348
16535
23215
27131
19472
15318
6307
29520
28604
30222
19848
12347
4971
13293
28772
11387
371
3523
4697
26232
26920
13796
7034
26826
8783
32334
18909
7423
17622
24971
9969
15257
26818
4825
26386
32087
8808
22921
26459
29110
3808
15269
15804
7862
1207
15317
3916
19937
15588
11907
8416
10890
2045
27198
21980
5459
25515
22364
4425
20722
1116
8932
11560
27700
10039
6315
31750
3393
16469
26812
2257
547
22830
23549
2282
14978
13137
15376
13435
3761
857
29304
30987
30703
22556
8957
14928
7654
549
17745
5444
23928
3941
499
22907
11451
12069
22100
11443
66
4671
17465
3245
5535
7054
4192
9019
18213
29859
21606
8347
19699
23225
26600
4099
3886
14315
25833
23165
28045
23717
19315
27637
8219
27993
2177
11920
5432
22643
25629
20544
28897
26766
6854
1686
4402
18152
9748
17623
15401
531
30879
6225
23213
27886
12572
7919
25807
27092
2249
19468
25423
30227
268
28549
10850
2464
5206
13074
12722
7945
28238
470
11687
30634
28460
3636
19941
28708
32354
27109
17686
30987
28802
25671
32233
2015
1116
8952
8538
5182
15206
10404
21045
30039
4450
15899
16853
13218
22330
29095
562
8911
13615
8348
14619
22524
6194
16176
6335
20522
3730
21133
16754
23282
22488
20773
28846
7540
11248
23878
8536
16785
32137
3566
325
9562
15293
14816
24573
7879
22261
30967
31423
10157
3335
20411
18885
1514
16546
14642
13000
17378
24556
761
17607
3376
7785
12178
24837
17301
1567
21248
30033
24628
9208
7569
11145
29954
21351
2300
12897
25208
27982
23467
865
5515
24096
30298
18989
25053
26435
8161
20745
19509
4024
17230
5788
22829
2045
21559
28916
13354
1330
19791
25035
17041
22396
32054
9
30520
16295
5526
6794
31259
18447
12395
30752
30801
9408
16290
22748
12350
24284
6886
7305
3593
20285
8119
12922
27728
11356
6076
13958
19739
12145
22874
24400
7951
5340
22149
8652
25317
31684
3542
11774
17690
26878
4574
10501
32743
28976
6843
18521
6515
20022
21992
12881
21064
25540
26714
18408
22531
30541
22216
15296
4176
7972
18506
6759
4118
11490
22309
10202
4847
5895
25573
13895
1755
9700
7853
23063
53
26552
15052
7980
10726
12313
144
9063
1496
9877
12639
14958
4526
10394
29187
32428
9138
659
12102
29593
5134
17492
12479
7483
1600
13496
19947
12525
26312
10376
31104
17247
28963
16543
5885
6110
20989
21324
20102
29909
14755
1272
21231
8596
29367
21513
19991
29009
20775
7174
26487
32620
3423
21499
6394
248
24510
3103
17935
20342
28743
28340
18685
4323
28314
18479
27256
8438
26146
23193
30577
8099
8847
53
26930
18659
14471
24931
21417
31159
1688
16836
3588
1642
17010
10399
18815
17943
26195
26755
2682
30572
4802
18990
14287
25261
14464
24238
13410
23804
7868
15558
14074
4311
6534
11667
21583
12258
1158
3183
28516
29159
21998
24086
1046
1307
23981
25352
32757
21411
1254
10542
7508
16982
8608
24767
29852
19653
12991
30821
14310
8824
6195
17564
19656
10619
7023
13915
14446
2586
23580
25847
4589
10216
29967
28484
28373
11270
28025
30717
32261
1185
19038
16742
17604
32189
21577
11311
12813
22321
25917
7580
31785
31731
21230
4323
31876
16022
18737
22486
32185
16145
10418
20161
12271
24002
15845
1942
14184
24499
25663
12359
2391
10267
27045
14452
2802
11048
17957
31302
9929
32251
31716
27291
19542
10229
13143
5219
3541
6449
26550
25417
20566
27217
14254
407
16912
18814
11863
19795
2808
14506
6245
10414
27538
280
14754
10656
15879
31
30364
27852
3449
12587
18074
4009
14227
6404
469
5603
19556
30291
24549
15871
8301
23394
14970
2367
17656
5411
26700
31429
23212
884
17493
20986
29279
18081
13629
17457
28715
26154
18710
31112
9412
21703
14665
20751
4360
30122
27344
12333
2008
1796
16038
24895
8743
5578
18044
17793
14672
24249
12718
24114
23469
16536
1653
28915
28517
9149
31582
19313
30597
31442
1275
27203
12115
16601
27608
1814
28639
6254
32432
20999
5082
28748
13537
23120
19883
20755
21790
27175
9152
14409
29796
23011
1826
9374
24879
7777
14413
14196
20205
5798
28222
3998
21939
23749
29645
16744
6703
7683
12093
4056
12766
15930
18450
19252
6014
19067
24354
30916
17351
32503
3311
10201
15958
25632
6708
6159
15082
18187
9918
5326
5842
4377
12925
10775
19110
17110
15579
5757
9270
5665
28236
7793
23744
2958
39
9411
24422
26376
22196
11366
21470
24507
390
10100
16748
1841
5643
14193
24077
11194
6241
17108
24053
14866
26219
963
22332
25150
22821
29727
3541
951
4148
15040
15295
9418
7106
32258
10623
31039
30856
16256
10957
15417
4652
9503
21390
24925
16334
21327
30978
24886
28382
15501
21311
9432
28720
2604
21214
21700
6994
598
32500
3852
15389
3918
28484
18616
32394
19447
14002
24167
19655
14746
20987
6202
21386
740
28324
9453
8358
28718
7728
20551
4060
28930
18838
30901
31219
24282
30962
2098
23050
23850
17275
29801
23854
31393
31669
2590
4136
30636
27624
1994
8088
22077
14032
19333
24136
5834
12438
6185
1466
18072
17407
13749
25859
17209
14308
28911
29148
22356
26850
15950
28663
5284
19282
1046
8847
3907
18811
20421
15427
24105
20999
31406
292
1263
10932
484
20237
10969
23372
5465
51
17172
17623
8775
23548
2620
14607
23759
2581
32034
9748
3297
15295
11467
10849
8795
32617
5052
9471
21621
29316
20596
5624
20572
17811
26939
25359
15133
18049
32026
21678
2757
25912
1579
24352
31430
26223
4371
3072
8093
14531
3532
6130
23986
8202
7592
6289
18304
10980
658
16040
9973
9874
5015
2212
13852
1292
23206
31049
19193
26957
16276
9893
31413
19954
25699
13634
30715
31235
5828
5024
12449
14353
31450
2530
28299
897
21313
29128
32716
8231
2639
10973
10767
20503
24730
7922
27958
7095
25786
27338
22848
24601
6224
32535
31600
6024
26183
19877
9899
4193
20057
22230
6947
1573
27093
11086
20786
20683
11680
13807
27528
7771
3450
25096
5257
27320
25731
29129
19185
10685
18174
6395
25018
22412
8532
12270
14143
25379
18524
4786
26529
10033
24281
137
32362
25895
13381
3997
27504
30353
205
2287
16125
10407
8860
16528
28972
30239
16476
15891
14486
4934
29946
18754
13358
79
26794
12048
27754
5611
31532
21199
28580
16410
25421
24483
3519
23360
26544
11831
30477
26491
5326
12974
17008
1588
5180
1757
7872
30196
2349
25783
13165
121
5687
9480
29798
3850
28762
5735
27961
22791
9022
16485
18299
24772
27324
26379
4202
12951
17824
25220
465
6704
9645
7958
21036
16937
24802
22871
20493
29150
18428
27293
19646
23935
1596
14774
6696
15460
11882
9177
8179
6560
6426
29149
19439
4824
30766
11689
25011
31062
17308
27628
28036
2393
25458
24078
24184
11183
15127
16486
3034
30086
31187
30893
10705
23168
21649
30898
28989
17669
3300
14672
32482
2269
26953
24989
11720
25598
684
28261
28897
418
2861
28119
28653
13213
29219
9085
27547
21998
2401
10354
11505
4244
4025
23503
1005
27555
17599
14182
6509
27030
27087
23731
6220
7143
21586
28175
29134
26077
30012
2087
16702
24998
31193
28589
4821
7077
27082
18253
4574
6157
26187
25059
25112
22191
28343
1259
10332
18704
20045
12088
1663
28351
5940
14314
3706
3045
20157
22938
28872
11806
12009
32215
27152
29575
8491
23766
13316
18457
22126
17765
32137
3381
8282
8481
11800
24447
28627
2281
30820
28400
7363
32146
61
7463
23322
6364
6068
22016
275
19109
22400
22120
696
30301
5792
21872
18088
1210
1346
17312
14360
15789
28388
5261
14872
32404
26553
18093
24599
8369
26958
7531
4010
9179
8813
16759
28553
29043
32322
15200
18394
19354
9916
31844
14259
15521
1590
27015
25562
6849
3159
7394
719
29709
14902
20798
27148
30372
14786
11233
139
10539
1122
22696
14985
1915
23768
11350
650
22422
8299
16684
13213
19168
13125
16826
2273
16268
3098
22004
9800
13908
8970
26248
7835
20589
18377
10863
6846
27066
8957
12994
1590
9024
26343
26832
25832
29146
29510
12909
13859
1325
28792
12429
2273
6879
9699
19473
9546
4612
3987
1248
28538
21209
30500
14138
26500
24245
5091
19273
27319
7228
30256
761
6688
13270
16935
23050
2639
4192
32127
11364
8286
22561
29873
5802
16432
29183
31581
17681
12279
27378
3050
9331
21753
20410
2670
10655
11667
20173
11981
8948
11390
13972
23076
18478
22865
9174
23400
31871
23111
29813
26442
30434
19267
21080
18270
17580
1553
27304
1149
23139
16367
9535
4200
9940
8268
28765
12973
23648
13519
29853
15567
25751
26267
17704
18849
12808
21714
24617
3059
25686
14423
4993
28784
29327
13529
6587
5831
20410
15117
834
26121
15791
24634
16337
16466
16940
20219
23596
6572
29220
13633
18446
30256
1882
21399
14434
4975
29743
4522
31157
16656
27064
15368
18156
11450
1044
20264
30770
9524
4349
29611
7733
6346
9372
4065
23954
21235
28834
4751
7821
15666
4500
23279
25862
10042
18022
25081
25769
23125
17996
2273
9572
31750
10445
12513
19486
1005
5145
56
23462
18668
9628
30835
489
27016
18643
16875
17769
5010
28767
20623
9962
28422
25944
17891
2926
12339
8419
13385
612
5404
25607
10112
15389
21023
444
5738
17535
12756
3909
8722
22013
27704
28352
17901
22727
30987
26620
23904
25149
24950
17290
8835
18602
21745
7191
2597
7983
1380
23033
8464
11773
3724
3335
20109
15047
27809
6318
8235
13688
17974
26177
701
7457
3424
4497
3234
12597
15386
17342
15689
17144
12264
12364
22003
15157
26811
26745
12219
10287
12053
30926
13012
26587
25965
1269
21267
16972
2261
21962
13741
2159
9434
3508
25665
2808
16044
30518
12569
32156
31615
8641
12461
6785
1584
16589
27752
6643
30764
296
12975
21080
18830
18573
10272
5222
3207
4984
32279
6035
30723
25913
29303
2765
1417
32327
31911
7532
9827
19672
19418
5221
21504
19374
31380
16320
32662
17204
7018
25676
9483
8393
777
28049
1302
22620
29561
31750
19106
1081
3235
9092
8051
14114
9745
28155
29707
13474
30198
30308
32463
926
10606
12278
13926
3885
20998
11677
19298
18858
19583
32168
25890
1543
1231
28097
9718
31587
15209
19235
14981
9951
12222
29447
30828
32686
21508
18271
20520
12652
28214
23495
5686
20657
19036
28345
26488
15845
25100
768
11483
10838
7473
11631
567
29575
4107
27346
1143
18636
23159
4645
19193
20243
3185
14084
4152
14085
13271
4195
19880
31054
30575
14207
20193
11576
25388
21268
0
11647
18861
721
31562
32609
24327
7945
6675
12276
28868
8363
3295
7100
24364
17780
16070
21629
15299
17507
2077
6478
12562
9838
29778
5359
6058
6003
7960
22108
23655
17265
27844
14242
7154
5112
8695
9970
6025
25054
7806
1524
26371
28468
16246
4957
3086
15736
11444
4804
19132
5132
5476
9906
27454
19175
8175
4344
18671
11659
4387
19781
21140
2615
28302
14839
24545
16733
8234
17202
64
26966
21824
17455
9935
23125
12422
4823
22439
13978
32650
27025
14948
17128
340
9048
13794
9016
71
32272
31044
20399
17225
22298
5691
21966
6692
5670
4229
14825
2347
14920
1715
3290
22560
15695
22576
2550
2133
16722
27775
20800
30226
15499
32708
4573
10551
5992
6278
14536
6434
28896
2739
30663
26579
32004
11236
14494
22606
12758
7395
20610
1089
13917
19563
2000
5351
18425
5934
18943
812
2549
10524
4564
8978
29531
995
26068
32339
20236
20146
30975
16968
527
21315
17339
17673
3114
19480
10511
26070
30383
26629
31761
19638
9625
9966
31138
19805
16087
29650
2648
29011
7144
8200
24764
27987
31144
9161
18358
1522
23146
18415
13637
10113
20038
7420
30067
13619
5557
25438
393
21379
21083
18674
22399
12752
14883
8134
26038
5962
145
29219
24298
14098
27220
6091
2658
3997
16155
12415
25705
22874
3498
10180
8962
18580
30253
9703
29400
9881
28364
4671
116
1564
13951
2738
8626
5848
27172
29818
13174
23670
28623
2601
32667
19633
11361
2795
16172
6328
14172
28428
3287
9683
245
17850
23454
31050
7787
8203
17872
7043
12440
11586
18488
13930
6342
27726
15764
29461
28611
5779
11849
23209
29496
10221
18516
15991
23862
10226
4996
27499
23058
6264
13798
11431
4211
11608
23681
24939
28585
12657
7236
10808
14400
15599
24381
28981
29397
8397
12812
20945
18729
11160
1430
9130
30068
11126
14590
11438
15356
20840
32721
15999
8933
22988
30848
17180
23627
7718
1812
31935
5774
29727
18461
32001
9965
32206
12267
5956
16983
20279
10753
21074
14461
3345
19655
7490
25900
26829
30079
19356
19418
7635
24698
7357
4479
21519
4492
21116
18598
2988
8381
6925
17347
30239
16193
21030
25031
24680
2219
23905
2290
4756
29789
10210
17384
18567
31555
313
13576
10232
17857
25481
21497
22461
30185
25834
10629
7241
25074
22541
32171
7539
21221
24607
11247
14713
7066
31727
4597
2372
7139
19538
19534
31213
1031
6599
13714
8065
27762
23895
23471
9473
5546
20671
24448
32173
25733
18897
29346
15234
28314
25880
26499
12034
10997
17339
1979
13363
6927
24739
9376
20714
32765
16608
5652
2121
28647
841
7074
1927
24508
4963
21450
4079
29988
901
15768
16940
13494
21049
30844
11971
24684
7908
13909
20449
6739
4522
5071
20567
8071
31372
19183
17379
12127
27603
29676
13489
29413
21426
18497
10785
30857
22823
7168
3275
6166
34
361
3009
21220
22761
19131
26387
1104
16059
24138
17305
30313
27059
4306
27628
12012
22512
31243
8886
2163
20979
30589
27180
27625
3656
20886
25816
15937
14441
14074
13212
22119
24287
538
29940
3959
3242
32008
18811
19246
4579
6026
433
30878
16288
17261
22779
29477
6936
27419
25067
19871
19464
13936
1986
24027
19029
4554
18739
7244
3826
11103
4202
11265
19460
23252
19533
7895
28740
9995
12034
18926
31141
24124
13745
15961
23352
29767
23947
14874
31308
6984
10763
9549
1753
19052
24699
28579
13087
9988
7355
25106
3722
984
9022
14539
2009
27326
5205
6509
23167
25707
25776
14712
27465
29320
16161
18692
22594
28681
13220
30131
16340
19386
22429
6628
815
20762
15200
27689
2031
29549
22774
17148
15608
20237
24607
16557
26277
21761
915
31647
30243
21712
11149
30388
28695
22679
12682
32262
9863
1882
2382
15320
18935
408
31529
6604
5586
27682
21368
16982
7180
7469
11118
22128
29702
8101
12053
11151
20658
196
1167
9686
16887
7140
14498
650
9559
22673
21620
9927
2511
3811
146
18033
2814
1546
22839
30572
26506
16683
22476
1296
22208
3691
30123
6103
24954
3145
27688
1369
16966
6448
13778
23675
4292
24908
13558
483
15440
32414
9061
28847
6625
24395
12151
29542
2353
26170
27216
26926
29983
31197
27490
27456
13137
30031
19763
26266
1821
12192
26465
32243
19370
3437
27107
18420
2386
20659
15761
15781
31307
6884
19943
27942
17031
21819
8198
17567
24280
29517
23291
2425
3928
17378
9540
20431
16648
17410
31632
1567
15031
10323
25799
26950
4390
4258
10058
29867
9833
6591
25468
8890
14480
16782
14209
4500
17287
20827
20550
24580
14907
17006
3009
22198
23294
20703
4218
12707
9005
12460
32330
7632
9744
6409
7266
16184
19201
6647
10384
21254
14033
28696
11198
16904
25703
19138
30652
14177
12458
14418
12863
3966
23970
11459
4393
13131
20697
22143
11274
13222
4360
13684
1767
14612
18159
10347
14907
7090
17797
25749
23612
14191
23889
2919
3935
20601
32536
21160
23070
7157
29112
29385
11257
16627
8020
20340
13243
26017
15793
3687
27390
7358
21984
4227
31473
18258
28446
288
24153
16029
24824
28580
25814
23117
4275
10068
31592
9972
7658
14698
24113
24760
17017
28007
6013
1613
27034
2986
28671
6176
16974
13890
13405
22485
20735
17409
29680
7156
17507
20945
7365
3039
4515
32331
6375
22536
7101
902
20704
16992
27175
9005
14205
2835
12981
6357
17106
5490
15036
1677
30334
22832
21368
4022
25392
29650
30123
5653
16234
28257
16519
19750
32133
2914
24526
6067
758
12552
7480
25510
25807
17319
8469
30748
19849
1132
9779
27066
28672
18508
9474
10564
11199
6970
14838
24683
18046
9117
19245
4327
24297
23041
12626
10694
31907
26892
26561
1796
24971
18868
2027
3931
62
28592
5116
25692
15325
6700
21692
22719
21776
7361
20147
8440
10314
13476
4753
29195
8527
15902
27853
672
2036
24124
14475
8794
2598
29895
22979
23397
